2020-01-22 23:41:48.258 | -0.1356659,-0.21343994,0.0 | 2020-01-22 23:41:48.444 | ID 3 | TERIMA 22-Jan-2020 (23:41:48.869255)
2020-01-22 23:41:48.445 | 0.029266357,-0.165802,0.0 | 2020-01-22 23:41:48.509 | ID 7 | TERIMA 22-Jan-2020 (23:41:49.181854)
2020-01-22 23:41:48.610 | -0.14360046,-0.05645752,0.0 | 2020-01-22 23:41:48.741 | ID 11 | TERIMA 22-Jan-2020 (23:41:49.498837)
2020-01-22 23:41:48.770 | -0.072128296,-0.03630066,0.0 | 2020-01-22 23:41:48.855 | ID 15 | TERIMA 22-Jan-2020 (23:41:49.532852)
2020-01-22 23:41:48.951 | 0.04269409,-0.046676636,0.0 | 2020-01-22 23:41:49.001 | ID 19 | TERIMA 22-Jan-2020 (23:41:49.811206)
2020-01-22 23:41:49.096 | 0.10562134,-0.066223145,0.0 | 2020-01-22 23:41:49.170 | ID 23 | TERIMA 22-Jan-2020 (23:41:50.301200)
2020-01-22 23:41:49.247 | 0.027435303,-0.10409546,0.0 | 2020-01-22 23:41:49.298 | ID 27 | TERIMA 22-Jan-2020 (23:41:50.332220)
2020-01-22 23:41:49.413 | -0.025100708,-0.037521362,0.0 | 2020-01-22 23:41:49.503 | ID 31 | TERIMA 22-Jan-2020 (23:41:50.366854)
2020-01-22 23:41:49.564 | -0.095962524,0.037612915,0.0 | 2020-01-22 23:41:49.699 | ID 35 | TERIMA 22-Jan-2020 (23:41:50.448827)
2020-01-22 23:41:49.744 | -0.049545288,-0.017364502,0.0 | 2020-01-22 23:41:49.851 | ID 37 | TERIMA 22-Jan-2020 (23:41:50.480861)
2020-01-22 23:41:49.917 | 0.003616333,-0.09188843,0.0 | 2020-01-22 23:41:50.000 | ID 43 | TERIMA 22-Jan-2020 (23:41:50.770194)
2020-01-22 23:41:50.120 | -0.08862305,-0.12547302,0.0 | 2020-01-22 23:41:50.242 | ID 47 | TERIMA 22-Jan-2020 (23:41:50.802865)
2020-01-22 23:41:50.318 | -0.03303528,-0.028366089,0.0 | 2020-01-22 23:41:50.428 | ID 51 | TERIMA 22-Jan-2020 (23:41:51.082834)
2020-01-22 23:41:50.476 | 0.013381958,0.004623413,0.0 | 2020-01-22 23:41:50.591 | ID 55 | TERIMA 22-Jan-2020 (23:41:51.394885)
2020-01-22 23:41:50.660 | -0.09107971,-0.02407837,0.0 | 2020-01-22 23:41:50.772 | ID 57 | TERIMA 22-Jan-2020 (23:41:51.430221)
2020-01-22 23:41:50.853 | -0.006164551,0.013168335,0.0 | 2020-01-22 23:41:50.942 | ID 61 | TERIMA 22-Jan-2020 (23:41:51.710847)
2020-01-22 23:41:51.025 | 0.06958008,0.03883362,0.0 | 2020-01-22 23:41:51.105 | ID 67 | TERIMA 22-Jan-2020 (23:41:51.742236)
2020-01-22 23:41:51.165 | -0.0025024414,-0.00819397,0.0 | 2020-01-22 23:41:51.254 | ID 69 | TERIMA 22-Jan-2020 (23:41:52.022833)
2020-01-22 23:41:51.331 | 0.03842163,0.006454468,0.0 | 2020-01-22 23:41:51.474 | ID 73 | TERIMA 22-Jan-2020 (23:41:52.055219)
2020-01-22 23:41:51.503 | -0.021438599,-2.593994E-4,0.0 | 2020-01-22 23:41:51.575 | ID 77 | TERIMA 22-Jan-2020 (23:41:52.347834)
2020-01-22 23:41:51.665 | -0.03060913,-0.002090454,0.0 | 2020-01-22 23:41:51.774 | ID 81 | TERIMA 22-Jan-2020 (23:41:52.379825)
2020-01-22 23:41:51.832 | 0.05430603,0.026626587,0.0 | 2020-01-22 23:41:51.957 | ID 87 | TERIMA 22-Jan-2020 (23:41:52.655857)
2020-01-22 23:41:52.016 | 0.015213013,-8.8500977E-4,0.0 | 2020-01-22 23:41:52.113 | ID 91 | TERIMA 22-Jan-2020 (23:41:52.688838)
2020-01-22 23:41:52.162 | 0.087905884,0.05593872,0.0 | 2020-01-22 23:41:52.244 | ID 95 | TERIMA 22-Jan-2020 (23:41:52.983202)
2020-01-22 23:41:52.338 | -0.09901428,-0.011871338,0.0 | 2020-01-22 23:41:52.445 | ID 99 | TERIMA 22-Jan-2020 (23:41:53.298847)
2020-01-22 23:41:52.503 | -0.018997192,-0.0033111572,0.0 | 2020-01-22 23:41:52.593 | ID 103 | TERIMA 22-Jan-2020 (23:41:53.331286)
2020-01-22 23:41:52.659 | 0.05430603,0.021728516,0.0 | 2020-01-22 23:41:52.760 | ID 105 | TERIMA 22-Jan-2020 (23:41:53.617853)
2020-01-22 23:41:52.841 | -0.0067749023,-0.00819397,0.0 | 2020-01-22 23:41:52.940 | ID 111 | TERIMA 22-Jan-2020 (23:41:53.651886)
2020-01-22 23:41:53.002 | -0.021438599,-0.0033111572,0.0 | 2020-01-22 23:41:53.092 | ID 115 | TERIMA 22-Jan-2020 (23:41:53.933491)
2020-01-22 23:41:53.137 | -0.031814575,-0.0069885254,0.0 | 2020-01-22 23:41:53.184 | ID 117 | TERIMA 22-Jan-2020 (23:41:53.989114)
2020-01-22 23:41:53.272 | -0.063583374,-0.00819397,0.0 | 2020-01-22 23:41:53.298 | ID 121 | TERIMA 22-Jan-2020 (23:41:54.020458)
2020-01-22 23:41:53.406 | -6.713867E-4,0.008895874,0.0 | 2020-01-22 23:41:53.494 | ID 123 | TERIMA 22-Jan-2020 (23:41:54.262482)
2020-01-22 23:41:53.536 | 0.06958008,0.0052337646,0.0 | 2020-01-22 23:41:53.594 | ID 125 | TERIMA 22-Jan-2020 (23:41:54.304454)
2020-01-22 23:41:53.674 | 0.0592041,0.021728516,0.0 | 2020-01-22 23:41:53.757 | ID 127 | TERIMA 22-Jan-2020 (23:41:54.578475)
2020-01-22 23:41:53.807 | -0.047698975,0.007080078,0.0 | 2020-01-22 23:41:53.855 | ID 129 | TERIMA 22-Jan-2020 (23:41:56.616494)
2020-01-22 23:41:53.939 | -0.060531616,-0.004547119,0.0 | 2020-01-22 23:41:54.001 | ID 131 | TERIMA 22-Jan-2020 (23:41:56.648093)
2020-01-22 23:41:54.071 | 0.015213013,0.005218506,0.0 | 2020-01-22 23:41:54.152 | ID 133 | TERIMA 22-Jan-2020 (23:41:56.680090)
2020-01-22 23:41:54.206 | -0.0134887695,-0.0014801025,0.0 | 2020-01-22 23:41:54.247 | ID 135 | TERIMA 22-Jan-2020 (23:41:56.711473)
2020-01-22 23:41:54.342 | -0.017166138,-0.0027008057,0.0 | 2020-01-22 23:41:54.408 | ID 137 | TERIMA 22-Jan-2020 (23:41:56.743106)
2020-01-22 23:41:54.477 | -0.004333496,0.0015563965,0.0 | 2020-01-22 23:41:54.538 | ID 139 | TERIMA 22-Jan-2020 (23:41:56.775095)
2020-01-22 23:41:54.610 | -0.02935791,-0.007583618,0.0 | 2020-01-22 23:41:54.713 | ID 141 | TERIMA 22-Jan-2020 (23:41:56.807107)
2020-01-22 23:41:54.776 | -0.018371582,3.5095215E-4,0.0 | 2020-01-22 23:41:54.864 | ID 143 | TERIMA 22-Jan-2020 (23:41:56.840075)
2020-01-22 23:41:54.908 | -0.020828247,-2.593994E-4,0.0 | 2020-01-22 23:41:54.980 | ID 145 | TERIMA 22-Jan-2020 (23:41:56.875156)
2020-01-22 23:41:55.041 | -0.012878418,-0.0027008057,0.0 | 2020-01-22 23:41:55.135 | ID 147 | TERIMA 22-Jan-2020 (23:41:56.906471)
2020-01-22 23:41:55.176 | 0.0029907227,-2.593994E-4,0.0 | 2020-01-22 23:41:55.272 | ID 149 | TERIMA 22-Jan-2020 (23:41:56.938476)
2020-01-22 23:41:55.306 | -0.011047363,-8.69751E-4,0.0 | 2020-01-22 23:41:55.417 | ID 151 | TERIMA 22-Jan-2020 (23:41:56.971467)
2020-01-22 23:41:55.446 | -0.008605957,-0.0027008057,0.0 | 2020-01-22 23:41:55.533 | ID 153 | TERIMA 22-Jan-2020 (23:41:57.002492)
2020-01-22 23:41:55.578 | 0.02192688,0.008895874,0.0 | 2020-01-22 23:41:55.684 | ID 155 | TERIMA 22-Jan-2020 (23:41:57.035117)
2020-01-22 23:41:55.711 | -0.040985107,-0.00881958,0.0 | 2020-01-22 23:41:55.842 | ID 157 | TERIMA 22-Jan-2020 (23:41:57.074489)
2020-01-22 23:41:55.844 | -0.03425598,-0.003921509,0.0 | 2020-01-22 23:41:55.891 | ID 159 | TERIMA 22-Jan-2020 (23:41:57.107102)
2020-01-22 23:41:55.968 | -0.023880005,-0.0069885254,0.0 | 2020-01-22 23:41:56.020 | ID 161 | TERIMA 22-Jan-2020 (23:41:57.138481)
2020-01-22 23:41:56.098 | -0.0061798096,3.3569336E-4,0.0 | 2020-01-22 23:41:56.182 | ID 163 | TERIMA 22-Jan-2020 (23:41:57.171090)
2020-01-22 23:41:56.228 | -0.010437012,-0.003326416,0.0 | 2020-01-22 23:41:56.299 | ID 165 | TERIMA 22-Jan-2020 (23:41:57.203470)
2020-01-22 23:41:56.370 | -0.012878418,-0.0027008057,0.0 | 2020-01-22 23:41:56.452 | ID 167 | TERIMA 22-Jan-2020 (23:41:57.234459)
2020-01-22 23:41:56.502 | -0.015319824,-0.002090454,0.0 | 2020-01-22 23:41:56.577 | ID 169 | TERIMA 22-Jan-2020 (23:41:57.265478)
2020-01-22 23:41:56.634 | -0.006164551,-0.002090454,0.0 | 2020-01-22 23:41:56.698 | ID 171 | TERIMA 22-Jan-2020 (23:41:57.430480)
2020-01-22 23:41:56.764 | -0.004333496,-2.593994E-4,0.0 | 2020-01-22 23:41:56.808 | ID 173 | TERIMA 22-Jan-2020 (23:41:57.501463)
2020-01-22 23:41:56.897 | -0.010437012,-0.002105713,0.0 | 2020-01-22 23:41:56.957 | ID 175 | TERIMA 22-Jan-2020 (23:41:57.758469)
2020-01-22 23:41:57.027 | -0.018997192,-0.003921509,0.0 | 2020-01-22 23:41:57.150 | ID 177 | TERIMA 22-Jan-2020 (23:41:57.792442)
2020-01-22 23:41:57.170 | -0.026916504,-0.005142212,0.0 | 2020-01-22 23:41:57.203 | ID 179 | TERIMA 22-Jan-2020 (23:41:57.827118)
2020-01-22 23:41:57.298 | 0.81300354,0.74316406,0.0 | 2020-01-22 23:41:57.355 | ID 181 | TERIMA 22-Jan-2020 (23:41:58.073479)
2020-01-22 23:41:57.438 | -0.16255188,0.46276855,0.0 | 2020-01-22 23:41:57.498 | ID 183 | TERIMA 22-Jan-2020 (23:41:58.115134)
2020-01-22 23:41:57.569 | -0.993927,0.34976196,0.0 | 2020-01-22 23:41:57.632 | ID 185 | TERIMA 22-Jan-2020 (23:41:58.405131)
2020-01-22 23:41:57.700 | -0.4319458,0.10725403,0.0 | 2020-01-22 23:41:57.766 | ID 187 | TERIMA 22-Jan-2020 (23:41:58.438102)
2020-01-22 23:41:57.831 | -0.16377258,0.17077637,0.0 | 2020-01-22 23:41:57.898 | ID 189 | TERIMA 22-Jan-2020 (23:41:58.721154)
2020-01-22 23:41:57.969 | 0.3450775,0.4340515,0.0 | 2020-01-22 23:41:58.055 | ID 191 | TERIMA 22-Jan-2020 (23:41:58.753502)
2020-01-22 23:41:58.100 | 0.41227722,0.50737,0.0 | 2020-01-22 23:41:58.176 | ID 193 | TERIMA 22-Jan-2020 (23:41:58.787488)
2020-01-22 23:41:58.230 | 0.7115936,0.51408386,0.0 | 2020-01-22 23:41:58.293 | ID 195 | TERIMA 22-Jan-2020 (23:41:59.033457)
2020-01-22 23:41:58.353 | 1.0976562,0.40473938,0.0 | 2020-01-22 23:41:58.400 | ID 197 | TERIMA 22-Jan-2020 (23:41:59.066109)
2020-01-22 23:41:58.490 | 1.1202698,0.1481781,0.0 | 2020-01-22 23:41:58.539 | ID 199 | TERIMA 22-Jan-2020 (23:41:59.102145)
2020-01-22 23:41:58.623 | 0.85331726,-0.08027649,0.0 | 2020-01-22 23:41:58.675 | ID 201 | TERIMA 22-Jan-2020 (23:41:59.345100)
2020-01-22 23:41:58.754 | 0.15266418,0.6655731,0.0 | 2020-01-22 23:41:58.797 | ID 203 | TERIMA 22-Jan-2020 (23:41:59.376484)
2020-01-22 23:41:58.885 | 0.035369873,-0.025909424,0.0 | 2020-01-22 23:41:58.952 | ID 205 | TERIMA 22-Jan-2020 (23:41:59.663079)
2020-01-22 23:41:59.010 | 0.007873535,-0.0332489,0.0 | 2020-01-22 23:41:59.102 | ID 207 | TERIMA 22-Jan-2020 (23:41:59.694507)
2020-01-22 23:41:59.136 | -0.004928589,0.038223267,0.0 | 2020-01-22 23:41:59.213 | ID 209 | TERIMA 22-Jan-2020 (23:41:59.992505)
2020-01-22 23:41:59.269 | 0.035980225,0.09991455,0.0 | 2020-01-22 23:41:59.337 | ID 211 | TERIMA 22-Jan-2020 (23:42:00.024118)
2020-01-22 23:41:59.396 | 0.017669678,0.04005432,0.0 | 2020-01-22 23:41:59.454 | ID 213 | TERIMA 22-Jan-2020 (23:42:00.055462)
2020-01-22 23:41:59.523 | 0.024368286,-0.0014801025,0.0 | 2020-01-22 23:41:59.614 | ID 215 | TERIMA 22-Jan-2020 (23:42:00.296124)
2020-01-22 23:41:59.653 | -0.0025024414,-0.009429932,0.0 | 2020-01-22 23:41:59.699 | ID 217 | TERIMA 22-Jan-2020 (23:42:00.328536)
2020-01-22 23:41:59.776 | 0.024978638,-0.0027008057,0.0 | 2020-01-22 23:41:59.853 | ID 219 | TERIMA 22-Jan-2020 (23:42:00.607469)
2020-01-22 23:41:59.895 | 0.017654419,-0.0027008057,0.0 | 2020-01-22 23:41:59.983 | ID 221 | TERIMA 22-Jan-2020 (23:42:00.641115)
2020-01-22 23:42:00.014 | 0.025604248,-0.010650635,0.0 | 2020-01-22 23:42:00.099 | ID 223 | TERIMA 22-Jan-2020 (23:42:00.673118)
2020-01-22 23:42:00.137 | 0.01826477,-0.007583618,0.0 | 2020-01-22 23:42:00.168 | ID 225 | TERIMA 22-Jan-2020 (23:42:00.705133)
2020-01-22 23:42:00.265 | 0.024368286,0.0021820068,0.0 | 2020-01-22 23:42:00.329 | ID 227 | TERIMA 22-Jan-2020 (23:42:00.923166)
2020-01-22 23:42:00.397 | -0.022659302,0.0021820068,0.0 | 2020-01-22 23:42:00.463 | ID 229 | TERIMA 22-Jan-2020 (23:42:00.955102)
2020-01-22 23:42:00.533 | 0.06285095,0.089538574,0.0 | 2020-01-22 23:42:00.590 | ID 231 | TERIMA 22-Jan-2020 (23:42:01.244475)
2020-01-22 23:42:00.662 | 0.23512268,0.061431885,0.0 | 2020-01-22 23:42:00.718 | ID 233 | TERIMA 22-Jan-2020 (23:42:01.278102)
2020-01-22 23:42:00.799 | -0.026947021,-0.094329834,0.0 | 2020-01-22 23:42:00.859 | ID 235 | TERIMA 22-Jan-2020 (23:42:01.311105)
2020-01-22 23:42:00.943 | -0.06602478,-0.16090393,0.0 | 2020-01-22 23:42:01.020 | ID 237 | TERIMA 22-Jan-2020 (23:42:01.569128)
2020-01-22 23:42:01.070 | -0.048324585,-0.051574707,0.0 | 2020-01-22 23:42:01.112 | ID 239 | TERIMA 22-Jan-2020 (23:42:01.886483)
2020-01-22 23:42:01.199 | -0.07336426,0.034561157,0.0 | 2020-01-22 23:42:01.277 | ID 241 | TERIMA 22-Jan-2020 (23:42:02.202108)
2020-01-22 23:42:01.337 | 0.11172485,0.12007141,0.0 | 2020-01-22 23:42:01.375 | ID 243 | TERIMA 22-Jan-2020 (23:42:02.234472)
2020-01-22 23:42:01.464 | 0.1453247,0.041900635,0.0 | 2020-01-22 23:42:01.518 | ID 245 | TERIMA 22-Jan-2020 (23:42:02.266474)
2020-01-22 23:42:01.590 | -0.029388428,-0.14564514,0.0 | 2020-01-22 23:42:01.653 | ID 247 | TERIMA 22-Jan-2020 (23:42:02.519658)
2020-01-22 23:42:01.721 | -0.07029724,-0.08761597,0.0 | 2020-01-22 23:42:01.763 | ID 249 | TERIMA 22-Jan-2020 (23:42:02.553091)
2020-01-22 23:42:01.846 | -6.1035156E-5,-0.016143799,0.0 | 2020-01-22 23:42:01.939 | ID 251 | TERIMA 22-Jan-2020 (23:42:02.827117)
2020-01-22 23:42:01.981 | -0.12588501,0.006454468,0.0 | 2020-01-22 23:42:02.028 | ID 253 | TERIMA 22-Jan-2020 (23:42:02.859075)
2020-01-22 23:42:02.119 | -0.1356659,-0.037521362,0.0 | 2020-01-22 23:42:02.200 | ID 255 | TERIMA 22-Jan-2020 (23:42:02.891126)
2020-01-22 23:42:02.266 | 0.029266357,0.08403015,0.0 | 2020-01-22 23:42:02.334 | ID 257 | TERIMA 22-Jan-2020 (23:42:03.149081)
2020-01-22 23:42:02.394 | -0.020828247,0.022964478,0.0 | 2020-01-22 23:42:02.450 | ID 259 | TERIMA 22-Jan-2020 (23:42:03.186491)
2020-01-22 23:42:02.520 | -0.09718323,-0.019805908,0.0 | 2020-01-22 23:42:02.581 | ID 261 | TERIMA 22-Jan-2020 (23:42:03.465497)
2020-01-22 23:42:02.650 | -0.08496094,-0.013092041,0.0 | 2020-01-22 23:42:02.759 | ID 263 | TERIMA 22-Jan-2020 (23:42:03.497472)
2020-01-22 23:42:02.778 | -0.038528442,0.011962891,0.0 | 2020-01-22 23:42:02.815 | ID 265 | TERIMA 22-Jan-2020 (23:42:03.529471)
2020-01-22 23:42:02.905 | -0.07397461,-0.011260986,0.0 | 2020-01-22 23:42:02.974 | ID 267 | TERIMA 22-Jan-2020 (23:42:03.781120)
2020-01-22 23:42:03.035 | -0.051986694,-0.02835083,0.0 | 2020-01-22 23:42:03.095 | ID 269 | TERIMA 22-Jan-2020 (23:42:03.817093)
2020-01-22 23:42:03.163 | 0.028656006,0.0027923584,0.0 | 2020-01-22 23:42:03.239 | ID 271 | TERIMA 22-Jan-2020 (23:42:04.101746)
2020-01-22 23:42:03.291 | -0.12956238,-0.0027160645,0.0 | 2020-01-22 23:42:03.329 | ID 273 | TERIMA 22-Jan-2020 (23:42:04.133419)
2020-01-22 23:42:03.418 | -0.088012695,0.01928711,0.0 | 2020-01-22 23:42:03.495 | ID 275 | TERIMA 22-Jan-2020 (23:42:04.415379)
2020-01-22 23:42:03.558 | -0.011672974,-8.8500977E-4,0.0 | 2020-01-22 23:42:03.657 | ID 277 | TERIMA 22-Jan-2020 (23:42:04.446721)
2020-01-22 23:42:03.682 | 0.0036010742,0.0021820068,0.0 | 2020-01-22 23:42:03.717 | ID 279 | TERIMA 22-Jan-2020 (23:42:04.479354)
2020-01-22 23:42:03.809 | 0.0036010742,3.5095215E-4,0.0 | 2020-01-22 23:42:03.889 | ID 281 | TERIMA 22-Jan-2020 (23:42:04.733390)
2020-01-22 23:42:03.943 | 0.002380371,9.613037E-4,0.0 | 2020-01-22 23:42:03.992 | ID 283 | TERIMA 22-Jan-2020 (23:42:04.765735)
2020-01-22 23:42:04.070 | -6.1035156E-5,9.613037E-4,0.0 | 2020-01-22 23:42:04.137 | ID 285 | TERIMA 22-Jan-2020 (23:42:04.797745)
2020-01-22 23:42:04.196 | -0.0049591064,-2.593994E-4,0.0 | 2020-01-22 23:42:04.254 | ID 287 | TERIMA 22-Jan-2020 (23:42:04.829739)
2020-01-22 23:42:04.324 | 5.493164E-4,-8.8500977E-4,0.0 | 2020-01-22 23:42:04.364 | ID 289 | TERIMA 22-Jan-2020 (23:42:05.053366)
2020-01-22 23:42:04.464 | 0.0036010742,3.5095215E-4,0.0 | 2020-01-22 23:42:04.546 | ID 291 | TERIMA 22-Jan-2020 (23:42:05.363358)
2020-01-22 23:42:04.592 | -0.003112793,-8.69751E-4,0.0 | 2020-01-22 23:42:04.629 | ID 293 | TERIMA 22-Jan-2020 (23:42:05.394737)
2020-01-22 23:42:04.721 | -0.008605957,9.613037E-4,0.0 | 2020-01-22 23:42:04.779 | ID 295 | TERIMA 22-Jan-2020 (23:42:05.426767)
2020-01-22 23:42:04.850 | -0.004333496,3.5095215E-4,0.0 | 2020-01-22 23:42:04.884 | ID 297 | TERIMA 22-Jan-2020 (23:42:05.676354)
2020-01-22 23:42:04.976 | 0.001159668,-2.593994E-4,0.0 | 2020-01-22 23:42:05.036 | ID 299 | TERIMA 22-Jan-2020 (23:42:05.708366)
2020-01-22 23:42:05.102 | -0.022659302,0.0015563965,0.0 | 2020-01-22 23:42:05.150 | ID 301 | TERIMA 22-Jan-2020 (23:42:05.987735)
2020-01-22 23:42:05.229 | -0.0134887695,0.0015563965,0.0 | 2020-01-22 23:42:05.312 | ID 303 | TERIMA 22-Jan-2020 (23:42:06.019377)
2020-01-22 23:42:05.355 | 0.006652832,0.0015563965,0.0 | 2020-01-22 23:42:05.400 | ID 305 | TERIMA 22-Jan-2020 (23:42:06.051394)
2020-01-22 23:42:05.481 | 0.012161255,-8.69751E-4,0.0 | 2020-01-22 23:42:05.534 | ID 307 | TERIMA 22-Jan-2020 (23:42:06.308348)
2020-01-22 23:42:05.609 | 0.020706177,9.613037E-4,0.0 | 2020-01-22 23:42:05.669 | ID 309 | TERIMA 22-Jan-2020 (23:42:06.340365)
2020-01-22 23:42:05.735 | 0.0060424805,3.3569336E-4,0.0 | 2020-01-22 23:42:05.775 | ID 311 | TERIMA 22-Jan-2020 (23:42:06.622356)
2020-01-22 23:42:05.860 | -0.003112793,0.0015563965,0.0 | 2020-01-22 23:42:05.924 | ID 313 | TERIMA 22-Jan-2020 (23:42:06.654439)
2020-01-22 23:42:05.986 | -0.004333496,0.0015716553,0.0 | 2020-01-22 23:42:06.049 | ID 315 | TERIMA 22-Jan-2020 (23:42:06.687335)
2020-01-22 23:42:06.112 | 0.013366699,0.0021820068,0.0 | 2020-01-22 23:42:06.142 | ID 317 | TERIMA 22-Jan-2020 (23:42:06.934390)
2020-01-22 23:42:06.239 | 0.0072784424,9.613037E-4,0.0 | 2020-01-22 23:42:06.282 | ID 319 | TERIMA 22-Jan-2020 (23:42:06.965740)
2020-01-22 23:42:06.365 | 0.0072631836,-2.593994E-4,0.0 | 2020-01-22 23:42:06.410 | ID 321 | TERIMA 22-Jan-2020 (23:42:06.998368)
2020-01-22 23:42:06.491 | -0.0049438477,0.0015563965,0.0 | 2020-01-22 23:42:06.580 | ID 323 | TERIMA 22-Jan-2020 (23:42:07.250763)
2020-01-22 23:42:06.630 | 0.25527954,-0.3240204,0.0 | 2020-01-22 23:42:06.666 | ID 325 | TERIMA 22-Jan-2020 (23:42:07.283350)
2020-01-22 23:42:06.762 | 0.2778778,3.6621094E-4,0.0 | 2020-01-22 23:42:06.822 | ID 327 | TERIMA 22-Jan-2020 (23:42:07.568352)
2020-01-22 23:42:06.889 | 0.2436676,0.19949341,0.0 | 2020-01-22 23:42:06.933 | ID 329 | TERIMA 22-Jan-2020 (23:42:07.603734)
2020-01-22 23:42:07.015 | -0.39224243,0.00340271,0.0 | 2020-01-22 23:42:07.083 | ID 331 | TERIMA 22-Jan-2020 (23:42:07.644348)
2020-01-22 23:42:07.143 | -0.029388428,-0.015533447,0.0 | 2020-01-22 23:42:07.234 | ID 333 | TERIMA 22-Jan-2020 (23:42:07.904345)
2020-01-22 23:42:07.279 | -0.15765381,0.077926636,0.0 | 2020-01-22 23:42:07.333 | ID 335 | TERIMA 22-Jan-2020 (23:42:07.936758)
2020-01-22 23:42:07.405 | -0.36413574,0.31982422,0.0 | 2020-01-22 23:42:07.472 | ID 337 | TERIMA 22-Jan-2020 (23:42:08.230765)
2020-01-22 23:42:07.533 | -0.45635986,0.37174988,0.0 | 2020-01-22 23:42:07.596 | ID 339 | TERIMA 22-Jan-2020 (23:42:08.264350)
2020-01-22 23:42:07.657 | -0.40078735,0.20742798,0.0 | 2020-01-22 23:42:07.694 | ID 341 | TERIMA 22-Jan-2020 (23:42:08.297371)
2020-01-22 23:42:07.782 | -0.0079956055,0.6399231,0.0 | 2020-01-22 23:42:07.838 | ID 343 | TERIMA 22-Jan-2020 (23:42:08.540751)
2020-01-22 23:42:07.908 | -0.9010773,0.022338867,0.0 | 2020-01-22 23:42:07.965 | ID 345 | TERIMA 22-Jan-2020 (23:42:08.573776)
2020-01-22 23:42:08.035 | 0.048812866,-0.31118774,0.0 | 2020-01-22 23:42:08.083 | ID 347 | TERIMA 22-Jan-2020 (23:42:08.853751)
2020-01-22 23:42:08.159 | 5.493164E-4,0.0021820068,0.0 | 2020-01-22 23:42:08.210 | ID 349 | TERIMA 22-Jan-2020 (23:42:08.885723)
2020-01-22 23:42:08.291 | -0.015945435,-0.003326416,0.0 | 2020-01-22 23:42:08.368 | ID 351 | TERIMA 22-Jan-2020 (23:42:08.917750)
2020-01-22 23:42:08.417 | -0.0037231445,-2.593994E-4,0.0 | 2020-01-22 23:42:08.452 | ID 353 | TERIMA 22-Jan-2020 (23:42:09.169753)
2020-01-22 23:42:08.546 | 0.0017700195,-2.593994E-4,0.0 | 2020-01-22 23:42:08.601 | ID 355 | TERIMA 22-Jan-2020 (23:42:09.206736)
2020-01-22 23:42:08.670 | -0.0025177002,0.0015716553,0.0 | 2020-01-22 23:42:08.728 | ID 357 | TERIMA 22-Jan-2020 (23:42:09.485371)
2020-01-22 23:42:08.797 | -0.004333496,-8.8500977E-4,0.0 | 2020-01-22 23:42:08.844 | ID 359 | TERIMA 22-Jan-2020 (23:42:09.518383)
2020-01-22 23:42:08.915 | -0.0012817383,0.0015716553,0.0 | 2020-01-22 23:42:08.949 | ID 361 | TERIMA 22-Jan-2020 (23:42:09.551347)
2020-01-22 23:42:09.039 | 0.0054473877,9.613037E-4,0.0 | 2020-01-22 23:42:09.088 | ID 363 | TERIMA 22-Jan-2020 (23:42:09.801377)
2020-01-22 23:42:09.161 | -0.005554199,-0.0014801025,0.0 | 2020-01-22 23:42:09.206 | ID 365 | TERIMA 22-Jan-2020 (23:42:09.834391)
2020-01-22 23:42:09.288 | 0.002380371,0.0027770996,0.0 | 2020-01-22 23:42:09.346 | ID 367 | TERIMA 22-Jan-2020 (23:42:10.116772)
2020-01-22 23:42:09.414 | 0.004211426,-8.69751E-4,0.0 | 2020-01-22 23:42:09.456 | ID 369 | TERIMA 22-Jan-2020 (23:42:10.148774)
2020-01-22 23:42:09.538 | 0.002380371,-8.69751E-4,0.0 | 2020-01-22 23:42:09.580 | ID 371 | TERIMA 22-Jan-2020 (23:42:10.180731)
2020-01-22 23:42:09.664 | 0.20518494,-0.011871338,0.0 | 2020-01-22 23:42:09.721 | ID 373 | TERIMA 22-Jan-2020 (23:42:10.427363)
2020-01-22 23:42:09.791 | 0.13920593,-0.07600403,0.0 | 2020-01-22 23:42:09.850 | ID 375 | TERIMA 22-Jan-2020 (23:42:10.459376)
2020-01-22 23:42:09.925 | -0.07640076,0.016220093,0.0 | 2020-01-22 23:42:09.965 | ID 377 | TERIMA 22-Jan-2020 (23:42:10.744359)
2020-01-22 23:42:10.052 | 0.18807983,0.0052337646,0.0 | 2020-01-22 23:42:10.107 | ID 379 | TERIMA 22-Jan-2020 (23:42:10.776723)
2020-01-22 23:42:10.179 | 0.076293945,0.04676819,0.0 | 2020-01-22 23:42:10.246 | ID 381 | TERIMA 22-Jan-2020 (23:42:11.055387)
2020-01-22 23:42:10.322 | 0.021942139,0.0315094,0.0 | 2020-01-22 23:42:10.421 | ID 383 | TERIMA 22-Jan-2020 (23:42:11.086758)
2020-01-22 23:42:10.460 | -0.16072083,-0.022262573,0.0 | 2020-01-22 23:42:10.491 | ID 385 | TERIMA 22-Jan-2020 (23:42:11.118747)
2020-01-22 23:42:10.586 | -0.37390137,-0.0332489,0.0 | 2020-01-22 23:42:10.626 | ID 387 | TERIMA 22-Jan-2020 (23:42:11.371398)
2020-01-22 23:42:10.712 | -0.14849854,-0.027145386,0.0 | 2020-01-22 23:42:10.770 | ID 389 | TERIMA 22-Jan-2020 (23:42:11.403734)
2020-01-22 23:42:10.841 | 0.02619934,0.0021820068,0.0 | 2020-01-22 23:42:10.893 | ID 391 | TERIMA 22-Jan-2020 (23:42:11.437385)
2020-01-22 23:42:10.968 | 0.031097412,0.018066406,0.0 | 2020-01-22 23:42:11.010 | ID 393 | TERIMA 22-Jan-2020 (23:42:11.683395)
2020-01-22 23:42:11.106 | 0.20884705,0.0040283203,0.0 | 2020-01-22 23:42:11.175 | ID 395 | TERIMA 22-Jan-2020 (23:42:11.716776)
2020-01-22 23:42:11.246 | -0.0012817383,9.613037E-4,0.0 | 2020-01-22 23:42:11.305 | ID 397 | TERIMA 22-Jan-2020 (23:42:11.995739)
2020-01-22 23:42:11.376 | 0.011550903,0.005844116,0.0 | 2020-01-22 23:42:11.416 | ID 399 | TERIMA 22-Jan-2020 (23:42:12.027775)
2020-01-22 23:42:11.498 | -0.0018920898,-0.003921509,0.0 | 2020-01-22 23:42:11.534 | ID 401 | TERIMA 22-Jan-2020 (23:42:12.061402)
2020-01-22 23:42:11.625 | -0.010437012,-0.002105713,0.0 | 2020-01-22 23:42:11.675 | ID 403 | TERIMA 22-Jan-2020 (23:42:12.311383)
2020-01-22 23:42:11.753 | -0.020828247,-0.010650635,0.0 | 2020-01-22 23:42:11.793 | ID 405 | TERIMA 22-Jan-2020 (23:42:12.343373)
2020-01-22 23:42:11.874 | 0.017044067,-0.003921509,0.0 | 2020-01-22 23:42:11.969 | ID 407 | TERIMA 22-Jan-2020 (23:42:12.648705)
2020-01-22 23:42:11.997 | -0.005554199,0.0015563965,0.0 | 2020-01-22 23:42:12.066 | ID 409 | TERIMA 22-Jan-2020 (23:42:12.961742)
2020-01-22 23:42:12.134 | -0.0037231445,0.004623413,0.0 | 2020-01-22 23:42:12.206 | ID 411 | TERIMA 22-Jan-2020 (23:42:12.998373)
2020-01-22 23:42:12.259 | 0.0054473877,0.004623413,0.0 | 2020-01-22 23:42:12.289 | ID 413 | TERIMA 22-Jan-2020 (23:42:13.031349)
2020-01-22 23:42:12.384 | -0.009841919,-8.69751E-4,0.0 | 2020-01-22 23:42:12.462 | ID 415 | TERIMA 22-Jan-2020 (23:42:13.062761)
2020-01-22 23:42:12.510 | -0.008605957,-2.593994E-4,0.0 | 2020-01-22 23:42:12.547 | ID 417 | TERIMA 22-Jan-2020 (23:42:13.095366)
2020-01-22 23:42:12.634 | -0.0074005127,-8.8500977E-4,0.0 | 2020-01-22 23:42:12.683 | ID 419 | TERIMA 22-Jan-2020 (23:42:13.396759)
2020-01-22 23:42:12.759 | 0.031707764,0.0027923584,0.0 | 2020-01-22 23:42:12.803 | ID 421 | TERIMA 22-Jan-2020 (23:42:13.715409)
2020-01-22 23:42:12.887 | 0.027420044,0.015609741,0.0 | 2020-01-22 23:42:12.939 | ID 423 | TERIMA 22-Jan-2020 (23:42:13.746737)
2020-01-22 23:42:13.011 | 0.17524719,-0.02835083,0.0 | 2020-01-22 23:42:13.059 | ID 425 | TERIMA 22-Jan-2020 (23:42:13.782728)
2020-01-22 23:42:13.136 | 0.035980225,-0.022247314,0.0 | 2020-01-22 23:42:13.192 | ID 427 | TERIMA 22-Jan-2020 (23:42:13.814374)
2020-01-22 23:42:13.261 | -0.16438293,0.038223267,0.0 | 2020-01-22 23:42:13.309 | ID 429 | TERIMA 22-Jan-2020 (23:42:13.845724)
2020-01-22 23:42:13.385 | 0.023162842,0.010131836,0.0 | 2020-01-22 23:42:13.430 | ID 431 | TERIMA 22-Jan-2020 (23:42:14.057620)
2020-01-22 23:42:13.507 | 0.031707764,0.0345459,0.0 | 2020-01-22 23:42:13.548 | ID 433 | TERIMA 22-Jan-2020 (23:42:14.373996)
2020-01-22 23:42:13.631 | 0.06530762,-0.03630066,0.0 | 2020-01-22 23:42:13.666 | ID 435 | TERIMA 22-Jan-2020 (23:42:14.407603)
2020-01-22 23:42:13.751 | 0.029876709,-0.05218506,0.0 | 2020-01-22 23:42:13.808 | ID 437 | TERIMA 22-Jan-2020 (23:42:14.441612)
2020-01-22 23:42:13.884 | -0.05015564,-0.013702393,0.0 | 2020-01-22 23:42:13.926 | ID 439 | TERIMA 22-Jan-2020 (23:42:14.473623)
2020-01-22 23:42:14.010 | -0.27676392,0.057159424,0.0 | 2020-01-22 23:42:14.072 | ID 441 | TERIMA 22-Jan-2020 (23:42:14.687613)
2020-01-22 23:42:14.136 | -0.17353821,0.057159424,0.0 | 2020-01-22 23:42:14.173 | ID 443 | TERIMA 22-Jan-2020 (23:42:14.718990)
2020-01-22 23:42:14.262 | -0.02204895,0.011947632,0.0 | 2020-01-22 23:42:14.315 | ID 445 | TERIMA 22-Jan-2020 (23:42:15.007972)
2020-01-22 23:42:14.396 | 0.011550903,-0.0045318604,0.0 | 2020-01-22 23:42:14.463 | ID 447 | TERIMA 22-Jan-2020 (23:42:15.038995)
2020-01-22 23:42:14.533 | 0.007873535,-0.0069732666,0.0 | 2020-01-22 23:42:14.590 | ID 449 | TERIMA 22-Jan-2020 (23:42:15.070642)
2020-01-22 23:42:14.673 | -6.1035156E-5,-2.593994E-4,0.0 | 2020-01-22 23:42:14.726 | ID 451 | TERIMA 22-Jan-2020 (23:42:15.315022)
2020-01-22 23:42:14.798 | -0.021438599,0.0027923584,0.0 | 2020-01-22 23:42:14.845 | ID 453 | TERIMA 22-Jan-2020 (23:42:15.347640)
2020-01-22 23:42:14.928 | 0.0634613,-0.010040283,0.0 | 2020-01-22 23:42:14.979 | ID 455 | TERIMA 22-Jan-2020 (23:42:15.636976)
2020-01-22 23:42:15.056 | -0.11550903,0.008300781,0.0 | 2020-01-22 23:42:15.113 | ID 457 | TERIMA 22-Jan-2020 (23:42:15.953615)
2020-01-22 23:42:15.181 | -0.03793335,0.02355957,0.0 | 2020-01-22 23:42:15.237 | ID 459 | TERIMA 22-Jan-2020 (23:42:15.985972)
2020-01-22 23:42:15.304 | 0.03353882,-0.01612854,0.0 | 2020-01-22 23:42:15.345 | ID 461 | TERIMA 22-Jan-2020 (23:42:16.018645)
2020-01-22 23:42:15.427 | -0.004333496,-0.016143799,0.0 | 2020-01-22 23:42:15.478 | ID 463 | TERIMA 22-Jan-2020 (23:42:16.261960)
2020-01-22 23:42:15.548 | -0.0049438477,-0.002105713,0.0 | 2020-01-22 23:42:15.590 | ID 465 | TERIMA 22-Jan-2020 (23:42:16.298622)
2020-01-22 23:42:15.674 | -0.040985107,0.0040130615,0.0 | 2020-01-22 23:42:15.728 | ID 467 | TERIMA 22-Jan-2020 (23:42:16.331994)
2020-01-22 23:42:15.803 | -0.03364563,-0.017364502,0.0 | 2020-01-22 23:42:15.837 | ID 469 | TERIMA 22-Jan-2020 (23:42:16.367606)
2020-01-22 23:42:15.933 | -0.0043182373,0.0034179688,0.0 | 2020-01-22 23:42:15.987 | ID 471 | TERIMA 22-Jan-2020 (23:42:16.573991)
2020-01-22 23:42:16.059 | 0.061019897,0.01133728,0.0 | 2020-01-22 23:42:16.152 | ID 473 | TERIMA 22-Jan-2020 (23:42:16.610977)
2020-01-22 23:42:16.186 | -0.028762817,0.0015716553,0.0 | 2020-01-22 23:42:16.253 | ID 475 | TERIMA 22-Jan-2020 (23:42:16.909671)
2020-01-22 23:42:16.318 | -0.03791809,-8.69751E-4,0.0 | 2020-01-22 23:42:16.380 | ID 477 | TERIMA 22-Jan-2020 (23:42:17.229994)
2020-01-22 23:42:16.459 | -0.15032959,0.09625244,0.0 | 2020-01-22 23:42:16.506 | ID 479 | TERIMA 22-Jan-2020 (23:42:17.263608)
2020-01-22 23:42:16.585 | 0.119659424,0.011962891,0.0 | 2020-01-22 23:42:16.619 | ID 481 | TERIMA 22-Jan-2020 (23:42:17.540965)
2020-01-22 23:42:16.710 | -0.050750732,-0.04423523,0.0 | 2020-01-22 23:42:16.747 | ID 483 | TERIMA 22-Jan-2020 (23:42:17.574013)
2020-01-22 23:42:16.839 | 0.072021484,-0.019805908,0.0 | 2020-01-22 23:42:16.888 | ID 485 | TERIMA 22-Jan-2020 (23:42:17.605978)
2020-01-22 23:42:16.976 | -0.001876831,0.008300781,0.0 | 2020-01-22 23:42:17.027 | ID 487 | TERIMA 22-Jan-2020 (23:42:17.639003)
2020-01-22 23:42:17.103 | -0.04586792,0.07670593,0.0 | 2020-01-22 23:42:17.133 | ID 489 | TERIMA 22-Jan-2020 (23:42:17.852966)
2020-01-22 23:42:17.227 | 0.15327454,0.06692505,0.0 | 2020-01-22 23:42:17.269 | ID 491 | TERIMA 22-Jan-2020 (23:42:17.884010)
2020-01-22 23:42:17.360 | 0.027420044,-2.593994E-4,0.0 | 2020-01-22 23:42:17.396 | ID 493 | TERIMA 22-Jan-2020 (23:42:18.166637)
2020-01-22 23:42:17.486 | -0.017166138,-0.0014801025,0.0 | 2020-01-22 23:42:17.541 | ID 495 | TERIMA 22-Jan-2020 (23:42:18.204981)
2020-01-22 23:42:17.614 | -0.040985107,-0.0027008057,0.0 | 2020-01-22 23:42:17.639 | ID 497 | TERIMA 22-Jan-2020 (23:42:18.489640)
2020-01-22 23:42:17.738 | 0.0072784424,-2.593994E-4,0.0 | 2020-01-22 23:42:17.773 | ID 499 | TERIMA 22-Jan-2020 (23:42:18.522999)
2020-01-22 23:42:17.862 | -0.039764404,0.004623413,0.0 | 2020-01-22 23:42:17.906 | ID 501 | TERIMA 22-Jan-2020 (23:42:18.802994)
2020-01-22 23:42:17.988 | -0.03427124,0.013793945,0.0 | 2020-01-22 23:42:18.026 | ID 503 | TERIMA 22-Jan-2020 (23:42:18.834635)
2020-01-22 23:42:18.113 | 0.01399231,0.0027923584,0.0 | 2020-01-22 23:42:18.145 | ID 505 | TERIMA 22-Jan-2020 (23:42:18.866655)
2020-01-22 23:42:18.238 | 0.017654419,-0.010025024,0.0 | 2020-01-22 23:42:18.285 | ID 507 | TERIMA 22-Jan-2020 (23:42:19.118047)
2020-01-22 23:42:18.362 | 0.0042266846,3.5095215E-4,0.0 | 2020-01-22 23:42:18.409 | ID 509 | TERIMA 22-Jan-2020 (23:42:19.160612)
2020-01-22 23:42:18.488 | -0.01838684,0.0040130615,0.0 | 2020-01-22 23:42:18.516 | ID 511 | TERIMA 22-Jan-2020 (23:42:19.193618)
2020-01-22 23:42:18.613 | -0.0012817383,0.006454468,0.0 | 2020-01-22 23:42:18.661 | ID 513 | TERIMA 22-Jan-2020 (23:42:19.435978)
2020-01-22 23:42:18.738 | 0.051864624,-0.0014801025,0.0 | 2020-01-22 23:42:18.770 | ID 515 | TERIMA 22-Jan-2020 (23:42:19.470654)
2020-01-22 23:42:18.865 | -0.019607544,0.024169922,0.0 | 2020-01-22 23:42:18.896 | ID 517 | TERIMA 22-Jan-2020 (23:42:19.750000)
2020-01-22 23:42:18.994 | -0.020828247,-0.0082092285,0.0 | 2020-01-22 23:42:19.033 | ID 519 | TERIMA 22-Jan-2020 (23:42:19.781624)
2020-01-22 23:42:19.121 | 0.01826477,0.017456055,0.0 | 2020-01-22 23:42:19.188 | ID 521 | TERIMA 22-Jan-2020 (23:42:20.063008)
2020-01-22 23:42:19.269 | 0.024383545,0.012557983,0.0 | 2020-01-22 23:42:19.321 | ID 523 | TERIMA 22-Jan-2020 (23:42:20.095024)
2020-01-22 23:42:19.407 | -0.030593872,-8.8500977E-4,0.0 | 2020-01-22 23:42:19.490 | ID 525 | TERIMA 22-Jan-2020 (23:42:20.127055)
2020-01-22 23:42:19.532 | -0.02998352,0.0052337646,0.0 | 2020-01-22 23:42:19.608 | ID 527 | TERIMA 22-Jan-2020 (23:42:20.376625)
2020-01-22 23:42:19.658 | 0.00970459,-0.003326416,0.0 | 2020-01-22 23:42:19.689 | ID 529 | TERIMA 22-Jan-2020 (23:42:20.409964)
2020-01-22 23:42:19.785 | 0.026824951,0.022949219,0.0 | 2020-01-22 23:42:19.833 | ID 531 | TERIMA 22-Jan-2020 (23:42:20.691005)
2020-01-22 23:42:19.910 | -0.06724548,0.016235352,0.0 | 2020-01-22 23:42:19.948 | ID 533 | TERIMA 22-Jan-2020 (23:42:20.722997)
2020-01-22 23:42:20.037 | -0.040985107,3.5095215E-4,0.0 | 2020-01-22 23:42:20.090 | ID 535 | TERIMA 22-Jan-2020 (23:42:20.754011)
2020-01-22 23:42:20.169 | -0.056854248,0.009521484,0.0 | 2020-01-22 23:42:20.244 | ID 537 | TERIMA 22-Jan-2020 (23:42:21.012989)
2020-01-22 23:42:20.298 | -0.08985901,0.026611328,0.0 | 2020-01-22 23:42:20.373 | ID 539 | TERIMA 22-Jan-2020 (23:42:21.044625)
2020-01-22 23:42:20.431 | -0.016540527,-0.006362915,0.0 | 2020-01-22 23:42:20.464 | ID 541 | TERIMA 22-Jan-2020 (23:42:21.075988)
2020-01-22 23:42:20.559 | -6.713867E-4,-2.593994E-4,0.0 | 2020-01-22 23:42:20.597 | ID 543 | TERIMA 22-Jan-2020 (23:42:21.323988)
2020-01-22 23:42:20.684 | -0.0012817383,-0.006362915,0.0 | 2020-01-22 23:42:20.734 | ID 545 | TERIMA 22-Jan-2020 (23:42:21.354964)
2020-01-22 23:42:20.811 | -0.03425598,0.01133728,0.0 | 2020-01-22 23:42:20.851 | ID 547 | TERIMA 22-Jan-2020 (23:42:21.636652)
2020-01-22 23:42:20.937 | -0.040985107,0.0137786865,0.0 | 2020-01-22 23:42:20.994 | ID 549 | TERIMA 22-Jan-2020 (23:42:21.668009)
2020-01-22 23:42:21.066 | 0.051254272,-0.011871338,0.0 | 2020-01-22 23:42:21.115 | ID 551 | TERIMA 22-Jan-2020 (23:42:21.700044)
2020-01-22 23:42:21.194 | 0.043304443,-0.011871338,0.0 | 2020-01-22 23:42:21.243 | ID 553 | TERIMA 22-Jan-2020 (23:42:21.951989)
2020-01-22 23:42:21.320 | -0.031204224,0.008895874,0.0 | 2020-01-22 23:42:21.369 | ID 555 | TERIMA 22-Jan-2020 (23:42:21.983996)
2020-01-22 23:42:21.445 | -0.018997192,9.613037E-4,0.0 | 2020-01-22 23:42:21.477 | ID 557 | TERIMA 22-Jan-2020 (23:42:22.266631)
2020-01-22 23:42:21.569 | -0.042800903,0.018051147,0.0 | 2020-01-22 23:42:21.639 | ID 559 | TERIMA 22-Jan-2020 (23:42:22.301996)
2020-01-22 23:42:21.714 | -0.008605957,-0.016143799,0.0 | 2020-01-22 23:42:21.751 | ID 561 | TERIMA 22-Jan-2020 (23:42:22.334630)
2020-01-22 23:42:21.843 | -0.022659302,-0.003921509,0.0 | 2020-01-22 23:42:21.892 | ID 563 | TERIMA 22-Jan-2020 (23:42:22.585611)
2020-01-22 23:42:21.972 | -0.20776367,-0.019805908,0.0 | 2020-01-22 23:42:22.027 | ID 565 | TERIMA 22-Jan-2020 (23:42:22.618987)
2020-01-22 23:42:22.099 | -0.19003296,0.10664368,0.0 | 2020-01-22 23:42:22.151 | ID 567 | TERIMA 22-Jan-2020 (23:42:22.903044)
2020-01-22 23:42:22.231 | 0.26506042,0.18299866,0.0 | 2020-01-22 23:42:22.275 | ID 569 | TERIMA 22-Jan-2020 (23:42:22.934606)
2020-01-22 23:42:22.356 | 2.482483,-0.38693237,0.0 | 2020-01-22 23:42:22.386 | ID 571 | TERIMA 22-Jan-2020 (23:42:22.966610)
2020-01-22 23:42:22.480 | 2.086029,-0.6331177,0.0 | 2020-01-22 23:42:22.517 | ID 573 | TERIMA 22-Jan-2020 (23:42:23.226605)
2020-01-22 23:42:22.605 | 2.0280151,-0.61294556,0.0 | 2020-01-22 23:42:22.657 | ID 575 | TERIMA 22-Jan-2020 (23:42:23.270973)
2020-01-22 23:42:22.729 | -0.30975342,0.0974884,0.0 | 2020-01-22 23:42:22.772 | ID 577 | TERIMA 22-Jan-2020 (23:42:23.546004)
2020-01-22 23:42:22.854 | -0.7086487,-0.028366089,0.0 | 2020-01-22 23:42:22.890 | ID 579 | TERIMA 22-Jan-2020 (23:42:23.577981)
2020-01-22 23:42:22.978 | -0.5840454,-0.03263855,0.0 | 2020-01-22 23:42:23.026 | ID 581 | TERIMA 22-Jan-2020 (23:42:23.611596)
2020-01-22 23:42:23.106 | -0.488739,0.15672302,0.0 | 2020-01-22 23:42:23.153 | ID 583 | TERIMA 22-Jan-2020 (23:42:23.880222)
2020-01-22 23:42:23.243 | -0.13078308,-0.061950684,0.0 | 2020-01-22 23:42:23.287 | ID 585 | TERIMA 22-Jan-2020 (23:42:23.912266)
2020-01-22 23:42:23.370 | 0.48313904,-0.087005615,0.0 | 2020-01-22 23:42:23.419 | ID 587 | TERIMA 22-Jan-2020 (23:42:24.192223)
2020-01-22 23:42:23.503 | -0.18635559,0.21109009,0.0 | 2020-01-22 23:42:23.574 | ID 589 | TERIMA 22-Jan-2020 (23:42:24.224244)
2020-01-22 23:42:23.626 | -0.10145569,-0.011260986,0.0 | 2020-01-22 23:42:23.678 | ID 591 | TERIMA 22-Jan-2020 (23:42:24.275244)
2020-01-22 23:42:23.752 | 0.12211609,0.09197998,0.0 | 2020-01-22 23:42:23.808 | ID 593 | TERIMA 22-Jan-2020 (23:42:24.515220)
2020-01-22 23:42:23.877 | 0.06163025,-0.09677124,0.0 | 2020-01-22 23:42:23.928 | ID 595 | TERIMA 22-Jan-2020 (23:42:24.547231)
2020-01-22 23:42:24.002 | -0.010437012,-0.21528625,0.0 | 2020-01-22 23:42:24.046 | ID 597 | TERIMA 22-Jan-2020 (23:42:24.828253)
2020-01-22 23:42:24.125 | -0.23095703,-0.19450378,0.0 | 2020-01-22 23:42:24.173 | ID 599 | TERIMA 22-Jan-2020 (23:42:24.860892)
2020-01-22 23:42:24.262 | -0.15032959,0.055923462,0.0 | 2020-01-22 23:42:24.308 | ID 601 | TERIMA 22-Jan-2020 (23:42:24.892896)
2020-01-22 23:42:24.388 | -0.038528442,0.0015716553,0.0 | 2020-01-22 23:42:24.436 | ID 603 | TERIMA 22-Jan-2020 (23:42:25.139253)
2020-01-22 23:42:24.512 | 0.06285095,-0.1645813,0.0 | 2020-01-22 23:42:24.561 | ID 605 | TERIMA 22-Jan-2020 (23:42:25.170887)
2020-01-22 23:42:24.638 | 0.15266418,-0.17985535,0.0 | 2020-01-22 23:42:24.685 | ID 607 | TERIMA 22-Jan-2020 (23:42:25.451891)
2020-01-22 23:42:24.754 | 0.24549866,-0.13952637,0.0 | 2020-01-22 23:42:24.792 | ID 609 | TERIMA 22-Jan-2020 (23:42:25.484870)
2020-01-22 23:42:24.873 | -0.1063385,0.05595398,0.0 | 2020-01-22 23:42:24.918 | ID 611 | TERIMA 22-Jan-2020 (23:42:25.517920)
2020-01-22 23:42:24.996 | 0.022537231,-0.006378174,0.0 | 2020-01-22 23:42:25.035 | ID 613 | TERIMA 22-Jan-2020 (23:42:25.766870)
2020-01-22 23:42:25.123 | -0.031204224,0.030273438,0.0 | 2020-01-22 23:42:25.176 | ID 615 | TERIMA 22-Jan-2020 (23:42:25.798915)
2020-01-22 23:42:25.248 | 0.017654419,-0.058898926,0.0 | 2020-01-22 23:42:25.288 | ID 617 | TERIMA 22-Jan-2020 (23:42:25.836260)
2020-01-22 23:42:25.369 | 0.17341614,-0.23910522,0.0 | 2020-01-22 23:42:25.402 | ID 619 | TERIMA 22-Jan-2020 (23:42:26.080261)
2020-01-22 23:42:25.489 | 0.11843872,-0.38693237,0.0 | 2020-01-22 23:42:25.522 | ID 621 | TERIMA 22-Jan-2020 (23:42:26.113860)
2020-01-22 23:42:25.612 | 0.06896973,-0.26475525,0.0 | 2020-01-22 23:42:25.644 | ID 623 | TERIMA 22-Jan-2020 (23:42:26.429266)
2020-01-22 23:42:25.735 | -0.103897095,-0.06745911,0.0 | 2020-01-22 23:42:25.763 | ID 625 | TERIMA 22-Jan-2020 (23:42:26.465856)
2020-01-22 23:42:25.857 | -0.1869812,0.16223145,0.0 | 2020-01-22 23:42:25.907 | ID 627 | TERIMA 22-Jan-2020 (23:42:26.496256)
2020-01-22 23:42:25.984 | -0.21017456,0.1988678,0.0 | 2020-01-22 23:42:26.021 | ID 629 | TERIMA 22-Jan-2020 (23:42:26.751942)
2020-01-22 23:42:26.109 | -0.10877991,0.13961792,0.0 | 2020-01-22 23:42:26.144 | ID 631 | TERIMA 22-Jan-2020 (23:42:26.791286)
2020-01-22 23:42:26.228 | -0.01777649,0.01928711,0.0 | 2020-01-22 23:42:26.261 | ID 633 | TERIMA 22-Jan-2020 (23:42:27.064221)
2020-01-22 23:42:26.346 | -0.015945435,-0.034469604,0.0 | 2020-01-22 23:42:26.381 | ID 635 | TERIMA 22-Jan-2020 (23:42:27.096255)
2020-01-22 23:42:26.471 | -0.07029724,0.08097839,0.0 | 2020-01-22 23:42:26.522 | ID 637 | TERIMA 22-Jan-2020 (23:42:27.142255)
2020-01-22 23:42:26.596 | -0.31526184,0.013793945,0.0 | 2020-01-22 23:42:26.651 | ID 639 | TERIMA 22-Jan-2020 (23:42:27.377251)
2020-01-22 23:42:26.721 | -0.21690369,-0.12731934,0.0 | 2020-01-22 23:42:26.749 | ID 641 | TERIMA 22-Jan-2020 (23:42:27.410235)
2020-01-22 23:42:26.846 | -0.24072266,-0.16275024,0.0 | 2020-01-22 23:42:26.880 | ID 643 | TERIMA 22-Jan-2020 (23:42:27.689866)
2020-01-22 23:42:26.969 | -0.18208313,-0.09799194,0.0 | 2020-01-22 23:42:27.006 | ID 645 | TERIMA 22-Jan-2020 (23:42:27.721347)
2020-01-22 23:42:27.094 | -0.072753906,0.01928711,0.0 | 2020-01-22 23:42:27.140 | ID 647 | TERIMA 22-Jan-2020 (23:42:27.753880)
2020-01-22 23:42:27.221 | 0.052474976,0.19032288,0.0 | 2020-01-22 23:42:27.258 | ID 649 | TERIMA 22-Jan-2020 (23:42:28.004262)
2020-01-22 23:42:27.342 | 0.037216187,0.32226562,0.0 | 2020-01-22 23:42:27.384 | ID 651 | TERIMA 22-Jan-2020 (23:42:28.037890)
2020-01-22 23:42:27.460 | -0.083740234,0.36990356,0.0 | 2020-01-22 23:42:27.499 | ID 653 | TERIMA 22-Jan-2020 (23:42:28.069239)
2020-01-22 23:42:27.585 | 0.20884705,0.42489624,0.0 | 2020-01-22 23:42:27.614 | ID 655 | TERIMA 22-Jan-2020 (23:42:28.330878)
2020-01-22 23:42:27.704 | 0.23756409,0.40229797,0.0 | 2020-01-22 23:42:27.733 | ID 657 | TERIMA 22-Jan-2020 (23:42:28.361259)
2020-01-22 23:42:27.822 | -0.13871765,0.19398499,0.0 | 2020-01-22 23:42:27.872 | ID 659 | TERIMA 22-Jan-2020 (23:42:28.640240)
2020-01-22 23:42:27.945 | 0.16853333,0.97772217,0.0 | 2020-01-22 23:42:27.983 | ID 661 | TERIMA 22-Jan-2020 (23:42:28.672273)
2020-01-22 23:42:28.064 | 0.027435303,0.69184875,0.0 | 2020-01-22 23:42:28.140 | ID 663 | TERIMA 22-Jan-2020 (23:42:28.707237)
2020-01-22 23:42:28.189 | -0.20774841,-0.054016113,0.0 | 2020-01-22 23:42:28.258 | ID 665 | TERIMA 22-Jan-2020 (23:42:28.952241)
2020-01-22 23:42:28.321 | -0.25050354,-0.77848816,0.0 | 2020-01-22 23:42:28.376 | ID 667 | TERIMA 22-Jan-2020 (23:42:28.986870)
2020-01-22 23:42:28.445 | -0.13137817,-0.8218689,0.0 | 2020-01-22 23:42:28.499 | ID 669 | TERIMA 22-Jan-2020 (23:42:29.267240)
2020-01-22 23:42:28.569 | 0.20884705,-0.47184753,0.0 | 2020-01-22 23:42:28.619 | ID 671 | TERIMA 22-Jan-2020 (23:42:29.299873)
2020-01-22 23:42:28.694 | -0.39649963,-0.1963501,0.0 | 2020-01-22 23:42:28.737 | ID 673 | TERIMA 22-Jan-2020 (23:42:29.332940)
2020-01-22 23:42:28.817 | -0.015335083,-0.102874756,0.0 | 2020-01-22 23:42:28.867 | ID 675 | TERIMA 22-Jan-2020 (23:42:29.589891)
2020-01-22 23:42:28.937 | 0.0060577393,-0.15907288,0.0 | 2020-01-22 23:42:28.976 | ID 677 | TERIMA 22-Jan-2020 (23:42:29.624873)
2020-01-22 23:42:29.061 | -0.040359497,-0.21894836,0.0 | 2020-01-22 23:42:29.111 | ID 679 | TERIMA 22-Jan-2020 (23:42:29.657007)
2020-01-22 23:42:29.183 | 0.006652832,-0.15602112,0.0 | 2020-01-22 23:42:29.216 | ID 681 | TERIMA 22-Jan-2020 (23:42:29.899930)
2020-01-22 23:42:29.306 | -0.07885742,0.77919006,0.0 | 2020-01-22 23:42:29.353 | ID 683 | TERIMA 22-Jan-2020 (23:42:29.931262)
2020-01-22 23:42:29.435 | -0.015335083,0.17567444,0.0 | 2020-01-22 23:42:29.469 | ID 685 | TERIMA 22-Jan-2020 (23:42:30.225905)
2020-01-22 23:42:29.559 | 0.05491638,-0.019210815,0.0 | 2020-01-22 23:42:29.610 | ID 687 | TERIMA 22-Jan-2020 (23:42:30.269870)
2020-01-22 23:42:29.681 | 0.03353882,-0.28918457,0.0 | 2020-01-22 23:42:29.723 | ID 689 | TERIMA 22-Jan-2020 (23:42:30.301866)
2020-01-22 23:42:29.809 | 0.012145996,-0.2323761,0.0 | 2020-01-22 23:42:29.857 | ID 691 | TERIMA 22-Jan-2020 (23:42:30.545932)
2020-01-22 23:42:29.931 | 0.029876709,0.054107666,0.0 | 2020-01-22 23:42:29.973 | ID 693 | TERIMA 22-Jan-2020 (23:42:30.583255)
2020-01-22 23:42:30.061 | 0.061019897,0.28990173,0.0 | 2020-01-22 23:42:30.110 | ID 695 | TERIMA 22-Jan-2020 (23:42:30.869930)
2020-01-22 23:42:30.184 | 0.023773193,0.22268677,0.0 | 2020-01-22 23:42:30.225 | ID 697 | TERIMA 22-Jan-2020 (23:42:30.901268)
2020-01-22 23:42:30.308 | 0.080566406,0.0040130615,0.0 | 2020-01-22 23:42:30.365 | ID 699 | TERIMA 22-Jan-2020 (23:42:30.934904)
2020-01-22 23:42:30.435 | 0.0054473877,-0.21832275,0.0 | 2020-01-22 23:42:30.484 | ID 701 | TERIMA 22-Jan-2020 (23:42:31.174276)
2020-01-22 23:42:30.557 | -0.0690918,-0.16275024,0.0 | 2020-01-22 23:42:30.605 | ID 703 | TERIMA 22-Jan-2020 (23:42:31.209887)
2020-01-22 23:42:30.678 | -0.11366272,-0.16151428,0.0 | 2020-01-22 23:42:30.724 | ID 705 | TERIMA 22-Jan-2020 (23:42:31.244268)
2020-01-22 23:42:30.801 | -0.06907654,0.14511108,0.0 | 2020-01-22 23:42:30.841 | ID 707 | TERIMA 22-Jan-2020 (23:42:31.491226)
2020-01-22 23:42:30.922 | -0.031204224,0.14512634,0.0 | 2020-01-22 23:42:30.964 | ID 709 | TERIMA 22-Jan-2020 (23:42:31.522964)
2020-01-22 23:42:31.047 | -0.10084534,-0.021026611,0.0 | 2020-01-22 23:42:31.082 | ID 711 | TERIMA 22-Jan-2020 (23:42:31.802298)
2020-01-22 23:42:31.179 | -0.051376343,-0.28553772,0.0 | 2020-01-22 23:42:31.220 | ID 713 | TERIMA 22-Jan-2020 (23:42:31.833891)
2020-01-22 23:42:31.294 | -0.025726318,-0.26719666,0.0 | 2020-01-22 23:42:31.328 | ID 715 | TERIMA 22-Jan-2020 (23:42:31.867864)
2020-01-22 23:42:31.421 | -0.08251953,0.041290283,0.0 | 2020-01-22 23:42:31.469 | ID 717 | TERIMA 22-Jan-2020 (23:42:32.120950)
2020-01-22 23:42:31.547 | 0.028045654,0.25508118,0.0 | 2020-01-22 23:42:31.590 | ID 719 | TERIMA 22-Jan-2020 (23:42:32.152264)
2020-01-22 23:42:31.670 | 0.10255432,0.20376587,0.0 | 2020-01-22 23:42:31.757 | ID 721 | TERIMA 22-Jan-2020 (23:42:32.507258)
2020-01-22 23:42:31.807 | 0.024368286,-0.055236816,0.0 | 2020-01-22 23:42:31.871 | ID 723 | TERIMA 22-Jan-2020 (23:42:32.821875)
2020-01-22 23:42:31.933 | 0.0011749268,-0.2959137,0.0 | 2020-01-22 23:42:31.996 | ID 725 | TERIMA 22-Jan-2020 (23:42:32.858874)
2020-01-22 23:42:32.055 | -0.10328674,-0.23605347,0.0 | 2020-01-22 23:42:32.110 | ID 727 | TERIMA 22-Jan-2020 (23:42:32.890856)
2020-01-22 23:42:32.178 | -0.16009521,-0.063797,0.0 | 2020-01-22 23:42:32.236 | ID 729 | TERIMA 22-Jan-2020 (23:42:32.923281)
2020-01-22 23:42:32.300 | -0.020217896,0.1640625,0.0 | 2020-01-22 23:42:32.354 | ID 731 | TERIMA 22-Jan-2020 (23:42:33.139255)
2020-01-22 23:42:32.436 | -0.022659302,-0.010650635,0.0 | 2020-01-22 23:42:32.476 | ID 733 | TERIMA 22-Jan-2020 (23:42:33.171263)
2020-01-22 23:42:32.557 | -0.064193726,-0.047286987,0.0 | 2020-01-22 23:42:32.594 | ID 735 | TERIMA 22-Jan-2020 (23:42:33.211229)
2020-01-22 23:42:32.680 | -0.07885742,-0.058898926,0.0 | 2020-01-22 23:42:32.709 | ID 737 | TERIMA 22-Jan-2020 (23:42:33.243255)
2020-01-22 23:42:32.803 | -0.088012695,-0.05278015,0.0 | 2020-01-22 23:42:32.849 | ID 739 | TERIMA 22-Jan-2020 (23:42:33.452250)
2020-01-22 23:42:32.927 | -0.16621399,-0.013092041,0.0 | 2020-01-22 23:42:32.973 | ID 741 | TERIMA 22-Jan-2020 (23:42:33.483870)
2020-01-22 23:42:33.049 | -0.16070557,-0.045455933,0.0 | 2020-01-22 23:42:33.092 | ID 743 | TERIMA 22-Jan-2020 (23:42:33.762258)
2020-01-22 23:42:33.176 | -0.1869812,-0.030181885,0.0 | 2020-01-22 23:42:33.203 | ID 745 | TERIMA 22-Jan-2020 (23:42:33.794858)
2020-01-22 23:42:33.298 | -0.092285156,-0.021621704,0.0 | 2020-01-22 23:42:33.343 | ID 747 | TERIMA 22-Jan-2020 (23:42:33.832252)
2020-01-22 23:42:33.426 | -0.044036865,-0.03201294,0.0 | 2020-01-22 23:42:33.482 | ID 749 | TERIMA 22-Jan-2020 (23:42:34.076496)
2020-01-22 23:42:33.551 | 0.0060577393,0.016845703,0.0 | 2020-01-22 23:42:33.583 | ID 751 | TERIMA 22-Jan-2020 (23:42:34.108511)
2020-01-22 23:42:33.676 | 0.024978638,0.060821533,0.0 | 2020-01-22 23:42:33.725 | ID 753 | TERIMA 22-Jan-2020 (23:42:34.390493)
2020-01-22 23:42:33.802 | -0.015335083,0.044326782,0.0 | 2020-01-22 23:42:33.830 | ID 755 | TERIMA 22-Jan-2020 (23:42:34.426146)
2020-01-22 23:42:33.925 | -0.04220581,-0.19696045,0.0 | 2020-01-22 23:42:33.966 | ID 757 | TERIMA 22-Jan-2020 (23:42:34.463515)
2020-01-22 23:42:34.047 | -0.13200378,-0.1169281,0.0 | 2020-01-22 23:42:34.108 | ID 759 | TERIMA 22-Jan-2020 (23:42:34.736506)
2020-01-22 23:42:34.171 | -0.048324585,0.15367126,0.0 | 2020-01-22 23:42:34.207 | ID 761 | TERIMA 22-Jan-2020 (23:42:35.055106)
2020-01-22 23:42:34.293 | 0.05796814,0.2587433,0.0 | 2020-01-22 23:42:34.338 | ID 763 | TERIMA 22-Jan-2020 (23:42:35.086509)
2020-01-22 23:42:34.416 | 0.019485474,0.08036804,0.0 | 2020-01-22 23:42:34.452 | ID 765 | TERIMA 22-Jan-2020 (23:42:35.119133)
2020-01-22 23:42:34.538 | 0.020706177,-0.15602112,0.0 | 2020-01-22 23:42:34.576 | ID 767 | TERIMA 22-Jan-2020 (23:42:35.149498)
2020-01-22 23:42:34.660 | -0.05870056,-0.28370667,0.0 | 2020-01-22 23:42:34.691 | ID 769 | TERIMA 22-Jan-2020 (23:42:35.370149)
2020-01-22 23:42:34.783 | -0.095336914,-0.13891602,0.0 | 2020-01-22 23:42:34.825 | ID 771 | TERIMA 22-Jan-2020 (23:42:35.686505)
2020-01-22 23:42:34.907 | -0.13442993,-0.043029785,0.0 | 2020-01-22 23:42:34.953 | ID 773 | TERIMA 22-Jan-2020 (23:42:35.719158)
2020-01-22 23:42:35.021 | 0.011550903,0.13717651,0.0 | 2020-01-22 23:42:35.044 | ID 775 | TERIMA 22-Jan-2020 (23:42:36.003164)
2020-01-22 23:42:35.148 | -0.014709473,0.08647156,0.0 | 2020-01-22 23:42:35.188 | ID 777 | TERIMA 22-Jan-2020 (23:42:36.036154)
2020-01-22 23:42:35.268 | 0.001159668,-0.07173157,0.0 | 2020-01-22 23:42:35.307 | ID 779 | TERIMA 22-Jan-2020 (23:42:36.069183)
