D/DATA VITAL: 2020-01-22 23:41:48.244 mengirimkan data ID 0
D/DATA VITAL: 2020-01-22 23:41:48.419 mengirimkan data ID 4
D/DATA VITAL: 2020-01-22 23:41:48.572 mengirimkan data ID 8
D/DATA VITAL: 2020-01-22 23:41:48.756 mengirimkan data ID 12
D/DATA VITAL: 2020-01-22 23:41:48.929 mengirimkan data ID 16
D/DATA VITAL: 2020-01-22 23:41:49.061 mengirimkan data ID 20
D/DATA VITAL: 2020-01-22 23:41:49.203 mengirimkan data ID 24
D/DATA VITAL: 2020-01-22 23:41:49.371 mengirimkan data ID 28
D/DATA VITAL: 2020-01-22 23:41:49.560 mengirimkan data ID 32
D/DATA VITAL: 2020-01-22 23:41:49.742 mengirimkan data ID 38
D/DATA VITAL: 2020-01-22 23:41:49.920 mengirimkan data ID 40
D/DATA VITAL: 2020-01-22 23:41:50.120 mengirimkan data ID 44
D/DATA VITAL: 2020-01-22 23:41:50.298 mengirimkan data ID 48
D/DATA VITAL: 2020-01-22 23:41:50.480 mengirimkan data ID 52
D/DATA VITAL: 2020-01-22 23:41:50.685 mengirimkan data ID 58
D/DATA VITAL: 2020-01-22 23:41:50.862 mengirimkan data ID 62
D/DATA VITAL: 2020-01-22 23:41:51.004 mengirimkan data ID 64
D/DATA VITAL: 2020-01-22 23:41:51.170 mengirimkan data ID 70
D/DATA VITAL: 2020-01-22 23:41:51.339 mengirimkan data ID 74
D/DATA VITAL: 2020-01-22 23:41:51.504 mengirimkan data ID 78
D/DATA VITAL: 2020-01-22 23:41:51.670 mengirimkan data ID 82
D/DATA VITAL: 2020-01-22 23:41:51.828 mengirimkan data ID 84
D/DATA VITAL: 2020-01-22 23:41:51.995 mengirimkan data ID 88
D/DATA VITAL: 2020-01-22 23:41:52.165 mengirimkan data ID 92
D/DATA VITAL: 2020-01-22 23:41:52.335 mengirimkan data ID 96
D/DATA VITAL: 2020-01-22 23:41:52.511 mengirimkan data ID 100
D/DATA VITAL: 2020-01-22 23:41:52.681 mengirimkan data ID 106
D/DATA VITAL: 2020-01-22 23:41:52.824 mengirimkan data ID 108
D/DATA VITAL: 2020-01-22 23:41:52.989 mengirimkan data ID 112
D/DATA VITAL: 2020-01-22 23:41:53.157 mengirimkan data ID 118
