D/DATA VITAL: 2020-01-22 02:46:15.883 menerima data ID 2 waktu terima 2020-01-22 02:46:16.022
D/DATA VITAL: 2020-01-22 02:46:16.104 menerima data ID 4 waktu terima 2020-01-22 02:46:16.173
D/DATA VITAL: 2020-01-22 02:46:16.275 menerima data ID 10 waktu terima 2020-01-22 02:46:16.422
D/DATA VITAL: 2020-01-22 02:46:16.451 menerima data ID 12 waktu terima 2020-01-22 02:46:16.807
D/DATA VITAL: 2020-01-22 02:46:16.612 menerima data ID 16 waktu terima 2020-01-22 02:46:16.891
D/DATA VITAL: 2020-01-22 02:46:16.770 menerima data ID 20 waktu terima 2020-01-22 02:46:17.353
D/DATA VITAL: 2020-01-22 02:46:16.930 menerima data ID 26 waktu terima 2020-01-22 02:46:17.822
D/DATA VITAL: 2020-01-22 02:46:17.088 menerima data ID 28 waktu terima 2020-01-22 02:46:17.885
D/DATA VITAL: 2020-01-22 02:46:17.262 menerima data ID 32 waktu terima 2020-01-22 02:46:18.345
D/DATA VITAL: 2020-01-22 02:46:17.418 menerima data ID 36 waktu terima 2020-01-22 02:46:18.740
D/DATA VITAL: 2020-01-22 02:46:17.605 menerima data ID 40 waktu terima 2020-01-22 02:46:18.854
D/DATA VITAL: 2020-01-22 02:46:17.762 menerima data ID 46 waktu terima 2020-01-22 02:46:18.945
D/DATA VITAL: 2020-01-22 02:46:17.940 menerima data ID 50 waktu terima 2020-01-22 02:46:19.006
D/DATA VITAL: 2020-01-22 02:46:18.073 menerima data ID 54 waktu terima 2020-01-22 02:46:19.067
D/DATA VITAL: 2020-01-22 02:46:18.211 menerima data ID 58 waktu terima 2020-01-22 02:46:19.133
D/DATA VITAL: 2020-01-22 02:46:18.362 menerima data ID 62 waktu terima 2020-01-22 02:46:19.160
D/DATA VITAL: 2020-01-22 02:46:18.516 menerima data ID 66 waktu terima 2020-01-22 02:46:19.252
D/DATA VITAL: 2020-01-22 02:46:18.665 menerima data ID 70 waktu terima 2020-01-22 02:46:19.294
D/DATA VITAL: 2020-01-22 02:46:18.836 menerima data ID 72 waktu terima 2020-01-22 02:46:19.331
D/DATA VITAL: 2020-01-22 02:46:18.996 menerima data ID 76 waktu terima 2020-01-22 02:46:19.387
D/DATA VITAL: 2020-01-22 02:46:19.152 menerima data ID 82 waktu terima 2020-01-22 02:46:19.471
D/DATA VITAL: 2020-01-22 02:46:19.292 menerima data ID 86 waktu terima 2020-01-22 02:46:19.523
D/DATA VITAL: 2020-01-22 02:46:19.447 menerima data ID 88 waktu terima 2020-01-22 02:46:19.579
D/DATA VITAL: 2020-01-22 02:46:19.588 menerima data ID 92 waktu terima 2020-01-22 02:46:19.629
D/DATA VITAL: 2020-01-22 02:46:19.736 menerima data ID 98 waktu terima 2020-01-22 02:46:19.818
D/DATA VITAL: 2020-01-22 02:46:19.901 menerima data ID 100 waktu terima 2020-01-22 02:46:20.177
D/DATA VITAL: 2020-01-22 02:46:20.042 menerima data ID 104 waktu terima 2020-01-22 02:46:20.712
D/DATA VITAL: 2020-01-22 02:46:20.186 menerima data ID 108 waktu terima 2020-01-22 02:46:21.131
D/DATA VITAL: 2020-01-22 02:46:20.311 menerima data ID 114 waktu terima 2020-01-22 02:46:21.259
D/DATA VITAL: 2020-01-22 02:46:20.453 menerima data ID 118 waktu terima 2020-01-22 02:46:21.315
D/DATA VITAL: 2020-01-22 02:46:20.602 menerima data ID 122 waktu terima 2020-01-22 02:46:21.365
D/DATA VITAL: 2020-01-22 02:46:20.723 menerima data ID 126 waktu terima 2020-01-22 02:46:21.428
D/DATA VITAL: 2020-01-22 02:46:20.874 menerima data ID 130 waktu terima 2020-01-22 02:46:21.487
D/DATA VITAL: 2020-01-22 02:46:21.028 menerima data ID 134 waktu terima 2020-01-22 02:46:21.542
D/DATA VITAL: 2020-01-22 02:46:21.157 menerima data ID 138 waktu terima 2020-01-22 02:46:21.593
D/DATA VITAL: 2020-01-22 02:46:21.281 menerima data ID 142 waktu terima 2020-01-22 02:46:21.647
D/DATA VITAL: 2020-01-22 02:46:21.410 menerima data ID 146 waktu terima 2020-01-22 02:46:21.701
D/DATA VITAL: 2020-01-22 02:46:21.540 menerima data ID 150 waktu terima 2020-01-22 02:46:21.748
D/DATA VITAL: 2020-01-22 02:46:21.666 menerima data ID 154 waktu terima 2020-01-22 02:46:21.804
D/DATA VITAL: 2020-01-22 02:46:21.798 menerima data ID 158 waktu terima 2020-01-22 02:46:21.850
D/DATA VITAL: 2020-01-22 02:46:21.931 menerima data ID 162 waktu terima 2020-01-22 02:46:21.988
D/DATA VITAL: 2020-01-22 02:46:22.057 menerima data ID 166 waktu terima 2020-01-22 02:46:22.112
D/DATA VITAL: 2020-01-22 02:46:22.197 menerima data ID 170 waktu terima 2020-01-22 02:46:22.251
D/DATA VITAL: 2020-01-22 02:46:22.344 menerima data ID 174 waktu terima 2020-01-22 02:46:22.639
D/DATA VITAL: 2020-01-22 02:46:22.467 menerima data ID 178 waktu terima 2020-01-22 02:46:22.711
D/DATA VITAL: 2020-01-22 02:46:22.597 menerima data ID 182 waktu terima 2020-01-22 02:46:23.058
D/DATA VITAL: 2020-01-22 02:46:22.735 menerima data ID 186 waktu terima 2020-01-22 02:46:23.180
D/DATA VITAL: 2020-01-22 02:46:22.861 menerima data ID 190 waktu terima 2020-01-22 02:46:23.601
D/DATA VITAL: 2020-01-22 02:46:22.986 menerima data ID 194 waktu terima 2020-01-22 02:46:24.014
D/DATA VITAL: 2020-01-22 02:46:23.117 menerima data ID 198 waktu terima 2020-01-22 02:46:24.104
D/DATA VITAL: 2020-01-22 02:46:23.250 menerima data ID 202 waktu terima 2020-01-22 02:46:24.557
D/DATA VITAL: 2020-01-22 02:46:23.377 menerima data ID 206 waktu terima 2020-01-22 02:46:24.982
D/DATA VITAL: 2020-01-22 02:46:23.499 menerima data ID 210 waktu terima 2020-01-22 02:46:25.100
D/DATA VITAL: 2020-01-22 02:46:23.625 menerima data ID 214 waktu terima 2020-01-22 02:46:25.530
D/DATA VITAL: 2020-01-22 02:46:23.783 menerima data ID 218 waktu terima 2020-01-22 02:46:25.969
D/DATA VITAL: 2020-01-22 02:46:23.906 menerima data ID 222 waktu terima 2020-01-22 02:46:26.059
D/DATA VITAL: 2020-01-22 02:46:24.036 menerima data ID 226 waktu terima 2020-01-22 02:46:26.510
D/DATA VITAL: 2020-01-22 02:46:24.158 menerima data ID 230 waktu terima 2020-01-22 02:46:26.977
D/DATA VITAL: 2020-01-22 02:46:24.283 menerima data ID 234 waktu terima 2020-01-22 02:46:27.072
D/DATA VITAL: 2020-01-22 02:46:24.407 menerima data ID 238 waktu terima 2020-01-22 02:46:27.149
D/DATA VITAL: 2020-01-22 02:46:24.535 menerima data ID 242 waktu terima 2020-01-22 02:46:27.233
D/DATA VITAL: 2020-01-22 02:46:24.658 menerima data ID 246 waktu terima 2020-01-22 02:46:27.302
D/DATA VITAL: 2020-01-22 02:46:24.788 menerima data ID 250 waktu terima 2020-01-22 02:46:27.374
D/DATA VITAL: 2020-01-22 02:46:24.916 menerima data ID 254 waktu terima 2020-01-22 02:46:27.454
D/DATA VITAL: 2020-01-22 02:46:25.038 menerima data ID 258 waktu terima 2020-01-22 02:46:27.537
D/DATA VITAL: 2020-01-22 02:46:25.168 menerima data ID 262 waktu terima 2020-01-22 02:46:27.615
D/DATA VITAL: 2020-01-22 02:46:25.289 menerima data ID 266 waktu terima 2020-01-22 02:46:27.696
D/DATA VITAL: 2020-01-22 02:46:25.409 menerima data ID 270 waktu terima 2020-01-22 02:46:27.770
D/DATA VITAL: 2020-01-22 02:46:25.530 menerima data ID 274 waktu terima 2020-01-22 02:46:27.860
D/DATA VITAL: 2020-01-22 02:46:25.645 menerima data ID 278 waktu terima 2020-01-22 02:46:27.944
D/DATA VITAL: 2020-01-22 02:46:25.766 menerima data ID 282 waktu terima 2020-01-22 02:46:28.017
D/DATA VITAL: 2020-01-22 02:46:25.887 menerima data ID 286 waktu terima 2020-01-22 02:46:28.085
D/DATA VITAL: 2020-01-22 02:46:26.023 menerima data ID 290 waktu terima 2020-01-22 02:46:28.152
D/DATA VITAL: 2020-01-22 02:46:26.139 menerima data ID 294 waktu terima 2020-01-22 02:46:28.234
D/DATA VITAL: 2020-01-22 02:46:26.259 menerima data ID 298 waktu terima 2020-01-22 02:46:28.315
D/DATA VITAL: 2020-01-22 02:46:26.375 menerima data ID 302 waktu terima 2020-01-22 02:46:28.396
D/DATA VITAL: 2020-01-22 02:46:26.503 menerima data ID 306 waktu terima 2020-01-22 02:46:28.484
D/DATA VITAL: 2020-01-22 02:46:26.626 menerima data ID 310 waktu terima 2020-01-22 02:46:28.569
D/DATA VITAL: 2020-01-22 02:46:26.747 menerima data ID 314 waktu terima 2020-01-22 02:46:28.656
D/DATA VITAL: 2020-01-22 02:46:26.874 menerima data ID 318 waktu terima 2020-01-22 02:46:28.733
D/DATA VITAL: 2020-01-22 02:46:26.998 menerima data ID 322 waktu terima 2020-01-22 02:46:28.817
D/DATA VITAL: 2020-01-22 02:46:27.121 menerima data ID 326 waktu terima 2020-01-22 02:46:28.886
D/DATA VITAL: 2020-01-22 02:46:27.248 menerima data ID 330 waktu terima 2020-01-22 02:46:28.956
D/DATA VITAL: 2020-01-22 02:46:27.375 menerima data ID 334 waktu terima 2020-01-22 02:46:29.034
D/DATA VITAL: 2020-01-22 02:46:27.495 menerima data ID 338 waktu terima 2020-01-22 02:46:29.101
D/DATA VITAL: 2020-01-22 02:46:27.632 menerima data ID 342 waktu terima 2020-01-22 02:46:29.167
D/DATA VITAL: 2020-01-22 02:46:27.754 menerima data ID 346 waktu terima 2020-01-22 02:46:29.232
D/DATA VITAL: 2020-01-22 02:46:27.875 menerima data ID 350 waktu terima 2020-01-22 02:46:29.297
D/DATA VITAL: 2020-01-22 02:46:27.997 menerima data ID 354 waktu terima 2020-01-22 02:46:29.361
D/DATA VITAL: 2020-01-22 02:46:28.119 menerima data ID 358 waktu terima 2020-01-22 02:46:29.773
