2020-01-22 02:46:15.935 | 0 | 2020-01-22 02:46:16.130 | ID 3 | TERIMA 22-Jan-2020 (02:46:16.621232)
2020-01-22 02:46:16.126 | 0 | 2020-01-22 02:46:16.205 | ID 5 | TERIMA 22-Jan-2020 (02:46:16.935231)
2020-01-22 02:46:16.301 | 0 | 2020-01-22 02:46:16.441 | ID 11 | TERIMA 22-Jan-2020 (02:46:17.264231)
2020-01-22 02:46:16.468 | 0 | 2020-01-22 02:46:16.834 | ID 13 | TERIMA 22-Jan-2020 (02:46:17.589594)
2020-01-22 02:46:16.621 | 0 | 2020-01-22 02:46:16.907 | ID 17 | TERIMA 22-Jan-2020 (02:46:17.635201)
2020-01-22 02:46:16.787 | 0 | 2020-01-22 02:46:17.396 | ID 21 | TERIMA 22-Jan-2020 (02:46:18.016250)
2020-01-22 02:46:16.955 | 0 | 2020-01-22 02:46:17.848 | ID 27 | TERIMA 22-Jan-2020 (02:46:18.331641)
2020-01-22 02:46:17.108 | 0 | 2020-01-22 02:46:18.301 | ID 29 | TERIMA 22-Jan-2020 (02:46:19.094588)
2020-01-22 02:46:17.275 | 0 | 2020-01-22 02:46:18.367 | ID 33 | TERIMA 22-Jan-2020 (02:46:19.420227)
2020-01-22 02:46:17.437 | 0 | 2020-01-22 02:46:18.806 | ID 37 | TERIMA 22-Jan-2020 (02:46:19.460594)
2020-01-22 02:46:17.613 | 0 | 2020-01-22 02:46:18.905 | ID 41 | TERIMA 22-Jan-2020 (02:46:19.497237)
2020-01-22 02:46:17.780 | 0 | 2020-01-22 02:46:18.961 | ID 47 | TERIMA 22-Jan-2020 (02:46:19.547229)
2020-01-22 02:46:17.950 | 0 | 2020-01-22 02:46:19.021 | ID 51 | TERIMA 22-Jan-2020 (02:46:19.585569)
2020-01-22 02:46:18.082 | 0 | 2020-01-22 02:46:19.083 | ID 55 | TERIMA 22-Jan-2020 (02:46:19.757658)
2020-01-22 02:46:18.240 | 0 | 2020-01-22 02:46:19.147 | ID 59 | TERIMA 22-Jan-2020 (02:46:19.795612)
2020-01-22 02:46:18.383 | 1 | 2020-01-22 02:46:19.204 | ID 63 | TERIMA 22-Jan-2020 (02:46:19.833222)
2020-01-22 02:46:18.523 | 1 | 2020-01-22 02:46:19.267 | ID 67 | TERIMA 22-Jan-2020 (02:46:19.872220)
2020-01-22 02:46:18.698 | 1 | 2020-01-22 02:46:19.318 | ID 71 | TERIMA 22-Jan-2020 (02:46:19.910588)
2020-01-22 02:46:18.845 | 1 | 2020-01-22 02:46:19.364 | ID 73 | TERIMA 22-Jan-2020 (02:46:20.079229)
2020-01-22 02:46:19.007 | 1 | 2020-01-22 02:46:19.417 | ID 77 | TERIMA 22-Jan-2020 (02:46:20.112605)
2020-01-22 02:46:19.162 | 1 | 2020-01-22 02:46:19.494 | ID 83 | TERIMA 22-Jan-2020 (02:46:20.149247)
2020-01-22 02:46:19.313 | 1 | 2020-01-22 02:46:19.567 | ID 87 | TERIMA 22-Jan-2020 (02:46:20.185619)
2020-01-22 02:46:19.453 | 1 | 2020-01-22 02:46:19.593 | ID 89 | TERIMA 22-Jan-2020 (02:46:20.242588)
2020-01-22 02:46:19.594 | 1 | 2020-01-22 02:46:19.644 | ID 93 | TERIMA 22-Jan-2020 (02:46:20.418199)
2020-01-22 02:46:19.771 | 1 | 2020-01-22 02:46:19.845 | ID 99 | TERIMA 22-Jan-2020 (02:46:20.455607)
2020-01-22 02:46:19.912 | 1 | 2020-01-22 02:46:20.228 | ID 101 | TERIMA 22-Jan-2020 (02:46:20.744210)
2020-01-22 02:46:20.049 | 1 | 2020-01-22 02:46:20.760 | ID 105 | TERIMA 22-Jan-2020 (02:46:21.552241)
2020-01-22 02:46:20.192 | 1 | 2020-01-22 02:46:21.160 | ID 109 | TERIMA 22-Jan-2020 (02:46:21.864596)
2020-01-22 02:46:20.317 | 1 | 2020-01-22 02:46:21.274 | ID 115 | TERIMA 22-Jan-2020 (02:46:21.914242)
2020-01-22 02:46:20.476 | 1 | 2020-01-22 02:46:21.340 | ID 119 | TERIMA 22-Jan-2020 (02:46:21.958599)
2020-01-22 02:46:20.608 | 1 | 2020-01-22 02:46:21.381 | ID 123 | TERIMA 22-Jan-2020 (02:46:21.992244)
2020-01-22 02:46:20.743 | 1 | 2020-01-22 02:46:21.442 | ID 127 | TERIMA 22-Jan-2020 (02:46:22.025222)
2020-01-22 02:46:20.904 | 1 | 2020-01-22 02:46:21.502 | ID 131 | TERIMA 22-Jan-2020 (02:46:22.251251)
2020-01-22 02:46:21.033 | 1 | 2020-01-22 02:46:21.555 | ID 135 | TERIMA 22-Jan-2020 (02:46:22.307227)
2020-01-22 02:46:21.162 | 1 | 2020-01-22 02:46:21.606 | ID 139 | TERIMA 22-Jan-2020 (02:46:22.346223)
2020-01-22 02:46:21.289 | 1 | 2020-01-22 02:46:21.663 | ID 143 | TERIMA 22-Jan-2020 (02:46:22.383608)
2020-01-22 02:46:21.415 | 1 | 2020-01-22 02:46:21.713 | ID 147 | TERIMA 22-Jan-2020 (02:46:22.427218)
2020-01-22 02:46:21.546 | 1 | 2020-01-22 02:46:21.763 | ID 151 | TERIMA 22-Jan-2020 (02:46:22.466641)
2020-01-22 02:46:21.671 | 1 | 2020-01-22 02:46:21.817 | ID 155 | TERIMA 22-Jan-2020 (02:46:22.588223)
2020-01-22 02:46:21.803 | 1 | 2020-01-22 02:46:21.862 | ID 159 | TERIMA 22-Jan-2020 (02:46:22.629614)
2020-01-22 02:46:21.937 | 1 | 2020-01-22 02:46:22.013 | ID 163 | TERIMA 22-Jan-2020 (02:46:22.671231)
2020-01-22 02:46:22.062 | 1 | 2020-01-22 02:46:22.141 | ID 167 | TERIMA 22-Jan-2020 (02:46:22.912223)
2020-01-22 02:46:22.214 | 1 | 2020-01-22 02:46:22.269 | ID 171 | TERIMA 22-Jan-2020 (02:46:22.946225)
2020-01-22 02:46:22.349 | 1 | 2020-01-22 02:46:22.657 | ID 175 | TERIMA 22-Jan-2020 (02:46:23.245222)
2020-01-22 02:46:22.472 | 1 | 2020-01-22 02:46:22.727 | ID 179 | TERIMA 22-Jan-2020 (02:46:23.575497)
2020-01-22 02:46:22.601 | 1 | 2020-01-22 02:46:23.096 | ID 183 | TERIMA 22-Jan-2020 (02:46:23.892856)
2020-01-22 02:46:22.740 | 1 | 2020-01-22 02:46:23.210 | ID 187 | TERIMA 22-Jan-2020 (02:46:24.229504)
2020-01-22 02:46:22.865 | 1 | 2020-01-22 02:46:23.624 | ID 191 | TERIMA 22-Jan-2020 (02:46:24.553832)
2020-01-22 02:46:22.991 | 1 | 2020-01-22 02:46:24.047 | ID 195 | TERIMA 22-Jan-2020 (02:46:24.599837)
2020-01-22 02:46:23.122 | 1 | 2020-01-22 02:46:24.120 | ID 199 | TERIMA 22-Jan-2020 (02:46:24.637465)
2020-01-22 02:46:23.254 | 1 | 2020-01-22 02:46:24.581 | ID 203 | TERIMA 22-Jan-2020 (02:46:24.981851)
2020-01-22 02:46:23.381 | 1 | 2020-01-22 02:46:25.030 | ID 207 | TERIMA 22-Jan-2020 (02:46:25.756847)
2020-01-22 02:46:23.503 | 1 | 2020-01-22 02:46:25.456 | ID 211 | TERIMA 22-Jan-2020 (02:46:26.134475)
2020-01-22 02:46:23.629 | 1 | 2020-01-22 02:46:25.548 | ID 215 | TERIMA 22-Jan-2020 (02:46:26.208857)
2020-01-22 02:46:23.787 | 1 | 2020-01-22 02:46:25.993 | ID 219 | TERIMA 22-Jan-2020 (02:46:26.464485)
2020-01-22 02:46:23.911 | 1 | 2020-01-22 02:46:26.429 | ID 223 | TERIMA 22-Jan-2020 (02:46:26.851476)
2020-01-22 02:46:24.040 | 1 | 2020-01-22 02:46:26.900 | ID 227 | TERIMA 22-Jan-2020 (02:46:27.377587)
2020-01-22 02:46:24.162 | 1 | 2020-01-22 02:46:27.012 | ID 231 | TERIMA 22-Jan-2020 (02:46:27.709863)
2020-01-22 02:46:24.287 | 1 | 2020-01-22 02:46:27.090 | ID 235 | TERIMA 22-Jan-2020 (02:46:27.741852)
2020-01-22 02:46:24.411 | 1 | 2020-01-22 02:46:27.176 | ID 239 | TERIMA 22-Jan-2020 (02:46:27.776529)
2020-01-22 02:46:24.539 | 1 | 2020-01-22 02:46:27.258 | ID 243 | TERIMA 22-Jan-2020 (02:46:27.816473)
2020-01-22 02:46:24.662 | 1 | 2020-01-22 02:46:27.323 | ID 247 | TERIMA 22-Jan-2020 (02:46:28.039472)
2020-01-22 02:46:24.792 | 1 | 2020-01-22 02:46:27.393 | ID 251 | TERIMA 22-Jan-2020 (02:46:28.072858)
2020-01-22 02:46:24.920 | 1 | 2020-01-22 02:46:27.478 | ID 255 | TERIMA 22-Jan-2020 (02:46:28.115482)
2020-01-22 02:46:25.042 | 1 | 2020-01-22 02:46:27.555 | ID 259 | TERIMA 22-Jan-2020 (02:46:28.175914)
2020-01-22 02:46:25.172 | 1 | 2020-01-22 02:46:27.636 | ID 263 | TERIMA 22-Jan-2020 (02:46:28.212837)
2020-01-22 02:46:25.293 | 1 | 2020-01-22 02:46:27.717 | ID 267 | TERIMA 22-Jan-2020 (02:46:28.369921)
2020-01-22 02:46:25.413 | 1 | 2020-01-22 02:46:27.793 | ID 271 | TERIMA 22-Jan-2020 (02:46:28.408820)
2020-01-22 02:46:25.534 | 1 | 2020-01-22 02:46:27.875 | ID 275 | TERIMA 22-Jan-2020 (02:46:28.447491)
2020-01-22 02:46:25.649 | 1 | 2020-01-22 02:46:27.963 | ID 279 | TERIMA 22-Jan-2020 (02:46:28.486482)
2020-01-22 02:46:25.770 | 1 | 2020-01-22 02:46:28.034 | ID 283 | TERIMA 22-Jan-2020 (02:46:28.702485)
2020-01-22 02:46:25.891 | 1 | 2020-01-22 02:46:28.106 | ID 287 | TERIMA 22-Jan-2020 (02:46:28.738834)
2020-01-22 02:46:26.027 | 1 | 2020-01-22 02:46:28.172 | ID 291 | TERIMA 22-Jan-2020 (02:46:28.772494)
2020-01-22 02:46:26.143 | 1 | 2020-01-22 02:46:28.257 | ID 295 | TERIMA 22-Jan-2020 (02:46:28.803853)
2020-01-22 02:46:26.263 | 1 | 2020-01-22 02:46:28.340 | ID 299 | TERIMA 22-Jan-2020 (02:46:29.039468)
2020-01-22 02:46:26.380 | 1 | 2020-01-22 02:46:28.419 | ID 303 | TERIMA 22-Jan-2020 (02:46:29.076880)
2020-01-22 02:46:26.507 | 1 | 2020-01-22 02:46:28.503 | ID 307 | TERIMA 22-Jan-2020 (02:46:29.114856)
2020-01-22 02:46:26.630 | 1 | 2020-01-22 02:46:28.590 | ID 311 | TERIMA 22-Jan-2020 (02:46:29.370475)
2020-01-22 02:46:26.751 | 1 | 2020-01-22 02:46:28.678 | ID 315 | TERIMA 22-Jan-2020 (02:46:29.408464)
2020-01-22 02:46:26.878 | 1 | 2020-01-22 02:46:28.759 | ID 319 | TERIMA 22-Jan-2020 (02:46:29.443872)
2020-01-22 02:46:27.001 | 1 | 2020-01-22 02:46:28.834 | ID 323 | TERIMA 22-Jan-2020 (02:46:29.482496)
2020-01-22 02:46:27.127 | 1 | 2020-01-22 02:46:28.905 | ID 327 | TERIMA 22-Jan-2020 (02:46:29.702474)
2020-01-22 02:46:27.252 | 1 | 2020-01-22 02:46:28.980 | ID 331 | TERIMA 22-Jan-2020 (02:46:29.741858)
2020-01-22 02:46:27.379 | 1 | 2020-01-22 02:46:29.050 | ID 335 | TERIMA 22-Jan-2020 (02:46:29.782845)
2020-01-22 02:46:27.499 | 1 | 2020-01-22 02:46:29.119 | ID 339 | TERIMA 22-Jan-2020 (02:46:29.825482)
2020-01-22 02:46:27.636 | 1 | 2020-01-22 02:46:29.184 | ID 343 | TERIMA 22-Jan-2020 (02:46:29.864482)
2020-01-22 02:46:27.758 | 1 | 2020-01-22 02:46:29.250 | ID 347 | TERIMA 22-Jan-2020 (02:46:29.902868)
2020-01-22 02:46:27.879 | 1 | 2020-01-22 02:46:29.311 | ID 351 | TERIMA 22-Jan-2020 (02:46:29.940467)
2020-01-22 02:46:28.001 | 1 | 2020-01-22 02:46:29.380 | ID 355 | TERIMA 22-Jan-2020 (02:46:30.037479)
2020-01-22 02:46:28.123 | 1 | 2020-01-22 02:46:29.814 | ID 359 | TERIMA 22-Jan-2020 (02:46:30.374534)
