D/DATA STEP: 2020-01-22 03:41:51.532 menerima data ID 1 waktu terima 2020-01-22 03:41:51.707
D/DATA STEP: 2020-01-22 03:41:51.714 menerima data ID 7 waktu terima 2020-01-22 03:41:51.817
D/DATA STEP: 2020-01-22 03:41:51.891 menerima data ID 11 waktu terima 2020-01-22 03:41:52.472
D/DATA STEP: 2020-01-22 03:41:52.070 menerima data ID 15 waktu terima 2020-01-22 03:41:52.927
D/DATA STEP: 2020-01-22 03:41:52.237 menerima data ID 19 waktu terima 2020-01-22 03:41:52.975
D/DATA STEP: 2020-01-22 03:41:52.447 menerima data ID 23 waktu terima 2020-01-22 03:41:53.465
D/DATA STEP: 2020-01-22 03:41:52.625 menerima data ID 27 waktu terima 2020-01-22 03:41:53.867
D/DATA STEP: 2020-01-22 03:41:52.834 menerima data ID 31 waktu terima 2020-01-22 03:41:53.972
D/DATA STEP: 2020-01-22 03:41:53.005 menerima data ID 35 waktu terima 2020-01-22 03:41:54.037
D/DATA STEP: 2020-01-22 03:41:53.185 menerima data ID 39 waktu terima 2020-01-22 03:41:54.099
D/DATA STEP: 2020-01-22 03:41:53.357 menerima data ID 43 waktu terima 2020-01-22 03:41:54.164
D/DATA STEP: 2020-01-22 03:41:53.526 menerima data ID 47 waktu terima 2020-01-22 03:41:54.228
D/DATA STEP: 2020-01-22 03:41:53.705 menerima data ID 51 waktu terima 2020-01-22 03:41:54.296
D/DATA STEP: 2020-01-22 03:41:53.870 menerima data ID 55 waktu terima 2020-01-22 03:41:54.367
D/DATA STEP: 2020-01-22 03:41:54.089 menerima data ID 59 waktu terima 2020-01-22 03:41:54.420
D/DATA STEP: 2020-01-22 03:41:54.274 menerima data ID 61 waktu terima 2020-01-22 03:41:54.471
D/DATA STEP: 2020-01-22 03:41:54.468 menerima data ID 67 waktu terima 2020-01-22 03:41:54.546
D/DATA STEP: 2020-01-22 03:41:54.645 menerima data ID 71 waktu terima 2020-01-22 03:41:54.793
D/DATA STEP: 2020-01-22 03:41:54.819 menerima data ID 75 waktu terima 2020-01-22 03:41:54.922
D/DATA STEP: 2020-01-22 03:41:55.001 menerima data ID 79 waktu terima 2020-01-22 03:41:55.080
D/DATA STEP: 2020-01-22 03:41:55.153 menerima data ID 83 waktu terima 2020-01-22 03:41:55.204
D/DATA STEP: 2020-01-22 03:41:55.291 menerima data ID 87 waktu terima 2020-01-22 03:41:55.405
D/DATA STEP: 2020-01-22 03:41:55.458 menerima data ID 91 waktu terima 2020-01-22 03:41:55.836
D/DATA STEP: 2020-01-22 03:41:55.613 menerima data ID 93 waktu terima 2020-01-22 03:41:56.235
D/DATA STEP: 2020-01-22 03:41:55.784 menerima data ID 99 waktu terima 2020-01-22 03:41:56.343
D/DATA STEP: 2020-01-22 03:41:55.937 menerima data ID 103 waktu terima 2020-01-22 03:41:56.403
D/DATA STEP: 2020-01-22 03:41:56.090 menerima data ID 107 waktu terima 2020-01-22 03:41:56.465
D/DATA STEP: 2020-01-22 03:41:56.236 menerima data ID 111 waktu terima 2020-01-22 03:41:56.532
D/DATA STEP: 2020-01-22 03:41:56.404 menerima data ID 113 waktu terima 2020-01-22 03:41:56.587
D/DATA STEP: 2020-01-22 03:41:56.579 menerima data ID 117 waktu terima 2020-01-22 03:41:56.666
D/DATA STEP: 2020-01-22 03:41:56.759 menerima data ID 121 waktu terima 2020-01-22 03:41:56.874
D/DATA STEP: 2020-01-22 03:41:56.924 menerima data ID 125 waktu terima 2020-01-22 03:41:57.011
D/DATA STEP: 2020-01-22 03:41:57.118 menerima data ID 131 waktu terima 2020-01-22 03:41:57.254
D/DATA STEP: 2020-01-22 03:41:57.304 menerima data ID 133 waktu terima 2020-01-22 03:41:57.444
D/DATA STEP: 2020-01-22 03:41:57.506 menerima data ID 139 waktu terima 2020-01-22 03:41:57.700
D/DATA STEP: 2020-01-22 03:41:57.653 menerima data ID 141 waktu terima 2020-01-22 03:41:58.185
D/DATA STEP: 2020-01-22 03:41:57.803 menerima data ID 145 waktu terima 2020-01-22 03:41:58.657
D/DATA STEP: 2020-01-22 03:41:57.962 menerima data ID 149 waktu terima 2020-01-22 03:41:58.727
D/DATA STEP: 2020-01-22 03:41:58.120 menerima data ID 153 waktu terima 2020-01-22 03:41:59.176
D/DATA STEP: 2020-01-22 03:41:58.285 menerima data ID 157 waktu terima 2020-01-22 03:41:59.595
D/DATA STEP: 2020-01-22 03:41:58.454 menerima data ID 161 waktu terima 2020-01-22 03:41:59.709
D/DATA STEP: 2020-01-22 03:41:58.622 menerima data ID 165 waktu terima 2020-01-22 03:42:00.157
D/DATA STEP: 2020-01-22 03:41:58.773 menerima data ID 169 waktu terima 2020-01-22 03:42:00.579
D/DATA STEP: 2020-01-22 03:41:58.928 menerima data ID 173 waktu terima 2020-01-22 03:42:00.667
D/DATA STEP: 2020-01-22 03:41:59.081 menerima data ID 177 waktu terima 2020-01-22 03:42:00.733
D/DATA STEP: 2020-01-22 03:41:59.251 menerima data ID 181 waktu terima 2020-01-22 03:42:00.799
D/DATA STEP: 2020-01-22 03:41:59.420 menerima data ID 185 waktu terima 2020-01-22 03:42:00.834
D/DATA STEP: 2020-01-22 03:41:59.563 menerima data ID 189 waktu terima 2020-01-22 03:42:00.897
D/DATA STEP: 2020-01-22 03:41:59.761 menerima data ID 193 waktu terima 2020-01-22 03:42:00.941
D/DATA STEP: 2020-01-22 03:41:59.900 menerima data ID 197 waktu terima 2020-01-22 03:42:00.994
D/DATA STEP: 2020-01-22 03:42:00.063 menerima data ID 201 waktu terima 2020-01-22 03:42:01.044
D/DATA STEP: 2020-01-22 03:42:00.239 menerima data ID 207 waktu terima 2020-01-22 03:42:01.123
D/DATA STEP: 2020-01-22 03:42:00.430 menerima data ID 211 waktu terima 2020-01-22 03:42:01.165
D/DATA STEP: 2020-01-22 03:42:00.593 menerima data ID 215 waktu terima 2020-01-22 03:42:01.214
D/DATA STEP: 2020-01-22 03:42:00.769 menerima data ID 219 waktu terima 2020-01-22 03:42:01.292
D/DATA STEP: 2020-01-22 03:42:00.928 menerima data ID 221 waktu terima 2020-01-22 03:42:01.602
D/DATA STEP: 2020-01-22 03:42:01.100 menerima data ID 225 waktu terima 2020-01-22 03:42:02.026
D/DATA STEP: 2020-01-22 03:42:01.264 menerima data ID 229 waktu terima 2020-01-22 03:42:02.123
D/DATA STEP: 2020-01-22 03:42:01.424 menerima data ID 233 waktu terima 2020-01-22 03:42:02.570
D/DATA STEP: 2020-01-22 03:42:01.583 menerima data ID 237 waktu terima 2020-01-22 03:42:02.978
D/DATA STEP: 2020-01-22 03:42:01.743 menerima data ID 241 waktu terima 2020-01-22 03:42:03.075
D/DATA STEP: 2020-01-22 03:42:01.903 menerima data ID 245 waktu terima 2020-01-22 03:42:03.488
D/DATA STEP: 2020-01-22 03:42:02.030 menerima data ID 249 waktu terima 2020-01-22 03:42:03.912
D/DATA STEP: 2020-01-22 03:42:02.193 menerima data ID 253 waktu terima 2020-01-22 03:42:04.007
D/DATA STEP: 2020-01-22 03:42:02.369 menerima data ID 259 waktu terima 2020-01-22 03:42:04.896
D/DATA STEP: 2020-01-22 03:42:02.514 menerima data ID 261 waktu terima 2020-01-22 03:42:04.962
D/DATA STEP: 2020-01-22 03:42:02.680 menerima data ID 267 waktu terima 2020-01-22 03:42:05.388
D/DATA STEP: 2020-01-22 03:42:02.806 menerima data ID 269 waktu terima 2020-01-22 03:42:05.486
D/DATA STEP: 2020-01-22 03:42:02.965 menerima data ID 273 waktu terima 2020-01-22 03:42:05.588
D/DATA STEP: 2020-01-22 03:42:03.147 menerima data ID 279 waktu terima 2020-01-22 03:42:05.666
D/DATA STEP: 2020-01-22 03:42:03.278 menerima data ID 281 waktu terima 2020-01-22 03:42:05.754
D/DATA STEP: 2020-01-22 03:42:03.458 menerima data ID 287 waktu terima 2020-01-22 03:42:05.813
D/DATA STEP: 2020-01-22 03:42:03.592 menerima data ID 291 waktu terima 2020-01-22 03:42:05.879
D/DATA STEP: 2020-01-22 03:42:03.733 menerima data ID 293 waktu terima 2020-01-22 03:42:05.930
D/DATA STEP: 2020-01-22 03:42:03.907 menerima data ID 299 waktu terima 2020-01-22 03:42:06.028
D/DATA STEP: 2020-01-22 03:42:04.043 menerima data ID 301 waktu terima 2020-01-22 03:42:06.104
D/DATA STEP: 2020-01-22 03:42:04.170 menerima data ID 307 waktu terima 2020-01-22 03:42:06.174
D/DATA STEP: 2020-01-22 03:42:04.330 menerima data ID 311 waktu terima 2020-01-22 03:42:06.283
D/DATA STEP: 2020-01-22 03:42:04.484 menerima data ID 315 waktu terima 2020-01-22 03:42:06.368
D/DATA STEP: 2020-01-22 03:42:04.614 menerima data ID 319 waktu terima 2020-01-22 03:42:06.455
D/DATA STEP: 2020-01-22 03:42:04.761 menerima data ID 323 waktu terima 2020-01-22 03:42:06.531
D/DATA STEP: 2020-01-22 03:42:04.892 menerima data ID 325 waktu terima 2020-01-22 03:42:06.595
D/DATA STEP: 2020-01-22 03:42:05.063 menerima data ID 329 waktu terima 2020-01-22 03:42:06.705
D/DATA STEP: 2020-01-22 03:42:05.231 menerima data ID 335 waktu terima 2020-01-22 03:42:06.791
D/DATA STEP: 2020-01-22 03:42:05.360 menerima data ID 339 waktu terima 2020-01-22 03:42:06.872
D/DATA STEP: 2020-01-22 03:42:05.507 menerima data ID 343 waktu terima 2020-01-22 03:42:06.948
D/DATA STEP: 2020-01-22 03:42:05.661 menerima data ID 347 waktu terima 2020-01-22 03:42:07.036
D/DATA STEP: 2020-01-22 03:42:05.797 menerima data ID 349 waktu terima 2020-01-22 03:42:07.106
D/DATA STEP: 2020-01-22 03:42:05.971 menerima data ID 355 waktu terima 2020-01-22 03:42:07.187
D/DATA STEP: 2020-01-22 03:42:06.124 menerima data ID 357 waktu terima 2020-01-22 03:42:07.269
