D/DATA STEP: 2020-01-22 03:41:51.549 mengirimkan data ID 1
D/DATA STEP: 2020-01-22 03:41:51.737 mengirimkan data ID 7
D/DATA STEP: 2020-01-22 03:41:51.921 mengirimkan data ID 11
D/DATA STEP: 2020-01-22 03:41:52.081 mengirimkan data ID 15
D/DATA STEP: 2020-01-22 03:41:52.259 mengirimkan data ID 19
D/DATA STEP: 2020-01-22 03:41:52.464 mengirimkan data ID 23
D/DATA STEP: 2020-01-22 03:41:52.653 mengirimkan data ID 27
D/DATA STEP: 2020-01-22 03:41:52.852 mengirimkan data ID 31
D/DATA STEP: 2020-01-22 03:41:53.027 mengirimkan data ID 35
D/DATA STEP: 2020-01-22 03:41:53.199 mengirimkan data ID 39
D/DATA STEP: 2020-01-22 03:41:53.369 mengirimkan data ID 43
D/DATA STEP: 2020-01-22 03:41:53.560 mengirimkan data ID 47
D/DATA STEP: 2020-01-22 03:41:53.737 mengirimkan data ID 51
D/DATA STEP: 2020-01-22 03:41:53.938 mengirimkan data ID 55
D/DATA STEP: 2020-01-22 03:41:54.110 mengirimkan data ID 59
D/DATA STEP: 2020-01-22 03:41:54.296 mengirimkan data ID 61
D/DATA STEP: 2020-01-22 03:41:54.497 mengirimkan data ID 67
D/DATA STEP: 2020-01-22 03:41:54.655 mengirimkan data ID 71
D/DATA STEP: 2020-01-22 03:41:54.849 mengirimkan data ID 75
D/DATA STEP: 2020-01-22 03:41:55.011 mengirimkan data ID 79
D/DATA STEP: 2020-01-22 03:41:55.163 mengirimkan data ID 83
D/DATA STEP: 2020-01-22 03:41:55.301 mengirimkan data ID 87
D/DATA STEP: 2020-01-22 03:41:55.468 mengirimkan data ID 91
D/DATA STEP: 2020-01-22 03:41:55.637 mengirimkan data ID 93
D/DATA STEP: 2020-01-22 03:41:55.805 mengirimkan data ID 99
D/DATA STEP: 2020-01-22 03:41:55.958 mengirimkan data ID 103
D/DATA STEP: 2020-01-22 03:41:56.108 mengirimkan data ID 107
D/DATA STEP: 2020-01-22 03:41:56.266 mengirimkan data ID 111
D/DATA STEP: 2020-01-22 03:41:56.438 mengirimkan data ID 113
D/DATA STEP: 2020-01-22 03:41:56.617 mengirimkan data ID 117
D/DATA STEP: 2020-01-22 03:41:56.780 mengirimkan data ID 121
D/DATA STEP: 2020-01-22 03:41:56.970 mengirimkan data ID 125
D/DATA STEP: 2020-01-22 03:41:57.158 mengirimkan data ID 131
D/DATA STEP: 2020-01-22 03:41:57.312 mengirimkan data ID 133
D/DATA STEP: 2020-01-22 03:41:57.515 mengirimkan data ID 139
D/DATA STEP: 2020-01-22 03:41:57.668 mengirimkan data ID 141
D/DATA STEP: 2020-01-22 03:41:57.821 mengirimkan data ID 145
D/DATA STEP: 2020-01-22 03:41:57.970 mengirimkan data ID 149
D/DATA STEP: 2020-01-22 03:41:58.138 mengirimkan data ID 153
D/DATA STEP: 2020-01-22 03:41:58.309 mengirimkan data ID 157
D/DATA STEP: 2020-01-22 03:41:58.494 mengirimkan data ID 161
D/DATA STEP: 2020-01-22 03:41:58.640 mengirimkan data ID 165
D/DATA STEP: 2020-01-22 03:41:58.797 mengirimkan data ID 169
D/DATA STEP: 2020-01-22 03:41:58.946 mengirimkan data ID 173
D/DATA STEP: 2020-01-22 03:41:59.123 mengirimkan data ID 177
D/DATA STEP: 2020-01-22 03:41:59.258 mengirimkan data ID 181
D/DATA STEP: 2020-01-22 03:41:59.434 mengirimkan data ID 185
D/DATA STEP: 2020-01-22 03:41:59.610 mengirimkan data ID 189
D/DATA STEP: 2020-01-22 03:41:59.768 mengirimkan data ID 193
D/DATA STEP: 2020-01-22 03:41:59.928 mengirimkan data ID 197
D/DATA STEP: 2020-01-22 03:42:00.076 mengirimkan data ID 201
D/DATA STEP: 2020-01-22 03:42:00.267 mengirimkan data ID 207
D/DATA STEP: 2020-01-22 03:42:00.443 mengirimkan data ID 211
D/DATA STEP: 2020-01-22 03:42:00.624 mengirimkan data ID 215
D/DATA STEP: 2020-01-22 03:42:00.796 mengirimkan data ID 219
D/DATA STEP: 2020-01-22 03:42:00.966 mengirimkan data ID 221
D/DATA STEP: 2020-01-22 03:42:01.137 mengirimkan data ID 225
D/DATA STEP: 2020-01-22 03:42:01.270 mengirimkan data ID 229
D/DATA STEP: 2020-01-22 03:42:01.430 mengirimkan data ID 233
D/DATA STEP: 2020-01-22 03:42:01.589 mengirimkan data ID 237
D/DATA STEP: 2020-01-22 03:42:01.749 mengirimkan data ID 241
D/DATA STEP: 2020-01-22 03:42:01.908 mengirimkan data ID 245
D/DATA STEP: 2020-01-22 03:42:02.044 mengirimkan data ID 249
D/DATA STEP: 2020-01-22 03:42:02.199 mengirimkan data ID 253
D/DATA STEP: 2020-01-22 03:42:02.376 mengirimkan data ID 259
D/DATA STEP: 2020-01-22 03:42:02.520 mengirimkan data ID 261
D/DATA STEP: 2020-01-22 03:42:02.689 mengirimkan data ID 267
D/DATA STEP: 2020-01-22 03:42:02.838 mengirimkan data ID 269
D/DATA STEP: 2020-01-22 03:42:02.971 mengirimkan data ID 273
D/DATA STEP: 2020-01-22 03:42:03.158 mengirimkan data ID 279
D/DATA STEP: 2020-01-22 03:42:03.305 mengirimkan data ID 281
D/DATA STEP: 2020-01-22 03:42:03.467 mengirimkan data ID 287
D/DATA STEP: 2020-01-22 03:42:03.597 mengirimkan data ID 291
D/DATA STEP: 2020-01-22 03:42:03.738 mengirimkan data ID 293
D/DATA STEP: 2020-01-22 03:42:03.921 mengirimkan data ID 299
D/DATA STEP: 2020-01-22 03:42:04.048 mengirimkan data ID 301
D/DATA STEP: 2020-01-22 03:42:04.190 mengirimkan data ID 307
D/DATA STEP: 2020-01-22 03:42:04.348 mengirimkan data ID 311
D/DATA STEP: 2020-01-22 03:42:04.492 mengirimkan data ID 315
D/DATA STEP: 2020-01-22 03:42:04.619 mengirimkan data ID 319
D/DATA STEP: 2020-01-22 03:42:04.767 mengirimkan data ID 323
D/DATA STEP: 2020-01-22 03:42:04.910 mengirimkan data ID 325
D/DATA STEP: 2020-01-22 03:42:05.068 mengirimkan data ID 329
D/DATA STEP: 2020-01-22 03:42:05.236 mengirimkan data ID 335
D/DATA STEP: 2020-01-22 03:42:05.376 mengirimkan data ID 339
D/DATA STEP: 2020-01-22 03:42:05.512 mengirimkan data ID 343
D/DATA STEP: 2020-01-22 03:42:05.666 mengirimkan data ID 347
D/DATA STEP: 2020-01-22 03:42:05.823 mengirimkan data ID 349
D/DATA STEP: 2020-01-22 03:42:05.992 mengirimkan data ID 355
D/DATA STEP: 2020-01-22 03:42:06.129 mengirimkan data ID 357
