2020-01-23 06:18:13.656 | 83.0 | 2020-01-23 06:18:13.719 | ID 54 | TERIMA 23-Jan-2020 (06:18:14.143312)
2020-01-23 06:18:14.622 | 82.0 | 2020-01-23 06:18:15.974 | ID 81 | TERIMA 23-Jan-2020 (06:18:16.417305)
2020-01-23 06:18:18.481 | 82.0 | 2020-01-23 06:18:19.793 | ID 182 | TERIMA 23-Jan-2020 (06:18:20.191541)
2020-01-23 06:18:19.446 | 81.0 | 2020-01-23 06:18:20.203 | ID 209 | TERIMA 23-Jan-2020 (06:18:20.590188)
2020-01-23 06:18:21.855 | 80.0 | 2020-01-23 06:18:23.718 | ID 272 | TERIMA 23-Jan-2020 (06:18:24.440193)
2020-01-23 06:18:23.301 | 78.0 | 2020-01-23 06:18:24.745 | ID 311 | TERIMA 23-Jan-2020 (06:18:25.182244)
2020-01-23 06:18:24.266 | 79.0 | 2020-01-23 06:18:25.239 | ID 338 | TERIMA 23-Jan-2020 (06:18:25.663144)
2020-01-23 06:18:28.117 | 80.0 | 2020-01-23 06:18:28.969 | ID 439 | TERIMA 23-Jan-2020 (06:18:29.346455)
2020-01-23 06:18:29.082 | 81.0 | 2020-01-23 06:18:30.956 | ID 466 | TERIMA 23-Jan-2020 (06:18:31.659397)
2020-01-23 06:18:31.010 | 81.0 | 2020-01-23 06:18:32.072 | ID 517 | TERIMA 23-Jan-2020 (06:18:32.459395)
2020-01-23 06:18:31.974 | 81.0 | 2020-01-23 06:18:32.807 | ID 542 | TERIMA 23-Jan-2020 (06:18:33.174782)
2020-01-23 06:18:33.905 | 81.0 | 2020-01-23 06:18:37.093 | ID 595 | TERIMA 23-Jan-2020 (06:18:37.527052)
2020-01-23 06:18:34.384 | 81.0 | 2020-01-23 06:18:38.070 | ID 608 | TERIMA 23-Jan-2020 (06:18:38.483083)
2020-01-23 06:18:35.829 | 81.0 | 2020-01-23 06:18:39.851 | ID 647 | TERIMA 23-Jan-2020 (06:18:40.818683)
2020-01-23 06:18:39.685 | 83.0 | 2020-01-23 06:18:41.168 | ID 748 | TERIMA 23-Jan-2020 (06:18:41.610052)
2020-01-23 06:18:40.648 | 85.0 | 2020-01-23 06:18:41.489 | ID 775 | TERIMA 23-Jan-2020 (06:18:41.931668)
2020-01-23 06:18:42.575 | 87.0 | 2020-01-23 06:18:43.796 | ID 826 | TERIMA 23-Jan-2020 (06:18:44.224721)
2020-01-23 06:18:45.946 | 88.0 | 2020-01-23 06:18:46.155 | ID 915 | TERIMA 23-Jan-2020 (06:18:46.678668)
2020-01-23 06:18:47.392 | 89.0 | 2020-01-23 06:18:48.668 | ID 954 | TERIMA 23-Jan-2020 (06:18:49.382969)
2020-01-23 06:18:53.172 | 88.0 | 2020-01-23 06:18:53.320 | ID 1105 | TERIMA 23-Jan-2020 (06:18:53.728318)
2020-01-23 06:18:55.099 | 87.0 | 2020-01-23 06:18:55.146 | ID 1156 | TERIMA 23-Jan-2020 (06:18:55.539293)
2020-01-23 06:18:57.026 | 86.0 | 2020-01-23 06:18:58.676 | ID 1207 | TERIMA 23-Jan-2020 (06:18:59.245255)
2020-01-23 06:19:02.805 | 87.0 | 2020-01-23 06:19:03.768 | ID 1360 | TERIMA 23-Jan-2020 (06:19:04.127587)
2020-01-23 06:19:03.769 | 86.0 | 2020-01-23 06:19:04.048 | ID 1385 | TERIMA 23-Jan-2020 (06:19:04.548207)
2020-01-23 06:19:06.656 | 85.0 | 2020-01-23 06:19:08.862 | ID 1462 | TERIMA 23-Jan-2020 (06:19:09.226463)
2020-01-23 06:19:08.584 | 85.0 | 2020-01-23 06:19:09.385 | ID 1513 | TERIMA 23-Jan-2020 (06:19:09.786452)
2020-01-23 06:19:10.511 | 84.0 | 2020-01-23 06:19:11.159 | ID 1564 | TERIMA 23-Jan-2020 (06:19:11.577828)
2020-01-23 06:19:10.992 | 83.0 | 2020-01-23 06:19:12.170 | ID 1579 | TERIMA 23-Jan-2020 (06:19:12.878447)
2020-01-23 06:19:12.426 | 82.0 | 2020-01-23 06:19:15.477 | ID 1618 | TERIMA 23-Jan-2020 (06:19:15.879479)
2020-01-23 06:19:14.360 | 80.0 | 2020-01-23 06:19:16.008 | ID 1669 | TERIMA 23-Jan-2020 (06:19:16.366798)
2020-01-23 06:19:15.323 | 79.0 | 2020-01-23 06:19:16.302 | ID 1694 | TERIMA 23-Jan-2020 (06:19:16.778709)
2020-01-23 06:19:16.285 | 77.0 | 2020-01-23 06:19:16.625 | ID 1721 | TERIMA 23-Jan-2020 (06:19:17.134740)
2020-01-23 06:19:18.204 | 78.0 | 2020-01-23 06:19:20.296 | ID 1772 | TERIMA 23-Jan-2020 (06:19:20.699117)
2020-01-23 06:19:20.142 | 77.0 | 2020-01-23 06:19:20.900 | ID 1823 | TERIMA 23-Jan-2020 (06:19:21.261054)
2020-01-23 06:19:22.068 | 76.0 | 2020-01-23 06:19:22.718 | ID 1874 | TERIMA 23-Jan-2020 (06:19:23.093696)
2020-01-23 06:19:23.031 | 75.0 | 2020-01-23 06:19:23.087 | ID 1901 | TERIMA 23-Jan-2020 (06:19:23.618120)
2020-01-23 06:19:28.809 | 76.0 | 2020-01-23 06:19:28.862 | ID 2052 | TERIMA 23-Jan-2020 (06:19:29.561348)
2020-01-23 06:19:32.653 | 77.0 | 2020-01-23 06:19:33.769 | ID 2155 | TERIMA 23-Jan-2020 (06:19:34.285945)
2020-01-23 06:19:34.096 | 78.0 | 2020-01-23 06:19:35.156 | ID 2192 | TERIMA 23-Jan-2020 (06:19:35.567969)
2020-01-23 06:19:40.364 | 77.0 | 2020-01-23 06:19:46.260 | ID 2357 | TERIMA 23-Jan-2020 (06:19:46.597574)
2020-01-23 06:19:41.327 | 76.0 | 2020-01-23 06:19:48.629 | ID 2384 | TERIMA 23-Jan-2020 (06:19:49.015478)
2020-01-23 06:19:46.147 | 75.0 | 2020-01-23 06:19:52.056 | ID 2511 | TERIMA 23-Jan-2020 (06:19:52.422851)
2020-01-23 06:19:46.628 | 76.0 | 2020-01-23 06:19:52.183 | ID 2524 | TERIMA 23-Jan-2020 (06:19:52.749494)
2020-01-23 06:20:01.561 | 77.0 | 2020-01-23 06:20:01.620 | ID 2915 | TERIMA 23-Jan-2020 (06:20:01.990157)
2020-01-23 06:20:08.302 | 78.0 | 2020-01-23 06:20:10.258 | ID 3092 | TERIMA 23-Jan-2020 (06:20:10.667982)
2020-01-23 06:20:12.153 | 77.0 | 2020-01-23 06:20:12.290 | ID 3193 | TERIMA 23-Jan-2020 (06:20:12.838975)
2020-01-23 06:20:17.930 | 78.0 | 2020-01-23 06:20:19.404 | ID 3344 | TERIMA 23-Jan-2020 (06:20:19.761618)
2020-01-23 06:20:18.893 | 79.0 | 2020-01-23 06:20:19.672 | ID 3371 | TERIMA 23-Jan-2020 (06:20:20.164208)
2020-01-23 06:20:20.822 | 80.0 | 2020-01-23 06:20:21.240 | ID 3422 | TERIMA 23-Jan-2020 (06:20:21.611591)
2020-01-23 06:20:23.231 | 81.0 | 2020-01-23 06:20:25.732 | ID 3487 | TERIMA 23-Jan-2020 (06:20:26.141241)
2020-01-23 06:20:25.638 | 82.0 | 2020-01-23 06:20:26.392 | ID 3550 | TERIMA 23-Jan-2020 (06:20:26.786849)
2020-01-23 06:20:26.601 | 83.0 | 2020-01-23 06:20:27.143 | ID 3577 | TERIMA 23-Jan-2020 (06:20:27.485514)
2020-01-23 06:20:30.452 | 84.0 | 2020-01-23 06:20:30.886 | ID 3678 | TERIMA 23-Jan-2020 (06:20:31.295500)
2020-01-23 06:20:32.383 | 86.0 | 2020-01-23 06:20:32.456 | ID 3729 | TERIMA 23-Jan-2020 (06:20:32.834876)
2020-01-23 06:20:33.346 | 87.0 | 2020-01-23 06:20:34.236 | ID 3756 | TERIMA 23-Jan-2020 (06:20:34.561873)
2020-01-23 06:20:35.269 | 88.0 | 2020-01-23 06:20:36.450 | ID 3807 | TERIMA 23-Jan-2020 (06:20:36.859740)
2020-01-23 06:20:36.231 | 90.0 | 2020-01-23 06:20:36.715 | ID 3832 | TERIMA 23-Jan-2020 (06:20:37.194751)
2020-01-23 06:20:37.194 | 92.0 | 2020-01-23 06:20:37.255 | ID 3859 | TERIMA 23-Jan-2020 (06:20:37.634122)
2020-01-23 06:20:38.159 | 94.0 | 2020-01-23 06:20:39.085 | ID 3886 | TERIMA 23-Jan-2020 (06:20:39.442130)
2020-01-23 06:20:41.037 | 95.0 | 2020-01-23 06:20:43.373 | ID 3961 | TERIMA 23-Jan-2020 (06:20:43.729750)
2020-01-23 06:20:42.008 | 97.0 | 2020-01-23 06:20:44.474 | ID 3988 | TERIMA 23-Jan-2020 (06:20:44.869748)
2020-01-23 06:20:48.748 | 96.0 | 2020-01-23 06:20:52.628 | ID 4165 | TERIMA 23-Jan-2020 (06:20:52.987003)
2020-01-23 06:20:58.380 | 95.0 | 2020-01-23 06:20:58.433 | ID 4416 | TERIMA 23-Jan-2020 (06:20:58.794281)
2020-01-23 06:21:00.305 | 94.0 | 2020-01-23 06:21:00.381 | ID 4469 | TERIMA 23-Jan-2020 (06:21:00.774323)
2020-01-23 06:21:02.230 | 93.0 | 2020-01-23 06:21:04.031 | ID 4520 | TERIMA 23-Jan-2020 (06:21:04.360161)
2020-01-23 06:21:04.148 | 92.0 | 2020-01-23 06:21:04.961 | ID 4571 | TERIMA 23-Jan-2020 (06:21:05.393187)
2020-01-23 06:21:05.111 | 90.0 | 2020-01-23 06:21:05.223 | ID 4596 | TERIMA 23-Jan-2020 (06:21:05.816177)
2020-01-23 06:21:06.080 | 89.0 | 2020-01-23 06:21:06.440 | ID 4623 | TERIMA 23-Jan-2020 (06:21:06.816782)
2020-01-23 06:21:07.043 | 87.0 | 2020-01-23 06:21:08.313 | ID 4650 | TERIMA 23-Jan-2020 (06:21:08.682816)
2020-01-23 06:21:08.003 | 86.0 | 2020-01-23 06:21:09.013 | ID 4675 | TERIMA 23-Jan-2020 (06:21:09.382428)
2020-01-23 06:21:10.892 | 85.0 | 2020-01-23 06:21:11.641 | ID 4752 | TERIMA 23-Jan-2020 (06:21:12.030415)
2020-01-23 06:21:11.855 | 84.0 | 2020-01-23 06:21:13.583 | ID 4777 | TERIMA 23-Jan-2020 (06:21:13.988793)
2020-01-23 06:21:12.817 | 83.0 | 2020-01-23 06:21:15.539 | ID 4804 | TERIMA 23-Jan-2020 (06:21:15.874922)
2020-01-23 06:21:15.704 | 82.0 | 2020-01-23 06:21:20.935 | ID 4881 | TERIMA 23-Jan-2020 (06:21:21.314737)
2020-01-23 06:21:21.483 | 83.0 | 2020-01-23 06:21:22.480 | ID 5032 | TERIMA 23-Jan-2020 (06:21:22.821153)
2020-01-23 06:21:21.964 | 84.0 | 2020-01-23 06:21:22.579 | ID 5045 | TERIMA 23-Jan-2020 (06:21:23.229777)
2020-01-23 06:21:23.407 | 85.0 | 2020-01-23 06:21:25.146 | ID 5084 | TERIMA 23-Jan-2020 (06:21:25.487101)
2020-01-23 06:21:25.331 | 86.0 | 2020-01-23 06:21:28.631 | ID 5135 | TERIMA 23-Jan-2020 (06:21:28.986390)
2020-01-23 06:21:27.255 | 87.0 | 2020-01-23 06:21:29.195 | ID 5186 | TERIMA 23-Jan-2020 (06:21:29.560044)
2020-01-23 06:21:29.183 | 89.0 | 2020-01-23 06:21:29.935 | ID 5239 | TERIMA 23-Jan-2020 (06:21:30.372437)
2020-01-23 06:21:30.144 | 90.0 | 2020-01-23 06:21:31.873 | ID 5264 | TERIMA 23-Jan-2020 (06:21:32.556394)
2020-01-23 06:21:31.106 | 89.0 | 2020-01-23 06:21:34.229 | ID 5291 | TERIMA 23-Jan-2020 (06:21:34.603375)
2020-01-23 06:21:33.030 | 90.0 | 2020-01-23 06:21:36.056 | ID 5342 | TERIMA 23-Jan-2020 (06:21:36.457037)
2020-01-23 06:21:33.991 | 89.0 | 2020-01-23 06:21:36.315 | ID 5367 | TERIMA 23-Jan-2020 (06:21:36.781623)
2020-01-23 06:21:36.876 | 91.0 | 2020-01-23 06:21:38.098 | ID 5444 | TERIMA 23-Jan-2020 (06:21:38.811284)
2020-01-23 06:21:41.680 | 90.0 | 2020-01-23 06:21:47.392 | ID 5571 | TERIMA 23-Jan-2020 (06:21:47.767899)
2020-01-23 06:21:45.047 | 88.0 | 2020-01-23 06:21:48.289 | ID 5660 | TERIMA 23-Jan-2020 (06:21:48.648890)
2020-01-23 06:21:48.412 | 87.0 | 2020-01-23 06:21:49.223 | ID 5749 | TERIMA 23-Jan-2020 (06:21:49.575942)
2020-01-23 06:21:52.256 | 86.0 | 2020-01-23 06:21:52.544 | ID 5850 | TERIMA 23-Jan-2020 (06:21:52.950499)
2020-01-23 06:21:53.215 | 87.0 | 2020-01-23 06:21:53.456 | ID 5875 | TERIMA 23-Jan-2020 (06:21:54.168540)
2020-01-23 06:21:54.177 | 86.0 | 2020-01-23 06:21:55.820 | ID 5902 | TERIMA 23-Jan-2020 (06:21:56.197531)
2020-01-23 06:21:56.100 | 84.0 | 2020-01-23 06:21:57.182 | ID 5953 | TERIMA 23-Jan-2020 (06:21:57.531189)
2020-01-23 06:21:58.025 | 83.0 | 2020-01-23 06:21:58.072 | ID 6004 | TERIMA 23-Jan-2020 (06:21:58.558184)
2020-01-23 06:21:58.987 | 82.0 | 2020-01-23 06:22:00.621 | ID 6031 | TERIMA 23-Jan-2020 (06:22:00.997189)
2020-01-23 06:21:59.948 | 80.0 | 2020-01-23 06:22:01.798 | ID 6056 | TERIMA 23-Jan-2020 (06:22:02.236171)
2020-01-23 06:22:01.870 | 78.0 | 2020-01-23 06:22:02.334 | ID 6107 | TERIMA 23-Jan-2020 (06:22:02.736143)
2020-01-23 06:22:02.832 | 76.0 | 2020-01-23 06:22:02.905 | ID 6134 | TERIMA 23-Jan-2020 (06:22:03.325152)
2020-01-23 06:22:03.794 | 74.0 | 2020-01-23 06:22:04.096 | ID 6159 | TERIMA 23-Jan-2020 (06:22:04.452800)
2020-01-23 06:22:05.717 | 75.0 | 2020-01-23 06:22:06.588 | ID 6210 | TERIMA 23-Jan-2020 (06:22:06.941036)
2020-01-23 06:22:11.490 | 76.0 | 2020-01-23 06:22:15.203 | ID 6363 | TERIMA 23-Jan-2020 (06:22:15.660036)
2020-01-23 06:22:16.292 | 77.0 | 2020-01-23 06:22:17.448 | ID 6488 | TERIMA 23-Jan-2020 (06:22:18.140689)
2020-01-23 06:22:19.654 | 75.0 | 2020-01-23 06:22:20.413 | ID 6577 | TERIMA 23-Jan-2020 (06:22:20.975751)
2020-01-23 06:22:21.093 | 76.0 | 2020-01-23 06:22:21.145 | ID 6616 | TERIMA 23-Jan-2020 (06:22:21.500313)
2020-01-23 06:22:22.054 | 74.0 | 2020-01-23 06:22:22.297 | ID 6643 | TERIMA 23-Jan-2020 (06:22:22.662652)
2020-01-23 06:22:24.936 | 75.0 | 2020-01-23 06:22:26.154 | ID 6718 | TERIMA 23-Jan-2020 (06:22:26.529315)
2020-01-23 06:22:28.780 | 76.0 | 2020-01-23 06:22:29.397 | ID 6819 | TERIMA 23-Jan-2020 (06:22:29.977924)
2020-01-23 06:22:30.702 | 77.0 | 2020-01-23 06:22:31.832 | ID 6872 | TERIMA 23-Jan-2020 (06:22:32.189910)
2020-01-23 06:22:33.585 | 78.0 | 2020-01-23 06:22:34.234 | ID 6947 | TERIMA 23-Jan-2020 (06:22:34.622934)
2020-01-23 06:22:36.460 | 79.0 | 2020-01-23 06:22:37.197 | ID 7024 | TERIMA 23-Jan-2020 (06:22:37.564214)
2020-01-23 06:22:39.349 | 78.0 | 2020-01-23 06:22:39.431 | ID 7099 | TERIMA 23-Jan-2020 (06:22:39.754188)
2020-01-23 06:22:40.309 | 79.0 | 2020-01-23 06:22:40.366 | ID 7126 | TERIMA 23-Jan-2020 (06:22:40.702797)
2020-01-23 06:22:42.232 | 81.0 | 2020-01-23 06:22:43.584 | ID 7177 | TERIMA 23-Jan-2020 (06:22:43.955828)
2020-01-23 06:22:42.712 | 82.0 | 2020-01-23 06:22:43.721 | ID 7190 | TERIMA 23-Jan-2020 (06:22:44.286172)
2020-01-23 06:22:44.154 | 79.0 | 2020-01-23 06:22:45.719 | ID 7229 | TERIMA 23-Jan-2020 (06:22:46.145781)
2020-01-23 06:22:47.996 | 80.0 | 2020-01-23 06:22:48.635 | ID 7330 | TERIMA 23-Jan-2020 (06:22:49.027042)
2020-01-23 06:22:48.957 | 81.0 | 2020-01-23 06:22:50.585 | ID 7357 | TERIMA 23-Jan-2020 (06:22:50.932051)
2020-01-23 06:22:51.841 | 82.0 | 2020-01-23 06:22:53.003 | ID 7432 | TERIMA 23-Jan-2020 (06:22:53.367039)
2020-01-23 06:22:53.763 | 83.0 | 2020-01-23 06:22:54.100 | ID 7485 | TERIMA 23-Jan-2020 (06:22:54.647140)
2020-01-23 06:22:54.243 | 85.0 | 2020-01-23 06:22:54.871 | ID 7498 | TERIMA 23-Jan-2020 (06:22:55.260048)
2020-01-23 06:22:56.645 | 87.0 | 2020-01-23 06:22:59.712 | ID 7561 | TERIMA 23-Jan-2020 (06:23:00.045682)
2020-01-23 06:22:57.605 | 88.0 | 2020-01-23 06:23:01.262 | ID 7588 | TERIMA 23-Jan-2020 (06:23:01.607307)
2020-01-23 06:22:59.522 | 89.0 | 2020-01-23 06:23:01.781 | ID 7639 | TERIMA 23-Jan-2020 (06:23:02.150702)
2020-01-23 06:23:01.442 | 90.0 | 2020-01-23 06:23:02.307 | ID 7690 | TERIMA 23-Jan-2020 (06:23:02.744310)
2020-01-23 06:23:04.803 | 88.0 | 2020-01-23 06:23:08.797 | ID 7779 | TERIMA 23-Jan-2020 (06:23:09.171037)
2020-01-23 06:23:06.243 | 87.0 | 2020-01-23 06:23:11.681 | ID 7816 | TERIMA 23-Jan-2020 (06:23:12.108566)
2020-01-23 06:23:07.203 | 86.0 | 2020-01-23 06:23:12.358 | ID 7843 | TERIMA 23-Jan-2020 (06:23:12.740938)
2020-01-23 06:23:09.125 | 85.0 | 2020-01-23 06:23:12.900 | ID 7894 | TERIMA 23-Jan-2020 (06:23:13.337928)
2020-01-23 06:23:11.046 | 83.0 | 2020-01-23 06:23:13.436 | ID 7945 | TERIMA 23-Jan-2020 (06:23:13.774661)
