D/DATA VITAL: 2020-01-23 06:18:13.656 menerima data ID 54 waktu terima 2020-01-23 06:18:13.716
D/DATA VITAL: 2020-01-23 06:18:14.622 menerima data ID 81 waktu terima 2020-01-23 06:18:15.969
D/DATA VITAL: 2020-01-23 06:18:18.481 menerima data ID 182 waktu terima 2020-01-23 06:18:19.793
D/DATA VITAL: 2020-01-23 06:18:19.446 menerima data ID 209 waktu terima 2020-01-23 06:18:20.203
D/DATA VITAL: 2020-01-23 06:18:21.855 menerima data ID 272 waktu terima 2020-01-23 06:18:23.716
D/DATA VITAL: 2020-01-23 06:18:23.301 menerima data ID 311 waktu terima 2020-01-23 06:18:24.744
D/DATA VITAL: 2020-01-23 06:18:24.266 menerima data ID 338 waktu terima 2020-01-23 06:18:25.238
D/DATA VITAL: 2020-01-23 06:18:28.117 menerima data ID 439 waktu terima 2020-01-23 06:18:28.969
D/DATA VITAL: 2020-01-23 06:18:29.082 menerima data ID 466 waktu terima 2020-01-23 06:18:30.955
D/DATA VITAL: 2020-01-23 06:18:31.010 menerima data ID 517 waktu terima 2020-01-23 06:18:32.071
D/DATA VITAL: 2020-01-23 06:18:31.974 menerima data ID 542 waktu terima 2020-01-23 06:18:32.806
D/DATA VITAL: 2020-01-23 06:18:33.905 menerima data ID 595 waktu terima 2020-01-23 06:18:37.092
D/DATA VITAL: 2020-01-23 06:18:34.384 menerima data ID 608 waktu terima 2020-01-23 06:18:38.070
D/DATA VITAL: 2020-01-23 06:18:35.829 menerima data ID 647 waktu terima 2020-01-23 06:18:39.851
D/DATA VITAL: 2020-01-23 06:18:39.685 menerima data ID 748 waktu terima 2020-01-23 06:18:41.168
D/DATA VITAL: 2020-01-23 06:18:40.648 menerima data ID 775 waktu terima 2020-01-23 06:18:41.489
D/DATA VITAL: 2020-01-23 06:18:42.575 menerima data ID 826 waktu terima 2020-01-23 06:18:43.795
D/DATA VITAL: 2020-01-23 06:18:45.946 menerima data ID 915 waktu terima 2020-01-23 06:18:46.154
D/DATA VITAL: 2020-01-23 06:18:47.392 menerima data ID 954 waktu terima 2020-01-23 06:18:48.668
D/DATA VITAL: 2020-01-23 06:18:53.172 menerima data ID 1105 waktu terima 2020-01-23 06:18:53.319
D/DATA VITAL: 2020-01-23 06:18:55.099 menerima data ID 1156 waktu terima 2020-01-23 06:18:55.146
D/DATA VITAL: 2020-01-23 06:18:57.026 menerima data ID 1207 waktu terima 2020-01-23 06:18:58.676
D/DATA VITAL: 2020-01-23 06:19:02.805 menerima data ID 1360 waktu terima 2020-01-23 06:19:03.767
D/DATA VITAL: 2020-01-23 06:19:03.769 menerima data ID 1385 waktu terima 2020-01-23 06:19:04.048
D/DATA VITAL: 2020-01-23 06:19:06.656 menerima data ID 1462 waktu terima 2020-01-23 06:19:08.862
D/DATA VITAL: 2020-01-23 06:19:08.584 menerima data ID 1513 waktu terima 2020-01-23 06:19:09.384
D/DATA VITAL: 2020-01-23 06:19:10.511 menerima data ID 1564 waktu terima 2020-01-23 06:19:11.159
D/DATA VITAL: 2020-01-23 06:19:10.992 menerima data ID 1579 waktu terima 2020-01-23 06:19:12.170
D/DATA VITAL: 2020-01-23 06:19:12.426 menerima data ID 1618 waktu terima 2020-01-23 06:19:15.476
D/DATA VITAL: 2020-01-23 06:19:14.360 menerima data ID 1669 waktu terima 2020-01-23 06:19:16.008
D/DATA VITAL: 2020-01-23 06:19:15.323 menerima data ID 1694 waktu terima 2020-01-23 06:19:16.302
D/DATA VITAL: 2020-01-23 06:19:16.285 menerima data ID 1721 waktu terima 2020-01-23 06:19:16.625
D/DATA VITAL: 2020-01-23 06:19:18.204 menerima data ID 1772 waktu terima 2020-01-23 06:19:20.295
D/DATA VITAL: 2020-01-23 06:19:20.142 menerima data ID 1823 waktu terima 2020-01-23 06:19:20.899
D/DATA VITAL: 2020-01-23 06:19:22.068 menerima data ID 1874 waktu terima 2020-01-23 06:19:22.717
D/DATA VITAL: 2020-01-23 06:19:23.031 menerima data ID 1901 waktu terima 2020-01-23 06:19:23.086
D/DATA VITAL: 2020-01-23 06:19:28.809 menerima data ID 2052 waktu terima 2020-01-23 06:19:28.862
D/DATA VITAL: 2020-01-23 06:19:32.653 menerima data ID 2155 waktu terima 2020-01-23 06:19:33.769
D/DATA VITAL: 2020-01-23 06:19:34.096 menerima data ID 2192 waktu terima 2020-01-23 06:19:35.155
D/DATA VITAL: 2020-01-23 06:19:40.364 menerima data ID 2357 waktu terima 2020-01-23 06:19:46.260
D/DATA VITAL: 2020-01-23 06:19:41.327 menerima data ID 2384 waktu terima 2020-01-23 06:19:48.629
D/DATA VITAL: 2020-01-23 06:19:46.147 menerima data ID 2511 waktu terima 2020-01-23 06:19:52.054
D/DATA VITAL: 2020-01-23 06:19:46.628 menerima data ID 2524 waktu terima 2020-01-23 06:19:52.183
D/DATA VITAL: 2020-01-23 06:20:01.561 menerima data ID 2915 waktu terima 2020-01-23 06:20:01.620
D/DATA VITAL: 2020-01-23 06:20:08.302 menerima data ID 3092 waktu terima 2020-01-23 06:20:10.258
D/DATA VITAL: 2020-01-23 06:20:12.153 menerima data ID 3193 waktu terima 2020-01-23 06:20:12.290
D/DATA VITAL: 2020-01-23 06:20:17.930 menerima data ID 3344 waktu terima 2020-01-23 06:20:19.404
D/DATA VITAL: 2020-01-23 06:20:18.893 menerima data ID 3371 waktu terima 2020-01-23 06:20:19.672
D/DATA VITAL: 2020-01-23 06:20:20.822 menerima data ID 3422 waktu terima 2020-01-23 06:20:21.240
D/DATA VITAL: 2020-01-23 06:20:23.231 menerima data ID 3487 waktu terima 2020-01-23 06:20:25.732
D/DATA VITAL: 2020-01-23 06:20:25.638 menerima data ID 3550 waktu terima 2020-01-23 06:20:26.392
D/DATA VITAL: 2020-01-23 06:20:26.601 menerima data ID 3577 waktu terima 2020-01-23 06:20:27.143
D/DATA VITAL: 2020-01-23 06:20:30.452 menerima data ID 3678 waktu terima 2020-01-23 06:20:30.886
D/DATA VITAL: 2020-01-23 06:20:32.383 menerima data ID 3729 waktu terima 2020-01-23 06:20:32.455
D/DATA VITAL: 2020-01-23 06:20:33.346 menerima data ID 3756 waktu terima 2020-01-23 06:20:34.235
D/DATA VITAL: 2020-01-23 06:20:35.269 menerima data ID 3807 waktu terima 2020-01-23 06:20:36.450
D/DATA VITAL: 2020-01-23 06:20:36.231 menerima data ID 3832 waktu terima 2020-01-23 06:20:36.715
D/DATA VITAL: 2020-01-23 06:20:37.194 menerima data ID 3859 waktu terima 2020-01-23 06:20:37.255
D/DATA VITAL: 2020-01-23 06:20:38.159 menerima data ID 3886 waktu terima 2020-01-23 06:20:39.085
D/DATA VITAL: 2020-01-23 06:20:41.037 menerima data ID 3961 waktu terima 2020-01-23 06:20:43.373
D/DATA VITAL: 2020-01-23 06:20:42.008 menerima data ID 3988 waktu terima 2020-01-23 06:20:44.474
D/DATA VITAL: 2020-01-23 06:20:48.748 menerima data ID 4165 waktu terima 2020-01-23 06:20:52.627
D/DATA VITAL: 2020-01-23 06:20:58.380 menerima data ID 4416 waktu terima 2020-01-23 06:20:58.433
D/DATA VITAL: 2020-01-23 06:21:00.305 menerima data ID 4469 waktu terima 2020-01-23 06:21:00.381
D/DATA VITAL: 2020-01-23 06:21:02.230 menerima data ID 4520 waktu terima 2020-01-23 06:21:04.030
D/DATA VITAL: 2020-01-23 06:21:04.148 menerima data ID 4571 waktu terima 2020-01-23 06:21:04.959
D/DATA VITAL: 2020-01-23 06:21:05.111 menerima data ID 4596 waktu terima 2020-01-23 06:21:05.223
D/DATA VITAL: 2020-01-23 06:21:06.080 menerima data ID 4623 waktu terima 2020-01-23 06:21:06.440
D/DATA VITAL: 2020-01-23 06:21:07.043 menerima data ID 4650 waktu terima 2020-01-23 06:21:08.313
D/DATA VITAL: 2020-01-23 06:21:08.003 menerima data ID 4675 waktu terima 2020-01-23 06:21:09.013
D/DATA VITAL: 2020-01-23 06:21:10.892 menerima data ID 4752 waktu terima 2020-01-23 06:21:11.640
D/DATA VITAL: 2020-01-23 06:21:11.855 menerima data ID 4777 waktu terima 2020-01-23 06:21:13.583
D/DATA VITAL: 2020-01-23 06:21:12.817 menerima data ID 4804 waktu terima 2020-01-23 06:21:15.539
D/DATA VITAL: 2020-01-23 06:21:15.704 menerima data ID 4881 waktu terima 2020-01-23 06:21:20.934
D/DATA VITAL: 2020-01-23 06:21:21.483 menerima data ID 5032 waktu terima 2020-01-23 06:21:22.480
D/DATA VITAL: 2020-01-23 06:21:21.964 menerima data ID 5045 waktu terima 2020-01-23 06:21:22.579
D/DATA VITAL: 2020-01-23 06:21:23.407 menerima data ID 5084 waktu terima 2020-01-23 06:21:25.145
D/DATA VITAL: 2020-01-23 06:21:25.331 menerima data ID 5135 waktu terima 2020-01-23 06:21:28.629
D/DATA VITAL: 2020-01-23 06:21:27.255 menerima data ID 5186 waktu terima 2020-01-23 06:21:29.195
D/DATA VITAL: 2020-01-23 06:21:29.183 menerima data ID 5239 waktu terima 2020-01-23 06:21:29.935
D/DATA VITAL: 2020-01-23 06:21:30.144 menerima data ID 5264 waktu terima 2020-01-23 06:21:31.873
D/DATA VITAL: 2020-01-23 06:21:31.106 menerima data ID 5291 waktu terima 2020-01-23 06:21:34.229
D/DATA VITAL: 2020-01-23 06:21:33.030 menerima data ID 5342 waktu terima 2020-01-23 06:21:36.056
D/DATA VITAL: 2020-01-23 06:21:33.991 menerima data ID 5367 waktu terima 2020-01-23 06:21:36.313
D/DATA VITAL: 2020-01-23 06:21:36.876 menerima data ID 5444 waktu terima 2020-01-23 06:21:38.098
D/DATA VITAL: 2020-01-23 06:21:41.680 menerima data ID 5571 waktu terima 2020-01-23 06:21:47.392
D/DATA VITAL: 2020-01-23 06:21:45.047 menerima data ID 5660 waktu terima 2020-01-23 06:21:48.289
D/DATA VITAL: 2020-01-23 06:21:48.412 menerima data ID 5749 waktu terima 2020-01-23 06:21:49.223
D/DATA VITAL: 2020-01-23 06:21:52.256 menerima data ID 5850 waktu terima 2020-01-23 06:21:52.544
D/DATA VITAL: 2020-01-23 06:21:53.215 menerima data ID 5875 waktu terima 2020-01-23 06:21:53.455
D/DATA VITAL: 2020-01-23 06:21:54.177 menerima data ID 5902 waktu terima 2020-01-23 06:21:55.819
D/DATA VITAL: 2020-01-23 06:21:56.100 menerima data ID 5953 waktu terima 2020-01-23 06:21:57.181
D/DATA VITAL: 2020-01-23 06:21:58.025 menerima data ID 6004 waktu terima 2020-01-23 06:21:58.071
D/DATA VITAL: 2020-01-23 06:21:58.987 menerima data ID 6031 waktu terima 2020-01-23 06:22:00.621
D/DATA VITAL: 2020-01-23 06:21:59.948 menerima data ID 6056 waktu terima 2020-01-23 06:22:01.797
D/DATA VITAL: 2020-01-23 06:22:01.870 menerima data ID 6107 waktu terima 2020-01-23 06:22:02.334
D/DATA VITAL: 2020-01-23 06:22:02.832 menerima data ID 6134 waktu terima 2020-01-23 06:22:02.904
D/DATA VITAL: 2020-01-23 06:22:03.794 menerima data ID 6159 waktu terima 2020-01-23 06:22:04.096
D/DATA VITAL: 2020-01-23 06:22:05.717 menerima data ID 6210 waktu terima 2020-01-23 06:22:06.588
D/DATA VITAL: 2020-01-23 06:22:11.490 menerima data ID 6363 waktu terima 2020-01-23 06:22:15.203
D/DATA VITAL: 2020-01-23 06:22:16.292 menerima data ID 6488 waktu terima 2020-01-23 06:22:17.448
D/DATA VITAL: 2020-01-23 06:22:19.654 menerima data ID 6577 waktu terima 2020-01-23 06:22:20.413
D/DATA VITAL: 2020-01-23 06:22:21.093 menerima data ID 6616 waktu terima 2020-01-23 06:22:21.145
D/DATA VITAL: 2020-01-23 06:22:22.054 menerima data ID 6643 waktu terima 2020-01-23 06:22:22.297
D/DATA VITAL: 2020-01-23 06:22:24.936 menerima data ID 6718 waktu terima 2020-01-23 06:22:26.154
D/DATA VITAL: 2020-01-23 06:22:28.780 menerima data ID 6819 waktu terima 2020-01-23 06:22:29.397
D/DATA VITAL: 2020-01-23 06:22:30.702 menerima data ID 6872 waktu terima 2020-01-23 06:22:31.832
D/DATA VITAL: 2020-01-23 06:22:33.585 menerima data ID 6947 waktu terima 2020-01-23 06:22:34.233
D/DATA VITAL: 2020-01-23 06:22:36.460 menerima data ID 7024 waktu terima 2020-01-23 06:22:37.197
D/DATA VITAL: 2020-01-23 06:22:39.349 menerima data ID 7099 waktu terima 2020-01-23 06:22:39.430
D/DATA VITAL: 2020-01-23 06:22:40.309 menerima data ID 7126 waktu terima 2020-01-23 06:22:40.365
D/DATA VITAL: 2020-01-23 06:22:42.232 menerima data ID 7177 waktu terima 2020-01-23 06:22:43.583
D/DATA VITAL: 2020-01-23 06:22:42.712 menerima data ID 7190 waktu terima 2020-01-23 06:22:43.721
D/DATA VITAL: 2020-01-23 06:22:44.154 menerima data ID 7229 waktu terima 2020-01-23 06:22:45.718
D/DATA VITAL: 2020-01-23 06:22:47.996 menerima data ID 7330 waktu terima 2020-01-23 06:22:48.635
D/DATA VITAL: 2020-01-23 06:22:48.957 menerima data ID 7357 waktu terima 2020-01-23 06:22:50.585
D/DATA VITAL: 2020-01-23 06:22:51.841 menerima data ID 7432 waktu terima 2020-01-23 06:22:53.003
D/DATA VITAL: 2020-01-23 06:22:53.763 menerima data ID 7485 waktu terima 2020-01-23 06:22:54.099
D/DATA VITAL: 2020-01-23 06:22:54.243 menerima data ID 7498 waktu terima 2020-01-23 06:22:54.871
D/DATA VITAL: 2020-01-23 06:22:56.645 menerima data ID 7561 waktu terima 2020-01-23 06:22:59.712
D/DATA VITAL: 2020-01-23 06:22:57.605 menerima data ID 7588 waktu terima 2020-01-23 06:23:01.261
D/DATA VITAL: 2020-01-23 06:22:59.522 menerima data ID 7639 waktu terima 2020-01-23 06:23:01.781
D/DATA VITAL: 2020-01-23 06:23:01.442 menerima data ID 7690 waktu terima 2020-01-23 06:23:02.307
D/DATA VITAL: 2020-01-23 06:23:04.803 menerima data ID 7779 waktu terima 2020-01-23 06:23:08.797
D/DATA VITAL: 2020-01-23 06:23:06.243 menerima data ID 7816 waktu terima 2020-01-23 06:23:11.681
D/DATA VITAL: 2020-01-23 06:23:07.203 menerima data ID 7843 waktu terima 2020-01-23 06:23:12.358
D/DATA VITAL: 2020-01-23 06:23:09.125 menerima data ID 7894 waktu terima 2020-01-23 06:23:12.900
D/DATA VITAL: 2020-01-23 06:23:11.046 menerima data ID 7945 waktu terima 2020-01-23 06:23:13.436
