2019-12-17 11:28:16.651 D/DATA VITAL: mengirimkan data ID 71
2019-12-17 11:28:18.575 D/DATA VITAL: mengirimkan data ID 197
2019-12-17 11:28:21.462 D/DATA VITAL: mengirimkan data ID 388
2019-12-17 11:28:22.373 D/DATA VITAL: mengirimkan data ID 446
2019-12-17 11:28:25.302 D/DATA VITAL: mengirimkan data ID 637
2019-12-17 11:28:32.936 D/DATA VITAL: mengirimkan data ID 1140
2019-12-17 11:28:35.822 D/DATA VITAL: mengirimkan data ID 1327
2019-12-17 11:28:42.540 D/DATA VITAL: mengirimkan data ID 1768
2019-12-17 11:28:44.461 D/DATA VITAL: mengirimkan data ID 1894
2019-12-17 11:28:45.422 D/DATA VITAL: mengirimkan data ID 1956
2019-12-17 11:28:46.437 D/DATA VITAL: mengirimkan data ID 2026
2019-12-17 11:28:51.228 D/DATA VITAL: mengirimkan data ID 2339
2019-12-17 11:28:52.203 D/DATA VITAL: mengirimkan data ID 2405
2019-12-17 11:28:53.150 D/DATA VITAL: mengirimkan data ID 2467
2019-12-17 11:28:54.110 D/DATA VITAL: mengirimkan data ID 2528
2019-12-17 11:28:58.866 D/DATA VITAL: mengirimkan data ID 2841
2019-12-17 11:28:59.828 D/DATA VITAL: mengirimkan data ID 2906
2019-12-17 11:29:01.741 D/DATA VITAL: mengirimkan data ID 3032
2019-12-17 11:29:02.755 D/DATA VITAL: mengirimkan data ID 3099
2019-12-17 11:29:03.711 D/DATA VITAL: mengirimkan data ID 3161
2019-12-17 11:29:04.669 D/DATA VITAL: mengirimkan data ID 3226
2019-12-17 11:29:05.591 D/DATA VITAL: mengirimkan data ID 3287
2019-12-17 11:29:07.554 D/DATA VITAL: mengirimkan data ID 3415
2019-12-17 11:29:08.521 D/DATA VITAL: mengirimkan data ID 3481
2019-12-17 11:29:09.475 D/DATA VITAL: mengirimkan data ID 3542
2019-12-17 11:29:10.439 D/DATA VITAL: mengirimkan data ID 3608
2019-12-17 11:29:11.346 D/DATA VITAL: mengirimkan data ID 3665
2019-12-17 11:29:13.318 D/DATA VITAL: mengirimkan data ID 3796
2019-12-17 11:29:17.116 D/DATA VITAL: mengirimkan data ID 4044
2019-12-17 11:29:21.910 D/DATA VITAL: mengirimkan data ID 4360
2019-12-17 11:29:22.873 D/DATA VITAL: mengirimkan data ID 4422
2019-12-17 11:29:25.759 D/DATA VITAL: mengirimkan data ID 4614
2019-12-17 11:29:26.714 D/DATA VITAL: mengirimkan data ID 4675
2019-12-17 11:29:27.676 D/DATA VITAL: mengirimkan data ID 4741
2019-12-17 11:29:28.636 D/DATA VITAL: mengirimkan data ID 4802
2019-12-17 11:29:30.608 D/DATA VITAL: mengirimkan data ID 4934
2019-12-17 11:29:31.523 D/DATA VITAL: mengirimkan data ID 4995
2019-12-17 11:29:34.452 D/DATA VITAL: mengirimkan data ID 5187
2019-12-17 11:29:36.368 D/DATA VITAL: mengirimkan data ID 5313
2019-12-17 11:29:37.319 D/DATA VITAL: mengirimkan data ID 5375
2019-12-17 11:29:38.286 D/DATA VITAL: mengirimkan data ID 5440
2019-12-17 11:29:39.241 D/DATA VITAL: mengirimkan data ID 5500
2019-12-17 11:29:40.200 D/DATA VITAL: mengirimkan data ID 5564
2019-12-17 11:29:42.122 D/DATA VITAL: mengirimkan data ID 5690
2019-12-17 11:29:44.997 D/DATA VITAL: mengirimkan data ID 5882
2019-12-17 11:29:45.959 D/DATA VITAL: mengirimkan data ID 5943
2019-12-17 11:29:48.787 D/DATA VITAL: mengirimkan data ID 6130
2019-12-17 11:29:50.704 D/DATA VITAL: mengirimkan data ID 6256
2019-12-17 11:29:55.501 D/DATA VITAL: mengirimkan data ID 6569
2019-12-17 11:29:57.419 D/DATA VITAL: mengirimkan data ID 6696
2019-12-17 11:29:59.337 D/DATA VITAL: mengirimkan data ID 6822
2019-12-17 11:30:01.255 D/DATA VITAL: mengirimkan data ID 6949
2019-12-17 11:30:02.225 D/DATA VITAL: mengirimkan data ID 7015
2019-12-17 11:30:03.178 D/DATA VITAL: mengirimkan data ID 7076
2019-12-17 11:30:05.099 D/DATA VITAL: mengirimkan data ID 7204
2019-12-17 11:30:06.056 D/DATA VITAL: mengirimkan data ID 7266
2019-12-17 11:30:10.862 D/DATA VITAL: mengirimkan data ID 7582
2019-12-17 11:30:11.811 D/DATA VITAL: mengirimkan data ID 7644
2019-12-17 11:30:12.781 D/DATA VITAL: mengirimkan data ID 7709
2019-12-17 11:30:13.730 D/DATA VITAL: mengirimkan data ID 7772
2019-12-17 11:30:24.328 D/DATA VITAL: mengirimkan data ID 8465
2019-12-17 11:30:25.286 D/DATA VITAL: mengirimkan data ID 8527
2019-12-17 11:30:26.245 D/DATA VITAL: mengirimkan data ID 8592
2019-12-17 11:30:28.116 D/DATA VITAL: mengirimkan data ID 8714
2019-12-17 11:30:31.952 D/DATA VITAL: mengirimkan data ID 8967
2019-12-17 11:30:33.870 D/DATA VITAL: mengirimkan data ID 9093
2019-12-17 11:30:34.832 D/DATA VITAL: mengirimkan data ID 9154
2019-12-17 11:30:35.835 D/DATA VITAL: mengirimkan data ID 9221
2019-12-17 11:30:36.800 D/DATA VITAL: mengirimkan data ID 9287
2019-12-17 11:30:37.755 D/DATA VITAL: mengirimkan data ID 9348
2019-12-17 11:30:39.674 D/DATA VITAL: mengirimkan data ID 9474
2019-12-17 11:30:42.502 D/DATA VITAL: mengirimkan data ID 9661
2019-12-17 11:30:43.461 D/DATA VITAL: mengirimkan data ID 9723
2019-12-17 11:30:45.377 D/DATA VITAL: mengirimkan data ID 9850
2019-12-17 11:30:46.336 D/DATA VITAL: mengirimkan data ID 9915
2019-12-17 11:30:48.251 D/DATA VITAL: mengirimkan data ID 10041
2019-12-17 11:30:49.213 D/DATA VITAL: mengirimkan data ID 10103
2019-12-17 11:30:53.052 D/DATA VITAL: mengirimkan data ID 10354
2019-12-17 11:30:56.936 D/DATA VITAL: mengirimkan data ID 10610
2019-12-17 11:30:59.769 D/DATA VITAL: mengirimkan data ID 10795
2019-12-17 11:31:00.725 D/DATA VITAL: mengirimkan data ID 10860
2019-12-17 11:31:04.610 D/DATA VITAL: mengirimkan data ID 11112
2019-12-17 11:31:10.371 D/DATA VITAL: mengirimkan data ID 11492
2019-12-17 11:31:14.201 D/DATA VITAL: mengirimkan data ID 11743
2019-12-17 11:31:16.117 D/DATA VITAL: mengirimkan data ID 11869
2019-12-17 11:31:17.066 D/DATA VITAL: mengirimkan data ID 11931
2019-12-17 11:31:20.854 D/DATA VITAL: mengirimkan data ID 12177
2019-12-17 11:31:22.782 D/DATA VITAL: mengirimkan data ID 12307
2019-12-17 11:31:23.729 D/DATA VITAL: mengirimkan data ID 12368
2019-12-17 11:31:25.693 D/DATA VITAL: mengirimkan data ID 12499
2019-12-17 11:31:26.653 D/DATA VITAL: mengirimkan data ID 12561
2019-12-17 11:31:27.612 D/DATA VITAL: mengirimkan data ID 12626
2019-12-17 11:31:29.481 D/DATA VITAL: mengirimkan data ID 12748
2019-12-17 11:31:31.403 D/DATA VITAL: mengirimkan data ID 12874
2019-12-17 11:31:35.236 D/DATA VITAL: mengirimkan data ID 13125
2019-12-17 11:31:39.123 D/DATA VITAL: mengirimkan data ID 13381
2019-12-17 11:31:43.862 D/DATA VITAL: mengirimkan data ID 13689
2019-12-17 11:31:44.820 D/DATA VITAL: mengirimkan data ID 13755
2019-12-17 11:31:46.783 D/DATA VITAL: mengirimkan data ID 13881
2019-12-17 11:31:48.702 D/DATA VITAL: mengirimkan data ID 14008
2019-12-17 11:31:49.657 D/DATA VITAL: mengirimkan data ID 14074
2019-12-17 11:31:50.618 D/DATA VITAL: mengirimkan data ID 14135
2019-12-17 11:31:52.492 D/DATA VITAL: mengirimkan data ID 14261
2019-12-17 11:31:54.453 D/DATA VITAL: mengirimkan data ID 14389
2019-12-17 11:31:55.419 D/DATA VITAL: mengirimkan data ID 14454
2019-12-17 11:32:03.032 D/DATA VITAL: mengirimkan data ID 14802
2019-12-17 11:32:03.992 D/DATA VITAL: mengirimkan data ID 14827
2019-12-17 11:32:05.908 D/DATA VITAL: mengirimkan data ID 14878
2019-12-17 11:32:06.866 D/DATA VITAL: mengirimkan data ID 14905
2019-12-17 11:32:07.825 D/DATA VITAL: mengirimkan data ID 14930
2019-12-17 11:32:08.784 D/DATA VITAL: mengirimkan data ID 14957
2019-12-17 11:32:09.743 D/DATA VITAL: mengirimkan data ID 14982
2019-12-17 11:32:11.659 D/DATA VITAL: mengirimkan data ID 15033
2019-12-17 11:32:12.617 D/DATA VITAL: mengirimkan data ID 15060
2019-12-17 11:32:13.573 D/DATA VITAL: mengirimkan data ID 15085
2019-12-17 11:32:15.493 D/DATA VITAL: mengirimkan data ID 15136
2019-12-17 11:32:18.367 D/DATA VITAL: mengirimkan data ID 15213
2019-12-17 11:32:20.285 D/DATA VITAL: mengirimkan data ID 15264
2019-12-17 11:32:24.122 D/DATA VITAL: mengirimkan data ID 15365
2019-12-17 11:32:25.081 D/DATA VITAL: mengirimkan data ID 15390
2019-12-17 11:32:29.927 D/DATA VITAL: mengirimkan data ID 15519
2019-12-17 11:32:32.753 D/DATA VITAL: mengirimkan data ID 15594
2019-12-17 11:32:34.673 D/DATA VITAL: mengirimkan data ID 15645
2019-12-17 11:32:35.631 D/DATA VITAL: mengirimkan data ID 15670
2019-12-17 11:32:38.511 D/DATA VITAL: mengirimkan data ID 15747
2019-12-17 11:32:40.430 D/DATA VITAL: mengirimkan data ID 15798
2019-12-17 11:32:43.307 D/DATA VITAL: mengirimkan data ID 15873
2019-12-17 11:32:44.267 D/DATA VITAL: mengirimkan data ID 15900
2019-12-17 11:32:47.197 D/DATA VITAL: mengirimkan data ID 15977
2019-12-17 11:32:50.075 D/DATA VITAL: mengirimkan data ID 16054
2019-12-17 11:32:51.949 D/DATA VITAL: mengirimkan data ID 16103
2019-12-17 11:32:52.908 D/DATA VITAL: mengirimkan data ID 16130
2019-12-17 11:32:53.867 D/DATA VITAL: mengirimkan data ID 16155
2019-12-17 11:32:54.823 D/DATA VITAL: mengirimkan data ID 16182
2019-12-17 11:32:55.785 D/DATA VITAL: mengirimkan data ID 16207
2019-12-17 11:32:57.702 D/DATA VITAL: mengirimkan data ID 16258
2019-12-17 11:32:58.661 D/DATA VITAL: mengirimkan data ID 16285
2019-12-17 11:32:59.622 D/DATA VITAL: mengirimkan data ID 16310
2019-12-17 11:33:09.263 D/DATA VITAL: mengirimkan data ID 16563
