D/DATA VITAL: 2020-01-22 10:27:45.887 menerima data ID 0 waktu terima 2020-01-22 10:27:46.105
D/DATA VITAL: 2020-01-22 10:27:46.064 menerima data ID 4 waktu terima 2020-01-22 10:27:46.579
D/DATA VITAL: 2020-01-22 10:27:46.234 menerima data ID 8 waktu terima 2020-01-22 10:27:46.702
D/DATA VITAL: 2020-01-22 10:27:46.391 menerima data ID 12 waktu terima 2020-01-22 10:27:47.088
D/DATA VITAL: 2020-01-22 10:27:46.537 menerima data ID 16 waktu terima 2020-01-22 10:27:47.574
D/DATA VITAL: 2020-01-22 10:27:46.696 menerima data ID 20 waktu terima 2020-01-22 10:27:47.636
D/DATA VITAL: 2020-01-22 10:27:46.856 menerima data ID 24 waktu terima 2020-01-22 10:27:47.695
D/DATA VITAL: 2020-01-22 10:27:47.036 menerima data ID 30 waktu terima 2020-01-22 10:27:47.757
D/DATA VITAL: 2020-01-22 10:27:47.219 menerima data ID 34 waktu terima 2020-01-22 10:27:47.827
D/DATA VITAL: 2020-01-22 10:27:47.399 menerima data ID 38 waktu terima 2020-01-22 10:27:47.906
D/DATA VITAL: 2020-01-22 10:27:47.551 menerima data ID 42 waktu terima 2020-01-22 10:27:47.954
D/DATA VITAL: 2020-01-22 10:27:47.715 menerima data ID 46 waktu terima 2020-01-22 10:27:48.003
D/DATA VITAL: 2020-01-22 10:27:47.886 menerima data ID 49 waktu terima 2020-01-22 10:27:48.077
D/DATA VITAL: 2020-01-22 10:27:48.062 menerima data ID 52 waktu terima 2020-01-22 10:27:48.134
D/DATA VITAL: 2020-01-22 10:27:48.234 menerima data ID 58 waktu terima 2020-01-22 10:27:48.318
D/DATA VITAL: 2020-01-22 10:27:48.406 menerima data ID 62 waktu terima 2020-01-22 10:27:48.501
D/DATA VITAL: 2020-01-22 10:27:48.574 menerima data ID 66 waktu terima 2020-01-22 10:27:48.634
D/DATA VITAL: 2020-01-22 10:27:48.738 menerima data ID 68 waktu terima 2020-01-22 10:27:48.826
D/DATA VITAL: 2020-01-22 10:27:48.897 menerima data ID 72 waktu terima 2020-01-22 10:27:48.971
D/DATA VITAL: 2020-01-22 10:27:49.054 menerima data ID 78 waktu terima 2020-01-22 10:27:49.464
D/DATA VITAL: 2020-01-22 10:27:49.211 menerima data ID 80 waktu terima 2020-01-22 10:27:49.567
D/DATA VITAL: 2020-01-22 10:27:49.379 menerima data ID 84 waktu terima 2020-01-22 10:27:50.032
D/DATA VITAL: 2020-01-22 10:27:49.538 menerima data ID 88 waktu terima 2020-01-22 10:27:50.426
D/DATA VITAL: 2020-01-22 10:27:49.704 menerima data ID 94 waktu terima 2020-01-22 10:27:50.518
D/DATA VITAL: 2020-01-22 10:27:49.880 menerima data ID 98 waktu terima 2020-01-22 10:27:51.011
D/DATA VITAL: 2020-01-22 10:27:50.059 menerima data ID 102 waktu terima 2020-01-22 10:27:51.451
D/DATA VITAL: 2020-01-22 10:27:50.196 menerima data ID 106 waktu terima 2020-01-22 10:27:51.521
D/DATA VITAL: 2020-01-22 10:27:50.361 menerima data ID 108 waktu terima 2020-01-22 10:27:51.910
D/DATA VITAL: 2020-01-22 10:27:50.546 menerima data ID 114 waktu terima 2020-01-22 10:27:52.341
D/DATA VITAL: 2020-01-22 10:27:50.704 menerima data ID 118 waktu terima 2020-01-22 10:27:52.446
D/DATA VITAL: 2020-01-22 10:27:50.881 menerima data ID 120 waktu terima 2020-01-22 10:27:52.874
D/DATA VITAL: 2020-01-22 10:27:51.026 menerima data ID 124 waktu terima 2020-01-22 10:27:53.307
D/DATA VITAL: 2020-01-22 10:27:51.198 menerima data ID 130 waktu terima 2020-01-22 10:27:53.447
D/DATA VITAL: 2020-01-22 10:27:51.345 menerima data ID 133 waktu terima 2020-01-22 10:27:53.868
D/DATA VITAL: 2020-01-22 10:27:51.499 menerima data ID 138 waktu terima 2020-01-22 10:27:54.304
D/DATA VITAL: 2020-01-22 10:27:51.652 menerima data ID 142 waktu terima 2020-01-22 10:27:54.371
D/DATA VITAL: 2020-01-22 10:27:51.800 menerima data ID 144 waktu terima 2020-01-22 10:27:54.778
D/DATA VITAL: 2020-01-22 10:27:51.971 menerima data ID 148 waktu terima 2020-01-22 10:27:55.223
D/DATA VITAL: 2020-01-22 10:27:52.123 menerima data ID 152 waktu terima 2020-01-22 10:27:55.310
D/DATA VITAL: 2020-01-22 10:27:52.269 menerima data ID 156 waktu terima 2020-01-22 10:27:55.765
D/DATA VITAL: 2020-01-22 10:27:52.434 menerima data ID 160 waktu terima 2020-01-22 10:27:56.212
D/DATA VITAL: 2020-01-22 10:27:52.594 menerima data ID 164 waktu terima 2020-01-22 10:27:56.276
D/DATA VITAL: 2020-01-22 10:27:52.770 menerima data ID 170 waktu terima 2020-01-22 10:27:56.780
D/DATA VITAL: 2020-01-22 10:27:52.934 menerima data ID 172 waktu terima 2020-01-22 10:27:56.825
D/DATA VITAL: 2020-01-22 10:27:53.095 menerima data ID 178 waktu terima 2020-01-22 10:27:56.956
D/DATA VITAL: 2020-01-22 10:27:53.248 menerima data ID 182 waktu terima 2020-01-22 10:27:57.029
D/DATA VITAL: 2020-01-22 10:27:53.395 menerima data ID 184 waktu terima 2020-01-22 10:27:57.076
D/DATA VITAL: 2020-01-22 10:27:53.534 menerima data ID 188 waktu terima 2020-01-22 10:27:57.163
D/DATA VITAL: 2020-01-22 10:27:53.678 menerima data ID 194 waktu terima 2020-01-22 10:27:57.249
D/DATA VITAL: 2020-01-22 10:27:53.843 menerima data ID 198 waktu terima 2020-01-22 10:27:57.324
D/DATA VITAL: 2020-01-22 10:27:53.989 menerima data ID 200 waktu terima 2020-01-22 10:27:57.408
D/DATA VITAL: 2020-01-22 10:27:54.118 menerima data ID 206 waktu terima 2020-01-22 10:27:57.499
D/DATA VITAL: 2020-01-22 10:27:54.289 menerima data ID 210 waktu terima 2020-01-22 10:27:57.571
D/DATA VITAL: 2020-01-22 10:27:54.438 menerima data ID 212 waktu terima 2020-01-22 10:27:57.627
D/DATA VITAL: 2020-01-22 10:27:54.589 menerima data ID 216 waktu terima 2020-01-22 10:27:57.706
D/DATA VITAL: 2020-01-22 10:27:54.748 menerima data ID 222 waktu terima 2020-01-22 10:27:57.815
D/DATA VITAL: 2020-01-22 10:27:54.883 menerima data ID 224 waktu terima 2020-01-22 10:27:57.896
D/DATA VITAL: 2020-01-22 10:27:55.027 menerima data ID 228 waktu terima 2020-01-22 10:27:57.990
D/DATA VITAL: 2020-01-22 10:27:55.167 menerima data ID 234 waktu terima 2020-01-22 10:27:58.088
D/DATA VITAL: 2020-01-22 10:27:55.317 menerima data ID 236 waktu terima 2020-01-22 10:27:58.149
D/DATA VITAL: 2020-01-22 10:27:55.468 menerima data ID 242 waktu terima 2020-01-22 10:27:58.246
D/DATA VITAL: 2020-01-22 10:27:55.608 menerima data ID 246 waktu terima 2020-01-22 10:27:58.296
D/DATA VITAL: 2020-01-22 10:27:55.748 menerima data ID 250 waktu terima 2020-01-22 10:27:58.346
D/DATA VITAL: 2020-01-22 10:27:55.901 menerima data ID 254 waktu terima 2020-01-22 10:27:58.433
D/DATA VITAL: 2020-01-22 10:27:56.055 menerima data ID 258 waktu terima 2020-01-22 10:27:58.525
D/DATA VITAL: 2020-01-22 10:27:56.197 menerima data ID 260 waktu terima 2020-01-22 10:27:58.558
D/DATA VITAL: 2020-01-22 10:27:56.337 menerima data ID 264 waktu terima 2020-01-22 10:27:58.633
D/DATA VITAL: 2020-01-22 10:27:56.472 menerima data ID 268 waktu terima 2020-01-22 10:27:58.701
D/DATA VITAL: 2020-01-22 10:27:56.609 menerima data ID 272 waktu terima 2020-01-22 10:27:58.785
D/DATA VITAL: 2020-01-22 10:27:56.756 menerima data ID 276 waktu terima 2020-01-22 10:27:58.881
D/DATA VITAL: 2020-01-22 10:27:56.899 menerima data ID 280 waktu terima 2020-01-22 10:27:58.931
D/DATA VITAL: 2020-01-22 10:27:57.039 menerima data ID 284 waktu terima 2020-01-22 10:27:59.004
D/DATA VITAL: 2020-01-22 10:27:57.187 menerima data ID 288 waktu terima 2020-01-22 10:27:59.084
D/DATA VITAL: 2020-01-22 10:27:57.331 menerima data ID 292 waktu terima 2020-01-22 10:27:59.148
D/DATA VITAL: 2020-01-22 10:27:57.454 menerima data ID 296 waktu terima 2020-01-22 10:27:59.236
D/DATA VITAL: 2020-01-22 10:27:57.595 menerima data ID 300 waktu terima 2020-01-22 10:27:59.295
D/DATA VITAL: 2020-01-22 10:27:57.719 menerima data ID 304 waktu terima 2020-01-22 10:27:59.369
D/DATA VITAL: 2020-01-22 10:27:57.856 menerima data ID 308 waktu terima 2020-01-22 10:27:59.435
D/DATA VITAL: 2020-01-22 10:27:57.976 menerima data ID 312 waktu terima 2020-01-22 10:27:59.509
D/DATA VITAL: 2020-01-22 10:27:58.101 menerima data ID 316 waktu terima 2020-01-22 10:27:59.573
D/DATA VITAL: 2020-01-22 10:27:58.226 menerima data ID 320 waktu terima 2020-01-22 10:27:59.645
D/DATA VITAL: 2020-01-22 10:27:58.348 menerima data ID 324 waktu terima 2020-01-22 10:27:59.717
D/DATA VITAL: 2020-01-22 10:27:58.473 menerima data ID 328 waktu terima 2020-01-22 10:27:59.791
D/DATA VITAL: 2020-01-22 10:27:58.599 menerima data ID 332 waktu terima 2020-01-22 10:27:59.868
D/DATA VITAL: 2020-01-22 10:27:58.730 menerima data ID 336 waktu terima 2020-01-22 10:28:00.065
D/DATA VITAL: 2020-01-22 10:27:58.852 menerima data ID 340 waktu terima 2020-01-22 10:28:00.542
D/DATA VITAL: 2020-01-22 10:27:58.977 menerima data ID 344 waktu terima 2020-01-22 10:28:00.617
D/DATA VITAL: 2020-01-22 10:27:59.104 menerima data ID 348 waktu terima 2020-01-22 10:28:01.036
D/DATA VITAL: 2020-01-22 10:27:59.229 menerima data ID 352 waktu terima 2020-01-22 10:28:01.489
D/DATA VITAL: 2020-01-22 10:27:59.348 menerima data ID 356 waktu terima 2020-01-22 10:28:01.571
D/DATA VITAL: 2020-01-22 10:27:59.476 menerima data ID 360 waktu terima 2020-01-22 10:28:02.020
D/DATA VITAL: 2020-01-22 10:27:59.602 menerima data ID 364 waktu terima 2020-01-22 10:28:02.453
D/DATA VITAL: 2020-01-22 10:27:59.727 menerima data ID 368 waktu terima 2020-01-22 10:28:02.528
D/DATA VITAL: 2020-01-22 10:27:59.859 menerima data ID 372 waktu terima 2020-01-22 10:28:02.948
D/DATA VITAL: 2020-01-22 10:27:59.984 menerima data ID 376 waktu terima 2020-01-22 10:28:03.393
D/DATA VITAL: 2020-01-22 10:28:00.113 menerima data ID 380 waktu terima 2020-01-22 10:28:03.459
D/DATA VITAL: 2020-01-22 10:28:00.242 menerima data ID 384 waktu terima 2020-01-22 10:28:03.911
D/DATA VITAL: 2020-01-22 10:28:00.368 menerima data ID 388 waktu terima 2020-01-22 10:28:03.974
D/DATA VITAL: 2020-01-22 10:28:00.493 menerima data ID 392 waktu terima 2020-01-22 10:28:04.038
D/DATA VITAL: 2020-01-22 10:28:00.620 menerima data ID 396 waktu terima 2020-01-22 10:28:04.106
D/DATA VITAL: 2020-01-22 10:28:00.749 menerima data ID 400 waktu terima 2020-01-22 10:28:04.180
D/DATA VITAL: 2020-01-22 10:28:00.894 menerima data ID 402 waktu terima 2020-01-22 10:28:04.209
D/DATA VITAL: 2020-01-22 10:28:01.048 menerima data ID 406 waktu terima 2020-01-22 10:28:04.271
D/DATA VITAL: 2020-01-22 10:28:01.188 menerima data ID 410 waktu terima 2020-01-22 10:28:04.338
D/DATA VITAL: 2020-01-22 10:28:01.323 menerima data ID 416 waktu terima 2020-01-22 10:28:04.402
D/DATA VITAL: 2020-01-22 10:28:01.465 menerima data ID 420 waktu terima 2020-01-22 10:28:04.480
D/DATA VITAL: 2020-01-22 10:28:01.611 menerima data ID 424 waktu terima 2020-01-22 10:28:04.544
D/DATA VITAL: 2020-01-22 10:28:01.761 menerima data ID 428 waktu terima 2020-01-22 10:28:04.606
D/DATA VITAL: 2020-01-22 10:28:01.914 menerima data ID 432 waktu terima 2020-01-22 10:28:04.662
D/DATA VITAL: 2020-01-22 10:28:02.070 menerima data ID 436 waktu terima 2020-01-22 10:28:04.744
D/DATA VITAL: 2020-01-22 10:28:02.229 menerima data ID 438 waktu terima 2020-01-22 10:28:04.786
D/DATA VITAL: 2020-01-22 10:28:02.384 menerima data ID 444 waktu terima 2020-01-22 10:28:04.850
D/DATA VITAL: 2020-01-22 10:28:02.534 menerima data ID 448 waktu terima 2020-01-22 10:28:04.913
D/DATA VITAL: 2020-01-22 10:28:02.685 menerima data ID 450 waktu terima 2020-01-22 10:28:04.960
D/DATA VITAL: 2020-01-22 10:28:02.843 menerima data ID 454 waktu terima 2020-01-22 10:28:05.016
D/DATA VITAL: 2020-01-22 10:28:02.997 menerima data ID 460 waktu terima 2020-01-22 10:28:05.084
D/DATA VITAL: 2020-01-22 10:28:03.148 menerima data ID 464 waktu terima 2020-01-22 10:28:05.144
D/DATA VITAL: 2020-01-22 10:28:03.291 menerima data ID 468 waktu terima 2020-01-22 10:28:05.219
D/DATA VITAL: 2020-01-22 10:28:03.442 menerima data ID 472 waktu terima 2020-01-22 10:28:05.283
D/DATA VITAL: 2020-01-22 10:28:03.594 menerima data ID 476 waktu terima 2020-01-22 10:28:05.349
D/DATA VITAL: 2020-01-22 10:28:03.743 menerima data ID 480 waktu terima 2020-01-22 10:28:05.432
D/DATA VITAL: 2020-01-22 10:28:03.894 menerima data ID 482 waktu terima 2020-01-22 10:28:05.488
D/DATA VITAL: 2020-01-22 10:28:04.104 menerima data ID 488 waktu terima 2020-01-22 10:28:05.517
D/DATA VITAL: 2020-01-22 10:28:04.244 menerima data ID 490 waktu terima 2020-01-22 10:28:05.572
D/DATA VITAL: 2020-01-22 10:28:04.381 menerima data ID 496 waktu terima 2020-01-22 10:28:05.646
D/DATA VITAL: 2020-01-22 10:28:04.513 menerima data ID 500 waktu terima 2020-01-22 10:28:05.691
D/DATA VITAL: 2020-01-22 10:28:04.655 menerima data ID 502 waktu terima 2020-01-22 10:28:05.731
D/DATA VITAL: 2020-01-22 10:28:04.805 menerima data ID 508 waktu terima 2020-01-22 10:28:05.783
D/DATA VITAL: 2020-01-22 10:28:04.965 menerima data ID 512 waktu terima 2020-01-22 10:28:05.861
D/DATA VITAL: 2020-01-22 10:28:05.111 menerima data ID 514 waktu terima 2020-01-22 10:28:05.910
D/DATA VITAL: 2020-01-22 10:28:05.240 menerima data ID 520 waktu terima 2020-01-22 10:28:05.976
D/DATA VITAL: 2020-01-22 10:28:05.392 menerima data ID 522 waktu terima 2020-01-22 10:28:06.026
D/DATA VITAL: 2020-01-22 10:28:05.542 menerima data ID 526 waktu terima 2020-01-22 10:28:06.089
D/DATA VITAL: 2020-01-22 10:28:05.684 menerima data ID 530 waktu terima 2020-01-22 10:28:06.311
D/DATA VITAL: 2020-01-22 10:28:05.841 menerima data ID 536 waktu terima 2020-01-22 10:28:06.770
D/DATA VITAL: 2020-01-22 10:28:05.997 menerima data ID 540 waktu terima 2020-01-22 10:28:06.825
D/DATA VITAL: 2020-01-22 10:28:06.149 menerima data ID 542 waktu terima 2020-01-22 10:28:07.272
D/DATA VITAL: 2020-01-22 10:28:06.295 menerima data ID 548 waktu terima 2020-01-22 10:28:07.705
D/DATA VITAL: 2020-01-22 10:28:06.426 menerima data ID 552 waktu terima 2020-01-22 10:28:07.774
D/DATA VITAL: 2020-01-22 10:28:06.553 menerima data ID 554 waktu terima 2020-01-22 10:28:08.227
D/DATA VITAL: 2020-01-22 10:28:06.704 menerima data ID 560 waktu terima 2020-01-22 10:28:08.695
D/DATA VITAL: 2020-01-22 10:28:06.835 menerima data ID 564 waktu terima 2020-01-22 10:28:08.754
D/DATA VITAL: 2020-01-22 10:28:06.975 menerima data ID 568 waktu terima 2020-01-22 10:28:09.204
D/DATA VITAL: 2020-01-22 10:28:07.112 menerima data ID 572 waktu terima 2020-01-22 10:28:09.669
D/DATA VITAL: 2020-01-22 10:28:07.262 menerima data ID 574 waktu terima 2020-01-22 10:28:09.700
D/DATA VITAL: 2020-01-22 10:28:07.411 menerima data ID 578 waktu terima 2020-01-22 10:28:10.134
D/DATA VITAL: 2020-01-22 10:28:07.557 menerima data ID 582 waktu terima 2020-01-22 10:28:10.592
D/DATA VITAL: 2020-01-22 10:28:07.672 menerima data ID 586 waktu terima 2020-01-22 10:28:10.652
D/DATA VITAL: 2020-01-22 10:28:07.788 menerima data ID 590 waktu terima 2020-01-22 10:28:10.706
D/DATA VITAL: 2020-01-22 10:28:07.908 menerima data ID 594 waktu terima 2020-01-22 10:28:10.765
D/DATA VITAL: 2020-01-22 10:28:08.033 menerima data ID 598 waktu terima 2020-01-22 10:28:10.815
D/DATA VITAL: 2020-01-22 10:28:08.156 menerima data ID 602 waktu terima 2020-01-22 10:28:10.867
D/DATA VITAL: 2020-01-22 10:28:08.281 menerima data ID 606 waktu terima 2020-01-22 10:28:10.923
D/DATA VITAL: 2020-01-22 10:28:08.406 menerima data ID 610 waktu terima 2020-01-22 10:28:10.981
D/DATA VITAL: 2020-01-22 10:28:08.538 menerima data ID 614 waktu terima 2020-01-22 10:28:11.035
D/DATA VITAL: 2020-01-22 10:28:08.662 menerima data ID 618 waktu terima 2020-01-22 10:28:11.091
D/DATA VITAL: 2020-01-22 10:28:08.784 menerima data ID 622 waktu terima 2020-01-22 10:28:11.154
D/DATA VITAL: 2020-01-22 10:28:08.899 menerima data ID 626 waktu terima 2020-01-22 10:28:11.207
D/DATA VITAL: 2020-01-22 10:28:09.038 menerima data ID 630 waktu terima 2020-01-22 10:28:11.278
D/DATA VITAL: 2020-01-22 10:28:09.154 menerima data ID 634 waktu terima 2020-01-22 10:28:11.346
D/DATA VITAL: 2020-01-22 10:28:09.276 menerima data ID 638 waktu terima 2020-01-22 10:28:11.408
D/DATA VITAL: 2020-01-22 10:28:09.400 menerima data ID 642 waktu terima 2020-01-22 10:28:11.471
D/DATA VITAL: 2020-01-22 10:28:09.522 menerima data ID 646 waktu terima 2020-01-22 10:28:11.531
D/DATA VITAL: 2020-01-22 10:28:09.645 menerima data ID 650 waktu terima 2020-01-22 10:28:11.589
D/DATA VITAL: 2020-01-22 10:28:09.767 menerima data ID 654 waktu terima 2020-01-22 10:28:11.637
D/DATA VITAL: 2020-01-22 10:28:09.891 menerima data ID 658 waktu terima 2020-01-22 10:28:11.688
D/DATA VITAL: 2020-01-22 10:28:10.012 menerima data ID 662 waktu terima 2020-01-22 10:28:11.747
D/DATA VITAL: 2020-01-22 10:28:10.134 menerima data ID 666 waktu terima 2020-01-22 10:28:11.797
D/DATA VITAL: 2020-01-22 10:28:10.259 menerima data ID 670 waktu terima 2020-01-22 10:28:11.854
D/DATA VITAL: 2020-01-22 10:28:10.393 menerima data ID 674 waktu terima 2020-01-22 10:28:11.899
D/DATA VITAL: 2020-01-22 10:28:10.517 menerima data ID 678 waktu terima 2020-01-22 10:28:11.948
D/DATA VITAL: 2020-01-22 10:28:10.637 menerima data ID 682 waktu terima 2020-01-22 10:28:11.994
D/DATA VITAL: 2020-01-22 10:28:10.760 menerima data ID 686 waktu terima 2020-01-22 10:28:12.045
D/DATA VITAL: 2020-01-22 10:28:10.881 menerima data ID 690 waktu terima 2020-01-22 10:28:12.100
D/DATA VITAL: 2020-01-22 10:28:11.001 menerima data ID 694 waktu terima 2020-01-22 10:28:12.154
D/DATA VITAL: 2020-01-22 10:28:11.119 menerima data ID 698 waktu terima 2020-01-22 10:28:12.201
D/DATA VITAL: 2020-01-22 10:28:11.241 menerima data ID 702 waktu terima 2020-01-22 10:28:12.258
D/DATA VITAL: 2020-01-22 10:28:11.368 menerima data ID 706 waktu terima 2020-01-22 10:28:12.302
D/DATA VITAL: 2020-01-22 10:28:11.492 menerima data ID 710 waktu terima 2020-01-22 10:28:12.532
D/DATA VITAL: 2020-01-22 10:28:11.613 menerima data ID 714 waktu terima 2020-01-22 10:28:12.984
