2020-01-23 08:18:47.732 | 0 | 2020-01-23 08:18:48.037 | ID 1 | TERIMA 23-Jan-2020 (08:18:49.324836)
2020-01-23 08:18:47.917 | 0 | 2020-01-23 08:18:48.480 | ID 5 | TERIMA 23-Jan-2020 (08:18:49.417447)
2020-01-23 08:18:48.050 | 0 | 2020-01-23 08:18:48.928 | ID 9 | TERIMA 23-Jan-2020 (08:18:49.481458)
2020-01-23 08:18:48.187 | 0 | 2020-01-23 08:18:49.020 | ID 15 | TERIMA 23-Jan-2020 (08:18:49.705447)
2020-01-23 08:18:48.329 | 0 | 2020-01-23 08:18:49.437 | ID 17 | TERIMA 23-Jan-2020 (08:18:50.040439)
2020-01-23 08:18:48.466 | 0 | 2020-01-23 08:18:49.892 | ID 21 | TERIMA 23-Jan-2020 (08:18:50.523434)
2020-01-23 08:18:48.606 | 0 | 2020-01-23 08:18:49.960 | ID 27 | TERIMA 23-Jan-2020 (08:18:50.857811)
2020-01-23 08:18:48.731 | 0 | 2020-01-23 08:18:50.386 | ID 31 | TERIMA 23-Jan-2020 (08:18:50.926438)
2020-01-23 08:18:48.861 | 0 | 2020-01-23 08:18:50.869 | ID 33 | TERIMA 23-Jan-2020 (08:18:51.532916)
2020-01-23 08:18:49.003 | 0 | 2020-01-23 08:18:50.935 | ID 37 | TERIMA 23-Jan-2020 (08:18:51.890440)
2020-01-23 08:18:49.152 | 0 | 2020-01-23 08:18:51.389 | ID 43 | TERIMA 23-Jan-2020 (08:18:51.988789)
2020-01-23 08:18:49.291 | 0 | 2020-01-23 08:18:51.785 | ID 47 | TERIMA 23-Jan-2020 (08:18:52.193417)
2020-01-23 08:18:49.410 | 0 | 2020-01-23 08:18:51.903 | ID 49 | TERIMA 23-Jan-2020 (08:18:52.526760)
2020-01-23 08:18:49.557 | 0 | 2020-01-23 08:18:52.351 | ID 55 | TERIMA 23-Jan-2020 (08:18:52.866832)
2020-01-23 08:18:49.675 | 0 | 2020-01-23 08:18:52.741 | ID 59 | TERIMA 23-Jan-2020 (08:18:53.202932)
2020-01-23 08:18:49.798 | 0 | 2020-01-23 08:18:52.848 | ID 61 | TERIMA 23-Jan-2020 (08:18:53.531861)
2020-01-23 08:18:49.941 | 0 | 2020-01-23 08:18:53.318 | ID 65 | TERIMA 23-Jan-2020 (08:18:53.878448)
2020-01-23 08:18:50.092 | 0 | 2020-01-23 08:18:53.689 | ID 71 | TERIMA 23-Jan-2020 (08:18:54.219469)
2020-01-23 08:18:50.226 | 0 | 2020-01-23 08:18:53.798 | ID 75 | TERIMA 23-Jan-2020 (08:18:54.556476)
2020-01-23 08:18:50.355 | 0 | 2020-01-23 08:18:54.246 | ID 79 | TERIMA 23-Jan-2020 (08:18:54.885854)
2020-01-23 08:18:50.493 | 0 | 2020-01-23 08:18:54.694 | ID 83 | TERIMA 23-Jan-2020 (08:18:55.223474)
2020-01-23 08:18:50.612 | 0 | 2020-01-23 08:18:54.792 | ID 87 | TERIMA 23-Jan-2020 (08:18:55.597842)
2020-01-23 08:18:50.737 | 0 | 2020-01-23 08:18:55.234 | ID 91 | TERIMA 23-Jan-2020 (08:18:55.996822)
2020-01-23 08:18:50.850 | 0 | 2020-01-23 08:18:55.645 | ID 95 | TERIMA 23-Jan-2020 (08:18:56.342820)
2020-01-23 08:18:50.971 | 0 | 2020-01-23 08:18:55.719 | ID 99 | TERIMA 23-Jan-2020 (08:18:56.416803)
2020-01-23 08:18:51.089 | 0 | 2020-01-23 08:18:56.175 | ID 103 | TERIMA 23-Jan-2020 (08:18:56.676490)
2020-01-23 08:18:51.206 | 0 | 2020-01-23 08:18:56.266 | ID 107 | TERIMA 23-Jan-2020 (08:18:57.000809)
2020-01-23 08:18:51.322 | 0 | 2020-01-23 08:18:56.358 | ID 111 | TERIMA 23-Jan-2020 (08:18:57.068426)
2020-01-23 08:18:51.443 | 0 | 2020-01-23 08:18:56.426 | ID 115 | TERIMA 23-Jan-2020 (08:18:57.131808)
2020-01-23 08:18:51.556 | 0 | 2020-01-23 08:18:56.501 | ID 119 | TERIMA 23-Jan-2020 (08:18:57.200430)
2020-01-23 08:18:51.671 | 0 | 2020-01-23 08:18:56.573 | ID 123 | TERIMA 23-Jan-2020 (08:18:57.337400)
2020-01-23 08:18:51.786 | 0 | 2020-01-23 08:18:56.650 | ID 127 | TERIMA 23-Jan-2020 (08:18:57.408444)
2020-01-23 08:18:51.902 | 0 | 2020-01-23 08:18:56.722 | ID 131 | TERIMA 23-Jan-2020 (08:18:57.496438)
2020-01-23 08:18:52.014 | 0 | 2020-01-23 08:18:56.802 | ID 135 | TERIMA 23-Jan-2020 (08:18:57.569842)
2020-01-23 08:18:52.127 | 0 | 2020-01-23 08:18:56.895 | ID 139 | TERIMA 23-Jan-2020 (08:18:57.684478)
2020-01-23 08:18:52.250 | 0 | 2020-01-23 08:18:56.974 | ID 143 | TERIMA 23-Jan-2020 (08:18:57.764807)
2020-01-23 08:18:52.368 | 0 | 2020-01-23 08:18:57.055 | ID 147 | TERIMA 23-Jan-2020 (08:18:57.835435)
2020-01-23 08:18:52.485 | 0 | 2020-01-23 08:18:57.138 | ID 151 | TERIMA 23-Jan-2020 (08:18:57.907083)
2020-01-23 08:18:52.604 | 0 | 2020-01-23 08:18:57.200 | ID 155 | TERIMA 23-Jan-2020 (08:18:57.977084)
2020-01-23 08:18:52.726 | 0 | 2020-01-23 08:18:57.285 | ID 159 | TERIMA 23-Jan-2020 (08:18:58.050061)
2020-01-23 08:18:52.844 | 0 | 2020-01-23 08:18:57.349 | ID 163 | TERIMA 23-Jan-2020 (08:18:58.122687)
2020-01-23 08:18:52.958 | 0 | 2020-01-23 08:18:57.418 | ID 167 | TERIMA 23-Jan-2020 (08:18:58.190021)
2020-01-23 08:18:53.075 | 0 | 2020-01-23 08:18:57.482 | ID 171 | TERIMA 23-Jan-2020 (08:18:58.354676)
2020-01-23 08:18:53.198 | 0 | 2020-01-23 08:18:57.551 | ID 175 | TERIMA 23-Jan-2020 (08:18:58.422660)
2020-01-23 08:18:53.315 | 0 | 2020-01-23 08:18:57.645 | ID 179 | TERIMA 23-Jan-2020 (08:18:58.486037)
2020-01-23 08:18:53.428 | 0 | 2020-01-23 08:18:57.727 | ID 183 | TERIMA 23-Jan-2020 (08:18:58.549664)
2020-01-23 08:18:53.545 | 0 | 2020-01-23 08:18:57.801 | ID 187 | TERIMA 23-Jan-2020 (08:18:58.636040)
2020-01-23 08:18:53.662 | 0 | 2020-01-23 08:18:57.872 | ID 191 | TERIMA 23-Jan-2020 (08:18:58.712679)
2020-01-23 08:18:53.774 | 0 | 2020-01-23 08:18:57.945 | ID 195 | TERIMA 23-Jan-2020 (08:18:58.789028)
2020-01-23 08:18:53.899 | 0 | 2020-01-23 08:18:58.002 | ID 199 | TERIMA 23-Jan-2020 (08:18:58.893996)
2020-01-23 08:18:54.017 | 0 | 2020-01-23 08:18:58.061 | ID 203 | TERIMA 23-Jan-2020 (08:18:58.963033)
2020-01-23 08:18:54.127 | 0 | 2020-01-23 08:18:58.111 | ID 207 | TERIMA 23-Jan-2020 (08:18:59.028069)
2020-01-23 08:18:54.243 | 0 | 2020-01-23 08:18:58.175 | ID 211 | TERIMA 23-Jan-2020 (08:18:59.096703)
2020-01-23 08:18:54.354 | 0 | 2020-01-23 08:18:58.247 | ID 215 | TERIMA 23-Jan-2020 (08:18:59.170091)
2020-01-23 08:18:54.465 | 0 | 2020-01-23 08:18:58.328 | ID 219 | TERIMA 23-Jan-2020 (08:18:59.235712)
2020-01-23 08:18:54.584 | 0 | 2020-01-23 08:18:58.405 | ID 223 | TERIMA 23-Jan-2020 (08:18:59.299682)
2020-01-23 08:18:54.712 | 0 | 2020-01-23 08:18:58.488 | ID 227 | TERIMA 23-Jan-2020 (08:18:59.370106)
2020-01-23 08:18:54.835 | 0 | 2020-01-23 08:18:58.534 | ID 231 | TERIMA 23-Jan-2020 (08:18:59.438735)
2020-01-23 08:18:54.947 | 0 | 2020-01-23 08:18:58.607 | ID 233 | TERIMA 23-Jan-2020 (08:18:59.505036)
2020-01-23 08:18:55.065 | 0 | 2020-01-23 08:18:58.714 | ID 237 | TERIMA 23-Jan-2020 (08:18:59.570095)
2020-01-23 08:18:55.201 | 0 | 2020-01-23 08:18:58.775 | ID 243 | TERIMA 23-Jan-2020 (08:18:59.652083)
2020-01-23 08:18:55.322 | 0 | 2020-01-23 08:18:58.843 | ID 245 | TERIMA 23-Jan-2020 (08:18:59.725679)
2020-01-23 08:18:55.448 | 0 | 2020-01-23 08:18:58.900 | ID 249 | TERIMA 23-Jan-2020 (08:18:59.791661)
2020-01-23 08:18:55.566 | 0 | 2020-01-23 08:18:58.976 | ID 253 | TERIMA 23-Jan-2020 (08:18:59.866706)
2020-01-23 08:18:55.718 | 0 | 2020-01-23 08:18:59.060 | ID 257 | TERIMA 23-Jan-2020 (08:18:59.936761)
2020-01-23 08:18:55.848 | 0 | 2020-01-23 08:18:59.187 | ID 261 | TERIMA 23-Jan-2020 (08:19:00.007889)
2020-01-23 08:18:55.985 | 0 | 2020-01-23 08:18:59.234 | ID 267 | TERIMA 23-Jan-2020 (08:19:00.079085)
2020-01-23 08:18:56.097 | 0 | 2020-01-23 08:18:59.345 | ID 269 | TERIMA 23-Jan-2020 (08:19:00.151095)
2020-01-23 08:18:56.234 | 0 | 2020-01-23 08:18:59.393 | ID 273 | TERIMA 23-Jan-2020 (08:19:00.221729)
2020-01-23 08:18:56.375 | 0 | 2020-01-23 08:18:59.501 | ID 279 | TERIMA 23-Jan-2020 (08:19:00.299102)
2020-01-23 08:18:56.519 | 0 | 2020-01-23 08:18:59.580 | ID 283 | TERIMA 23-Jan-2020 (08:19:00.377073)
2020-01-23 08:18:56.648 | 0 | 2020-01-23 08:18:59.641 | ID 287 | TERIMA 23-Jan-2020 (08:19:00.455091)
2020-01-23 08:18:56.766 | 0 | 2020-01-23 08:18:59.708 | ID 289 | TERIMA 23-Jan-2020 (08:19:00.525066)
2020-01-23 08:18:56.901 | 0 | 2020-01-23 08:18:59.758 | ID 293 | TERIMA 23-Jan-2020 (08:19:00.593695)
2020-01-23 08:18:57.041 | 0 | 2020-01-23 08:18:59.840 | ID 297 | TERIMA 23-Jan-2020 (08:19:00.660690)
2020-01-23 08:18:57.174 | 0 | 2020-01-23 08:18:59.912 | ID 301 | TERIMA 23-Jan-2020 (08:19:00.729701)
2020-01-23 08:18:57.310 | 0 | 2020-01-23 08:19:00.015 | ID 305 | TERIMA 23-Jan-2020 (08:19:00.802157)
2020-01-23 08:18:57.445 | 0 | 2020-01-23 08:19:00.094 | ID 311 | TERIMA 23-Jan-2020 (08:19:00.875724)
2020-01-23 08:18:57.563 | 0 | 2020-01-23 08:19:00.162 | ID 313 | TERIMA 23-Jan-2020 (08:19:00.951698)
2020-01-23 08:18:57.694 | 0 | 2020-01-23 08:19:00.213 | ID 319 | TERIMA 23-Jan-2020 (08:19:01.031718)
2020-01-23 08:18:57.814 | 0 | 2020-01-23 08:19:00.296 | ID 321 | TERIMA 23-Jan-2020 (08:19:01.098076)
2020-01-23 08:18:57.945 | 0 | 2020-01-23 08:19:00.343 | ID 327 | TERIMA 23-Jan-2020 (08:19:01.167699)
2020-01-23 08:18:58.063 | 0 | 2020-01-23 08:19:00.395 | ID 329 | TERIMA 23-Jan-2020 (08:19:01.237116)
2020-01-23 08:18:58.191 | 0 | 2020-01-23 08:19:00.490 | ID 333 | TERIMA 23-Jan-2020 (08:19:01.305687)
2020-01-23 08:18:58.321 | 0 | 2020-01-23 08:19:00.575 | ID 339 | TERIMA 23-Jan-2020 (08:19:01.377117)
2020-01-23 08:18:58.448 | 0 | 2020-01-23 08:19:00.620 | ID 343 | TERIMA 23-Jan-2020 (08:19:01.444652)
2020-01-23 08:18:58.565 | 0 | 2020-01-23 08:19:00.695 | ID 345 | TERIMA 23-Jan-2020 (08:19:01.524046)
2020-01-23 08:18:58.715 | 0 | 2020-01-23 08:19:00.943 | ID 349 | TERIMA 23-Jan-2020 (08:19:01.712042)
2020-01-23 08:18:58.846 | 0 | 2020-01-23 08:19:01.031 | ID 353 | TERIMA 23-Jan-2020 (08:19:01.797063)
2020-01-23 08:18:58.975 | 0 | 2020-01-23 08:19:01.088 | ID 359 | TERIMA 23-Jan-2020 (08:19:01.874020)
2020-01-23 08:18:59.093 | 0 | 2020-01-23 08:19:01.130 | ID 361 | TERIMA 23-Jan-2020 (08:19:01.946033)
2020-01-23 08:18:59.225 | 0 | 2020-01-23 08:19:01.205 | ID 367 | TERIMA 23-Jan-2020 (08:19:02.028671)
2020-01-23 08:18:59.344 | 0 | 2020-01-23 08:19:01.264 | ID 369 | TERIMA 23-Jan-2020 (08:19:02.105045)
2020-01-23 08:18:59.478 | 0 | 2020-01-23 08:19:01.323 | ID 375 | TERIMA 23-Jan-2020 (08:19:02.181015)
2020-01-23 08:18:59.607 | 0 | 2020-01-23 08:19:01.376 | ID 377 | TERIMA 23-Jan-2020 (08:19:02.280664)
2020-01-23 08:18:59.739 | 0 | 2020-01-23 08:19:01.453 | ID 381 | TERIMA 23-Jan-2020 (08:19:02.363667)
2020-01-23 08:18:59.861 | 0 | 2020-01-23 08:19:01.500 | ID 385 | TERIMA 23-Jan-2020 (08:19:02.442085)
2020-01-23 08:18:59.991 | 0 | 2020-01-23 08:19:01.550 | ID 391 | TERIMA 23-Jan-2020 (08:19:02.513075)
2020-01-23 08:19:00.119 | 0 | 2020-01-23 08:19:01.595 | ID 395 | TERIMA 23-Jan-2020 (08:19:02.578071)
2020-01-23 08:19:00.235 | 0 | 2020-01-23 08:19:01.639 | ID 397 | TERIMA 23-Jan-2020 (08:19:02.645108)
2020-01-23 08:19:00.369 | 0 | 2020-01-23 08:19:01.681 | ID 401 | TERIMA 23-Jan-2020 (08:19:02.730702)
2020-01-23 08:19:00.493 | 0 | 2020-01-23 08:19:01.743 | ID 407 | TERIMA 23-Jan-2020 (08:19:02.803129)
2020-01-23 08:19:00.617 | 0 | 2020-01-23 08:19:01.784 | ID 411 | TERIMA 23-Jan-2020 (08:19:02.880681)
2020-01-23 08:19:00.732 | 0 | 2020-01-23 08:19:01.846 | ID 413 | TERIMA 23-Jan-2020 (08:19:02.958668)
2020-01-23 08:19:00.855 | 0 | 2020-01-23 08:19:01.891 | ID 417 | TERIMA 23-Jan-2020 (08:19:03.042702)
2020-01-23 08:19:00.993 | 0 | 2020-01-23 08:19:01.978 | ID 421 | TERIMA 23-Jan-2020 (08:19:03.114069)
2020-01-23 08:19:01.132 | 0 | 2020-01-23 08:19:02.060 | ID 427 | TERIMA 23-Jan-2020 (08:19:03.193709)
2020-01-23 08:19:01.251 | 0 | 2020-01-23 08:19:02.123 | ID 431 | TERIMA 23-Jan-2020 (08:19:03.362118)
2020-01-23 08:19:01.365 | 0 | 2020-01-23 08:19:02.172 | ID 433 | TERIMA 23-Jan-2020 (08:19:03.438681)
2020-01-23 08:19:01.492 | 0 | 2020-01-23 08:19:02.263 | ID 437 | TERIMA 23-Jan-2020 (08:19:03.513685)
2020-01-23 08:19:01.627 | 0 | 2020-01-23 08:19:02.317 | ID 443 | TERIMA 23-Jan-2020 (08:19:03.587095)
2020-01-23 08:19:01.740 | 0 | 2020-01-23 08:19:02.371 | ID 445 | TERIMA 23-Jan-2020 (08:19:03.662715)
2020-01-23 08:19:01.870 | 0 | 2020-01-23 08:19:02.409 | ID 449 | TERIMA 23-Jan-2020 (08:19:03.739753)
2020-01-23 08:19:01.997 | 0 | 2020-01-23 08:19:02.453 | ID 453 | TERIMA 23-Jan-2020 (08:19:03.815732)
2020-01-23 08:19:02.131 | 0 | 2020-01-23 08:19:02.502 | ID 457 | TERIMA 23-Jan-2020 (08:19:03.882085)
2020-01-23 08:19:02.262 | 0 | 2020-01-23 08:19:02.553 | ID 463 | TERIMA 23-Jan-2020 (08:19:03.950717)
2020-01-23 08:19:02.382 | 0 | 2020-01-23 08:19:02.867 | ID 465 | TERIMA 23-Jan-2020 (08:19:04.030066)
2020-01-23 08:19:02.512 | 0 | 2020-01-23 08:19:02.913 | ID 469 | TERIMA 23-Jan-2020 (08:19:04.110109)
2020-01-23 08:19:02.626 | 0 | 2020-01-23 08:19:03.334 | ID 473 | TERIMA 23-Jan-2020 (08:19:04.186064)
2020-01-23 08:19:02.739 | 0 | 2020-01-23 08:19:03.786 | ID 477 | TERIMA 23-Jan-2020 (08:19:04.682734)
2020-01-23 08:19:02.854 | 0 | 2020-01-23 08:19:03.841 | ID 481 | TERIMA 23-Jan-2020 (08:19:05.006770)
2020-01-23 08:19:02.967 | 0 | 2020-01-23 08:19:04.303 | ID 485 | TERIMA 23-Jan-2020 (08:19:05.348071)
2020-01-23 08:19:03.082 | 0 | 2020-01-23 08:19:04.751 | ID 489 | TERIMA 23-Jan-2020 (08:19:05.424708)
2020-01-23 08:19:03.192 | 0 | 2020-01-23 08:19:04.800 | ID 493 | TERIMA 23-Jan-2020 (08:19:05.503063)
2020-01-23 08:19:03.305 | 0 | 2020-01-23 08:19:05.272 | ID 497 | TERIMA 23-Jan-2020 (08:19:05.683705)
2020-01-23 08:19:03.421 | 0 | 2020-01-23 08:19:05.323 | ID 501 | TERIMA 23-Jan-2020 (08:19:06.022099)
2020-01-23 08:19:03.537 | 0 | 2020-01-23 08:19:05.375 | ID 505 | TERIMA 23-Jan-2020 (08:19:06.089690)
2020-01-23 08:19:03.655 | 0 | 2020-01-23 08:19:05.418 | ID 509 | TERIMA 23-Jan-2020 (08:19:06.158709)
2020-01-23 08:19:03.771 | 0 | 2020-01-23 08:19:05.469 | ID 513 | TERIMA 23-Jan-2020 (08:19:06.230040)
2020-01-23 08:19:03.887 | 0 | 2020-01-23 08:19:05.531 | ID 517 | TERIMA 23-Jan-2020 (08:19:06.310732)
2020-01-23 08:19:04.005 | 0 | 2020-01-23 08:19:05.597 | ID 521 | TERIMA 23-Jan-2020 (08:19:06.391098)
2020-01-23 08:19:04.125 | 0 | 2020-01-23 08:19:05.683 | ID 525 | TERIMA 23-Jan-2020 (08:19:06.474705)
2020-01-23 08:19:04.270 | 0 | 2020-01-23 08:19:05.737 | ID 531 | TERIMA 23-Jan-2020 (08:19:06.562774)
2020-01-23 08:19:04.382 | 0 | 2020-01-23 08:19:05.794 | ID 535 | TERIMA 23-Jan-2020 (08:19:06.635739)
2020-01-23 08:19:04.498 | 0 | 2020-01-23 08:19:05.853 | ID 539 | TERIMA 23-Jan-2020 (08:19:06.714097)
2020-01-23 08:19:04.622 | 0 | 2020-01-23 08:19:05.918 | ID 543 | TERIMA 23-Jan-2020 (08:19:06.788059)
2020-01-23 08:19:04.752 | 0 | 2020-01-23 08:19:05.968 | ID 547 | TERIMA 23-Jan-2020 (08:19:06.862705)
2020-01-23 08:19:04.877 | 0 | 2020-01-23 08:19:06.018 | ID 549 | TERIMA 23-Jan-2020 (08:19:06.942099)
2020-01-23 08:19:04.999 | 0 | 2020-01-23 08:19:06.080 | ID 553 | TERIMA 23-Jan-2020 (08:19:07.021708)
2020-01-23 08:19:05.127 | 0 | 2020-01-23 08:19:06.146 | ID 557 | TERIMA 23-Jan-2020 (08:19:07.087681)
2020-01-23 08:19:05.251 | 0 | 2020-01-23 08:19:06.185 | ID 563 | TERIMA 23-Jan-2020 (08:19:07.156734)
2020-01-23 08:19:05.366 | 0 | 2020-01-23 08:19:06.247 | ID 565 | TERIMA 23-Jan-2020 (08:19:07.229197)
2020-01-23 08:19:05.494 | 0 | 2020-01-23 08:19:06.303 | ID 569 | TERIMA 23-Jan-2020 (08:19:07.336097)
2020-01-23 08:19:05.627 | 0 | 2020-01-23 08:19:06.340 | ID 575 | TERIMA 23-Jan-2020 (08:19:07.422689)
2020-01-23 08:19:05.747 | 0 | 2020-01-23 08:19:06.404 | ID 579 | TERIMA 23-Jan-2020 (08:19:07.504112)
2020-01-23 08:19:05.874 | 0 | 2020-01-23 08:19:06.463 | ID 583 | TERIMA 23-Jan-2020 (08:19:07.576093)
2020-01-23 08:19:05.998 | 0 | 2020-01-23 08:19:06.519 | ID 587 | TERIMA 23-Jan-2020 (08:19:07.643050)
2020-01-23 08:19:06.126 | 0 | 2020-01-23 08:19:06.569 | ID 591 | TERIMA 23-Jan-2020 (08:19:07.708072)
2020-01-23 08:19:06.245 | 0 | 2020-01-23 08:19:06.613 | ID 595 | TERIMA 23-Jan-2020 (08:19:07.779710)
2020-01-23 08:19:06.365 | 0 | 2020-01-23 08:19:06.660 | ID 597 | TERIMA 23-Jan-2020 (08:19:07.854038)
2020-01-23 08:19:06.490 | 0 | 2020-01-23 08:19:06.726 | ID 601 | TERIMA 23-Jan-2020 (08:19:07.923353)
2020-01-23 08:19:06.625 | 0 | 2020-01-23 08:19:06.754 | ID 607 | TERIMA 23-Jan-2020 (08:19:07.993944)
2020-01-23 08:19:06.747 | 0 | 2020-01-23 08:19:07.181 | ID 609 | TERIMA 23-Jan-2020 (08:19:08.072931)
2020-01-23 08:19:06.870 | 0 | 2020-01-23 08:19:07.639 | ID 613 | TERIMA 23-Jan-2020 (08:19:08.151305)
2020-01-23 08:19:06.996 | 0 | 2020-01-23 08:19:07.687 | ID 619 | TERIMA 23-Jan-2020 (08:19:08.227949)
2020-01-23 08:19:07.113 | 0 | 2020-01-23 08:19:07.732 | ID 621 | TERIMA 23-Jan-2020 (08:19:08.423912)
2020-01-23 08:19:07.234 | 0 | 2020-01-23 08:19:07.788 | ID 625 | TERIMA 23-Jan-2020 (08:19:08.494935)
2020-01-23 08:19:07.360 | 0 | 2020-01-23 08:19:07.833 | ID 631 | TERIMA 23-Jan-2020 (08:19:08.570358)
2020-01-23 08:19:07.472 | 0 | 2020-01-23 08:19:07.883 | ID 635 | TERIMA 23-Jan-2020 (08:19:08.643998)
2020-01-23 08:19:07.591 | 0 | 2020-01-23 08:19:07.929 | ID 637 | TERIMA 23-Jan-2020 (08:19:08.716370)
2020-01-23 08:19:07.735 | 0 | 2020-01-23 08:19:07.962 | ID 643 | TERIMA 23-Jan-2020 (08:19:08.804956)
2020-01-23 08:19:08.004 | 0 | 2020-01-23 08:19:08.129 | ID 651 | TERIMA 23-Jan-2020 (08:19:13.893371)
2020-01-23 08:19:08.130 | 0 | 2020-01-23 08:19:08.244 | ID 653 | TERIMA 23-Jan-2020 (08:19:14.017966)
2020-01-23 08:19:08.269 | 0 | 2020-01-23 08:19:08.414 | ID 657 | TERIMA 23-Jan-2020 (08:19:14.101988)
2020-01-23 08:19:08.400 | 0 | 2020-01-23 08:19:08.505 | ID 663 | TERIMA 23-Jan-2020 (08:19:14.172325)
2020-01-23 08:19:08.527 | 0 | 2020-01-23 08:19:08.674 | ID 665 | TERIMA 23-Jan-2020 (08:19:14.243389)
2020-01-23 08:19:08.660 | 0 | 2020-01-23 08:19:08.747 | ID 671 | TERIMA 23-Jan-2020 (08:19:14.312314)
2020-01-23 08:19:08.788 | 0 | 2020-01-23 08:19:08.918 | ID 673 | TERIMA 23-Jan-2020 (08:19:14.381343)
2020-01-23 08:19:08.926 | 0 | 2020-01-23 08:19:09.028 | ID 677 | TERIMA 23-Jan-2020 (08:19:14.449958)
2020-01-23 08:19:09.066 | 0 | 2020-01-23 08:19:09.179 | ID 683 | TERIMA 23-Jan-2020 (08:19:14.521320)
2020-01-23 08:19:09.194 | 0 | 2020-01-23 08:19:09.578 | ID 687 | TERIMA 23-Jan-2020 (08:19:14.590334)
2020-01-23 08:19:09.323 | 0 | 2020-01-23 08:19:10.036 | ID 689 | TERIMA 23-Jan-2020 (08:19:14.660951)
2020-01-23 08:19:09.457 | 0 | 2020-01-23 08:19:10.070 | ID 693 | TERIMA 23-Jan-2020 (08:19:14.732334)
2020-01-23 08:19:09.589 | 0 | 2020-01-23 08:19:10.554 | ID 697 | TERIMA 23-Jan-2020 (08:19:14.806052)
2020-01-23 08:19:09.726 | 0 | 2020-01-23 08:19:10.991 | ID 703 | TERIMA 23-Jan-2020 (08:19:14.874955)
2020-01-23 08:19:09.869 | 0 | 2020-01-23 08:19:11.047 | ID 707 | TERIMA 23-Jan-2020 (08:19:14.942987)
2020-01-23 08:19:09.992 | 0 | 2020-01-23 08:19:11.514 | ID 711 | TERIMA 23-Jan-2020 (08:19:15.008982)
2020-01-23 08:19:10.119 | 0 | 2020-01-23 08:19:11.935 | ID 713 | TERIMA 23-Jan-2020 (08:19:15.075959)
2020-01-23 08:19:10.252 | 0 | 2020-01-23 08:19:12.467 | ID 719 | TERIMA 23-Jan-2020 (08:19:15.146347)
