D/DATA STEP: 2020-01-22 21:33:31.876 menerima data ID 1 waktu terima 2020-01-22 21:33:32.345
D/DATA STEP: 2020-01-22 21:33:32.046 menerima data ID 5 waktu terima 2020-01-22 21:33:32.778
D/DATA STEP: 2020-01-22 21:33:32.215 menerima data ID 9 waktu terima 2020-01-22 21:33:33.226
D/DATA STEP: 2020-01-22 21:33:32.391 menerima data ID 15 waktu terima 2020-01-22 21:33:33.295
D/DATA STEP: 2020-01-22 21:33:32.570 menerima data ID 19 waktu terima 2020-01-22 21:33:33.756
D/DATA STEP: 2020-01-22 21:33:32.743 menerima data ID 23 waktu terima 2020-01-22 21:33:34.193
D/DATA STEP: 2020-01-22 21:33:32.949 menerima data ID 27 waktu terima 2020-01-22 21:33:34.282
D/DATA STEP: 2020-01-22 21:33:33.104 menerima data ID 31 waktu terima 2020-01-22 21:33:34.731
D/DATA STEP: 2020-01-22 21:33:33.265 menerima data ID 35 waktu terima 2020-01-22 21:33:35.156
D/DATA STEP: 2020-01-22 21:33:33.441 menerima data ID 39 waktu terima 2020-01-22 21:33:35.262
D/DATA STEP: 2020-01-22 21:33:33.587 menerima data ID 43 waktu terima 2020-01-22 21:33:35.689
D/DATA STEP: 2020-01-22 21:33:33.742 menerima data ID 47 waktu terima 2020-01-22 21:33:36.108
D/DATA STEP: 2020-01-22 21:33:33.900 menerima data ID 51 waktu terima 2020-01-22 21:33:36.586
D/DATA STEP: 2020-01-22 21:33:34.054 menerima data ID 53 waktu terima 2020-01-22 21:33:36.690
D/DATA STEP: 2020-01-22 21:33:34.228 menerima data ID 59 waktu terima 2020-01-22 21:33:36.750
D/DATA STEP: 2020-01-22 21:33:34.371 menerima data ID 61 waktu terima 2020-01-22 21:33:36.804
D/DATA STEP: 2020-01-22 21:33:34.554 menerima data ID 67 waktu terima 2020-01-22 21:33:36.856
D/DATA STEP: 2020-01-22 21:33:34.707 menerima data ID 69 waktu terima 2020-01-22 21:33:36.910
D/DATA STEP: 2020-01-22 21:33:34.881 menerima data ID 75 waktu terima 2020-01-22 21:33:36.972
D/DATA STEP: 2020-01-22 21:33:35.023 menerima data ID 77 waktu terima 2020-01-22 21:33:37.009
D/DATA STEP: 2020-01-22 21:33:35.187 menerima data ID 81 waktu terima 2020-01-22 21:33:37.086
D/DATA STEP: 2020-01-22 21:33:35.353 menerima data ID 87 waktu terima 2020-01-22 21:33:37.149
D/DATA STEP: 2020-01-22 21:33:35.517 menerima data ID 89 waktu terima 2020-01-22 21:33:37.189
D/DATA STEP: 2020-01-22 21:33:35.689 menerima data ID 95 waktu terima 2020-01-22 21:33:37.243
D/DATA STEP: 2020-01-22 21:33:35.838 menerima data ID 99 waktu terima 2020-01-22 21:33:37.291
D/DATA STEP: 2020-01-22 21:33:35.998 menerima data ID 103 waktu terima 2020-01-22 21:33:37.345
D/DATA STEP: 2020-01-22 21:33:36.157 menerima data ID 107 waktu terima 2020-01-22 21:33:37.415
D/DATA STEP: 2020-01-22 21:33:36.310 menerima data ID 111 waktu terima 2020-01-22 21:33:37.480
D/DATA STEP: 2020-01-22 21:33:36.456 menerima data ID 115 waktu terima 2020-01-22 21:33:37.507
D/DATA STEP: 2020-01-22 21:33:36.630 menerima data ID 117 waktu terima 2020-01-22 21:33:37.613
