2020-01-22 21:33:31.886 | -0.1356659,-0.21343994,0.0 | 2020-01-22 21:33:32.374 | ID 3 | TERIMA 22-Jan-2020 (21:33:33.058963)
2020-01-22 21:33:32.058 | 0.029266357,-0.165802,0.0 | 2020-01-22 21:33:32.805 | ID 7 | TERIMA 22-Jan-2020 (21:33:33.377210)
2020-01-22 21:33:32.210 | -0.14360046,-0.05645752,0.0 | 2020-01-22 21:33:32.838 | ID 11 | TERIMA 22-Jan-2020 (21:33:33.443225)
2020-01-22 21:33:32.377 | -0.072128296,-0.03630066,0.0 | 2020-01-22 21:33:33.259 | ID 13 | TERIMA 22-Jan-2020 (21:33:33.794842)
2020-01-22 21:33:32.560 | 0.04269409,-0.046676636,0.0 | 2020-01-22 21:33:33.738 | ID 17 | TERIMA 22-Jan-2020 (21:33:34.168809)
2020-01-22 21:33:32.751 | 0.10562134,-0.066223145,0.0 | 2020-01-22 21:33:33.790 | ID 21 | TERIMA 22-Jan-2020 (21:33:34.487202)
2020-01-22 21:33:32.909 | 0.027435303,-0.10409546,0.0 | 2020-01-22 21:33:34.249 | ID 25 | TERIMA 22-Jan-2020 (21:33:34.894233)
2020-01-22 21:33:33.071 | -0.025100708,-0.037521362,0.0 | 2020-01-22 21:33:34.682 | ID 29 | TERIMA 22-Jan-2020 (21:33:35.362225)
2020-01-22 21:33:33.231 | -0.095962524,0.037612915,0.0 | 2020-01-22 21:33:34.769 | ID 33 | TERIMA 22-Jan-2020 (21:33:35.683819)
2020-01-22 21:33:33.391 | -0.049545288,-0.017364502,0.0 | 2020-01-22 21:33:35.223 | ID 37 | TERIMA 22-Jan-2020 (21:33:36.000246)
2020-01-22 21:33:33.542 | 0.003616333,-0.09188843,0.0 | 2020-01-22 21:33:35.634 | ID 41 | TERIMA 22-Jan-2020 (21:33:36.065841)
2020-01-22 21:33:33.696 | -0.08862305,-0.12547302,0.0 | 2020-01-22 21:33:35.727 | ID 45 | TERIMA 22-Jan-2020 (21:33:36.334206)
2020-01-22 21:33:33.873 | -0.03303528,-0.028366089,0.0 | 2020-01-22 21:33:36.169 | ID 49 | TERIMA 22-Jan-2020 (21:33:36.752865)
2020-01-22 21:33:34.041 | 0.013381958,0.004623413,0.0 | 2020-01-22 21:33:36.675 | ID 55 | TERIMA 22-Jan-2020 (21:33:37.078864)
2020-01-22 21:33:34.212 | -0.09107971,-0.02407837,0.0 | 2020-01-22 21:33:36.737 | ID 57 | TERIMA 22-Jan-2020 (21:33:37.394821)
2020-01-22 21:33:34.368 | -0.006164551,0.013168335,0.0 | 2020-01-22 21:33:36.789 | ID 63 | TERIMA 22-Jan-2020 (21:33:37.466196)
2020-01-22 21:33:34.533 | 0.06958008,0.03883362,0.0 | 2020-01-22 21:33:36.833 | ID 65 | TERIMA 22-Jan-2020 (21:33:37.537831)
2020-01-22 21:33:34.704 | -0.0025024414,-0.00819397,0.0 | 2020-01-22 21:33:36.896 | ID 71 | TERIMA 22-Jan-2020 (21:33:37.609298)
2020-01-22 21:33:34.864 | 0.03842163,0.006454468,0.0 | 2020-01-22 21:33:36.959 | ID 73 | TERIMA 22-Jan-2020 (21:33:37.683887)
2020-01-22 21:33:35.042 | -0.021438599,-2.593994E-4,0.0 | 2020-01-22 21:33:37.027 | ID 79 | TERIMA 22-Jan-2020 (21:33:37.756832)
2020-01-22 21:33:35.184 | -0.03060913,-0.002090454,0.0 | 2020-01-22 21:33:37.068 | ID 83 | TERIMA 22-Jan-2020 (21:33:37.821190)
2020-01-22 21:33:35.339 | 0.05430603,0.026626587,0.0 | 2020-01-22 21:33:37.135 | ID 85 | TERIMA 22-Jan-2020 (21:33:37.890196)
2020-01-22 21:33:35.530 | 0.015213013,-8.8500977E-4,0.0 | 2020-01-22 21:33:37.202 | ID 91 | TERIMA 22-Jan-2020 (21:33:37.956839)
2020-01-22 21:33:35.678 | 0.087905884,0.05593872,0.0 | 2020-01-22 21:33:37.222 | ID 93 | TERIMA 22-Jan-2020 (21:33:38.020220)
2020-01-22 21:33:35.828 | -0.09901428,-0.011871338,0.0 | 2020-01-22 21:33:37.280 | ID 97 | TERIMA 22-Jan-2020 (21:33:38.085245)
2020-01-22 21:33:35.988 | -0.018997192,-0.0033111572,0.0 | 2020-01-22 21:33:37.332 | ID 101 | TERIMA 22-Jan-2020 (21:33:38.162244)
2020-01-22 21:33:36.144 | 0.05430603,0.021728516,0.0 | 2020-01-22 21:33:37.384 | ID 105 | TERIMA 22-Jan-2020 (21:33:38.239837)
2020-01-22 21:33:36.292 | -0.0067749023,-0.00819397,0.0 | 2020-01-22 21:33:37.465 | ID 109 | TERIMA 22-Jan-2020 (21:33:38.314853)
2020-01-22 21:33:36.450 | -0.021438599,-0.0033111572,0.0 | 2020-01-22 21:33:37.549 | ID 113 | TERIMA 22-Jan-2020 (21:33:38.383854)
2020-01-22 21:33:36.622 | -0.031814575,-0.0069885254,0.0 | 2020-01-22 21:33:37.598 | ID 119 | TERIMA 22-Jan-2020 (21:33:38.450820)
2020-01-22 21:33:36.795 | -0.063583374,-0.00819397,0.0 | 2020-01-22 21:33:37.640 | ID 121 | TERIMA 22-Jan-2020 (21:33:38.524847)
2020-01-22 21:33:36.929 | -6.713867E-4,0.008895874,0.0 | 2020-01-22 21:33:37.664 | ID 123 | TERIMA 22-Jan-2020 (21:33:38.611882)
2020-01-22 21:33:37.058 | 0.06958008,0.0052337646,0.0 | 2020-01-22 21:33:37.687 | ID 125 | TERIMA 22-Jan-2020 (21:33:38.687829)
2020-01-22 21:33:37.197 | 0.0592041,0.021728516,0.0 | 2020-01-22 21:33:37.708 | ID 127 | TERIMA 22-Jan-2020 (21:33:38.765229)
2020-01-22 21:33:37.327 | -0.047698975,0.007080078,0.0 | 2020-01-22 21:33:37.730 | ID 129 | TERIMA 22-Jan-2020 (21:33:38.841365)
2020-01-22 21:33:37.466 | -0.060531616,-0.004547119,0.0 | 2020-01-22 21:33:37.762 | ID 131 | TERIMA 22-Jan-2020 (21:33:38.913487)
2020-01-22 21:33:37.595 | 0.015213013,0.005218506,0.0 | 2020-01-22 21:33:37.796 | ID 133 | TERIMA 22-Jan-2020 (21:33:38.986269)
2020-01-22 21:33:37.727 | -0.0134887695,-0.0014801025,0.0 | 2020-01-22 21:33:38.039 | ID 135 | TERIMA 22-Jan-2020 (21:33:39.067835)
2020-01-22 21:33:37.858 | -0.017166138,-0.0027008057,0.0 | 2020-01-22 21:33:38.082 | ID 137 | TERIMA 22-Jan-2020 (21:33:39.139857)
2020-01-22 21:33:37.995 | -0.004333496,0.0015563965,0.0 | 2020-01-22 21:33:38.127 | ID 139 | TERIMA 22-Jan-2020 (21:33:39.213244)
2020-01-22 21:33:38.127 | -0.02935791,-0.007583618,0.0 | 2020-01-22 21:33:38.539 | ID 141 | TERIMA 22-Jan-2020 (21:33:39.298856)
2020-01-22 21:33:38.257 | -0.018371582,3.5095215E-4,0.0 | 2020-01-22 21:33:38.587 | ID 143 | TERIMA 22-Jan-2020 (21:33:39.399232)
2020-01-22 21:33:38.387 | -0.020828247,-2.593994E-4,0.0 | 2020-01-22 21:33:38.628 | ID 145 | TERIMA 22-Jan-2020 (21:33:39.471195)
2020-01-22 21:33:38.511 | -0.012878418,-0.0027008057,0.0 | 2020-01-22 21:33:38.670 | ID 147 | TERIMA 22-Jan-2020 (21:33:39.533861)
2020-01-22 21:33:38.637 | 0.0029907227,-2.593994E-4,0.0 | 2020-01-22 21:33:38.718 | ID 149 | TERIMA 22-Jan-2020 (21:33:39.595921)
2020-01-22 21:33:38.767 | -0.011047363,-8.69751E-4,0.0 | 2020-01-22 21:33:38.827 | ID 151 | TERIMA 22-Jan-2020 (21:33:40.103869)
2020-01-22 21:33:38.901 | -0.008605957,-0.0027008057,0.0 | 2020-01-22 21:33:38.960 | ID 153 | TERIMA 22-Jan-2020 (21:33:40.431225)
2020-01-22 21:33:39.042 | 0.02192688,0.008895874,0.0 | 2020-01-22 21:33:39.136 | ID 155 | TERIMA 22-Jan-2020 (21:33:40.505868)
2020-01-22 21:33:39.192 | -0.040985107,-0.00881958,0.0 | 2020-01-22 21:33:39.255 | ID 157 | TERIMA 22-Jan-2020 (21:33:40.583825)
2020-01-22 21:33:39.316 | -0.03425598,-0.003921509,0.0 | 2020-01-22 21:33:39.372 | ID 159 | TERIMA 22-Jan-2020 (21:33:40.648835)
2020-01-22 21:33:39.443 | -0.023880005,-0.0069885254,0.0 | 2020-01-22 21:33:39.517 | ID 161 | TERIMA 22-Jan-2020 (21:33:40.712910)
2020-01-22 21:33:39.571 | -0.0061798096,3.3569336E-4,0.0 | 2020-01-22 21:33:39.636 | ID 163 | TERIMA 22-Jan-2020 (21:33:40.789227)
2020-01-22 21:33:39.695 | -0.010437012,-0.003326416,0.0 | 2020-01-22 21:33:39.744 | ID 165 | TERIMA 22-Jan-2020 (21:33:40.864829)
2020-01-22 21:33:39.819 | -0.012878418,-0.0027008057,0.0 | 2020-01-22 21:33:39.894 | ID 167 | TERIMA 22-Jan-2020 (21:33:40.961244)
2020-01-22 21:33:39.949 | -0.015319824,-0.002090454,0.0 | 2020-01-22 21:33:40.034 | ID 169 | TERIMA 22-Jan-2020 (21:33:41.038873)
2020-01-22 21:33:40.090 | -0.006164551,-0.002090454,0.0 | 2020-01-22 21:33:40.461 | ID 171 | TERIMA 22-Jan-2020 (21:33:41.116915)
2020-01-22 21:33:40.226 | -0.004333496,-2.593994E-4,0.0 | 2020-01-22 21:33:40.509 | ID 173 | TERIMA 22-Jan-2020 (21:33:41.194865)
2020-01-22 21:33:40.352 | -0.010437012,-0.002105713,0.0 | 2020-01-22 21:33:40.915 | ID 175 | TERIMA 22-Jan-2020 (21:33:41.424829)
2020-01-22 21:33:40.479 | -0.018997192,-0.003921509,0.0 | 2020-01-22 21:33:40.977 | ID 177 | TERIMA 22-Jan-2020 (21:33:41.495012)
2020-01-22 21:33:40.607 | -0.026916504,-0.005142212,0.0 | 2020-01-22 21:33:41.015 | ID 179 | TERIMA 22-Jan-2020 (21:33:41.568219)
2020-01-22 21:33:40.737 | 0.81300354,0.74316406,0.0 | 2020-01-22 21:33:41.390 | ID 181 | TERIMA 22-Jan-2020 (21:33:41.825197)
2020-01-22 21:33:40.867 | -0.16255188,0.46276855,0.0 | 2020-01-22 21:33:41.452 | ID 183 | TERIMA 22-Jan-2020 (21:33:42.153219)
2020-01-22 21:33:40.991 | -0.993927,0.34976196,0.0 | 2020-01-22 21:33:41.496 | ID 185 | TERIMA 22-Jan-2020 (21:33:42.563240)
2020-01-22 21:33:41.118 | -0.4319458,0.10725403,0.0 | 2020-01-22 21:33:41.875 | ID 187 | TERIMA 22-Jan-2020 (21:33:42.895211)
2020-01-22 21:33:41.248 | -0.16377258,0.17077637,0.0 | 2020-01-22 21:33:42.373 | ID 189 | TERIMA 22-Jan-2020 (21:33:42.979888)
2020-01-22 21:33:41.375 | 0.3450775,0.4340515,0.0 | 2020-01-22 21:33:42.422 | ID 191 | TERIMA 22-Jan-2020 (21:33:43.058480)
2020-01-22 21:33:41.499 | 0.41227722,0.50737,0.0 | 2020-01-22 21:33:42.464 | ID 193 | TERIMA 22-Jan-2020 (21:33:43.137096)
2020-01-22 21:33:41.623 | 0.7115936,0.51408386,0.0 | 2020-01-22 21:33:42.863 | ID 195 | TERIMA 22-Jan-2020 (21:33:43.761113)
2020-01-22 21:33:41.747 | 1.0976562,0.40473938,0.0 | 2020-01-22 21:33:42.912 | ID 197 | TERIMA 22-Jan-2020 (21:33:44.085487)
2020-01-22 21:33:41.876 | 1.1202698,0.1481781,0.0 | 2020-01-22 21:33:42.947 | ID 199 | TERIMA 22-Jan-2020 (21:33:44.153472)
2020-01-22 21:33:42.002 | 0.85331726,-0.08027649,0.0 | 2020-01-22 21:33:43.333 | ID 201 | TERIMA 22-Jan-2020 (21:33:44.224090)
2020-01-22 21:33:42.142 | 0.15266418,0.6655731,0.0 | 2020-01-22 21:33:43.371 | ID 203 | TERIMA 22-Jan-2020 (21:33:44.414104)
2020-01-22 21:33:42.285 | 0.035369873,-0.025909424,0.0 | 2020-01-22 21:33:43.407 | ID 205 | TERIMA 22-Jan-2020 (21:33:44.483132)
2020-01-22 21:33:42.412 | 0.007873535,-0.0332489,0.0 | 2020-01-22 21:33:43.820 | ID 207 | TERIMA 22-Jan-2020 (21:33:44.552135)
2020-01-22 21:33:42.539 | -0.004928589,0.038223267,0.0 | 2020-01-22 21:33:43.864 | ID 209 | TERIMA 22-Jan-2020 (21:33:44.619489)
2020-01-22 21:33:42.666 | 0.035980225,0.09991455,0.0 | 2020-01-22 21:33:43.903 | ID 211 | TERIMA 22-Jan-2020 (21:33:44.692090)
2020-01-22 21:33:42.798 | 0.017669678,0.04005432,0.0 | 2020-01-22 21:33:44.296 | ID 213 | TERIMA 22-Jan-2020 (21:33:44.856116)
2020-01-22 21:33:42.923 | 0.024368286,-0.0014801025,0.0 | 2020-01-22 21:33:44.336 | ID 215 | TERIMA 22-Jan-2020 (21:33:45.188112)
2020-01-22 21:33:43.050 | -0.0025024414,-0.009429932,0.0 | 2020-01-22 21:33:44.370 | ID 217 | TERIMA 22-Jan-2020 (21:33:45.266464)
2020-01-22 21:33:43.183 | 0.024978638,-0.0027008057,0.0 | 2020-01-22 21:33:44.778 | ID 219 | TERIMA 22-Jan-2020 (21:33:45.513505)
2020-01-22 21:33:43.327 | 0.017654419,-0.0027008057,0.0 | 2020-01-22 21:33:44.822 | ID 221 | TERIMA 22-Jan-2020 (21:33:45.586493)
2020-01-22 21:33:43.457 | 0.025604248,-0.010650635,0.0 | 2020-01-22 21:33:44.857 | ID 223 | TERIMA 22-Jan-2020 (21:33:45.655484)
2020-01-22 21:33:43.586 | 0.01826477,-0.007583618,0.0 | 2020-01-22 21:33:45.262 | ID 225 | TERIMA 22-Jan-2020 (21:33:45.838471)
2020-01-22 21:33:43.712 | 0.024368286,0.0021820068,0.0 | 2020-01-22 21:33:45.300 | ID 227 | TERIMA 22-Jan-2020 (21:33:45.911479)
2020-01-22 21:33:43.838 | -0.022659302,0.0021820068,0.0 | 2020-01-22 21:33:45.335 | ID 229 | TERIMA 22-Jan-2020 (21:33:45.989475)
2020-01-22 21:33:43.965 | 0.06285095,0.089538574,0.0 | 2020-01-22 21:33:45.749 | ID 231 | TERIMA 22-Jan-2020 (21:33:46.498095)
2020-01-22 21:33:44.103 | 0.23512268,0.061431885,0.0 | 2020-01-22 21:33:45.798 | ID 233 | TERIMA 22-Jan-2020 (21:33:46.828497)
2020-01-22 21:33:44.240 | -0.026947021,-0.094329834,0.0 | 2020-01-22 21:33:45.834 | ID 235 | TERIMA 22-Jan-2020 (21:33:46.898090)
2020-01-22 21:33:44.361 | -0.06602478,-0.16090393,0.0 | 2020-01-22 21:33:46.220 | ID 237 | TERIMA 22-Jan-2020 (21:33:46.986190)
2020-01-22 21:33:44.490 | -0.048324585,-0.051574707,0.0 | 2020-01-22 21:33:46.259 | ID 239 | TERIMA 22-Jan-2020 (21:33:47.057177)
2020-01-22 21:33:44.631 | -0.07336426,0.034561157,0.0 | 2020-01-22 21:33:46.297 | ID 241 | TERIMA 22-Jan-2020 (21:33:47.129520)
2020-01-22 21:33:44.760 | 0.11172485,0.12007141,0.0 | 2020-01-22 21:33:46.708 | ID 243 | TERIMA 22-Jan-2020 (21:33:47.208478)
2020-01-22 21:33:44.883 | 0.1453247,0.041900635,0.0 | 2020-01-22 21:33:46.749 | ID 245 | TERIMA 22-Jan-2020 (21:33:47.283450)
2020-01-22 21:33:45.009 | -0.029388428,-0.14564514,0.0 | 2020-01-22 21:33:46.788 | ID 247 | TERIMA 22-Jan-2020 (21:33:47.675071)
2020-01-22 21:33:45.137 | -0.07029724,-0.08761597,0.0 | 2020-01-22 21:33:47.185 | ID 249 | TERIMA 22-Jan-2020 (21:33:48.001482)
2020-01-22 21:33:45.260 | -6.1035156E-5,-0.016143799,0.0 | 2020-01-22 21:33:47.225 | ID 251 | TERIMA 22-Jan-2020 (21:33:48.069506)
2020-01-22 21:33:45.384 | -0.12588501,0.006454468,0.0 | 2020-01-22 21:33:47.258 | ID 253 | TERIMA 22-Jan-2020 (21:33:48.148141)
2020-01-22 21:33:45.513 | -0.1356659,-0.037521362,0.0 | 2020-01-22 21:33:47.293 | ID 255 | TERIMA 22-Jan-2020 (21:33:48.228116)
2020-01-22 21:33:45.637 | 0.029266357,0.08403015,0.0 | 2020-01-22 21:33:47.334 | ID 257 | TERIMA 22-Jan-2020 (21:33:48.306498)
2020-01-22 21:33:45.761 | -0.020828247,0.022964478,0.0 | 2020-01-22 21:33:47.378 | ID 259 | TERIMA 22-Jan-2020 (21:33:48.376105)
2020-01-22 21:33:45.894 | -0.09718323,-0.019805908,0.0 | 2020-01-22 21:33:47.414 | ID 261 | TERIMA 22-Jan-2020 (21:33:48.450449)
2020-01-22 21:33:46.017 | -0.08496094,-0.013092041,0.0 | 2020-01-22 21:33:47.445 | ID 263 | TERIMA 22-Jan-2020 (21:33:48.528490)
2020-01-22 21:33:46.142 | -0.038528442,0.011962891,0.0 | 2020-01-22 21:33:47.489 | ID 265 | TERIMA 22-Jan-2020 (21:33:48.613502)
2020-01-22 21:33:46.271 | -0.07397461,-0.011260986,0.0 | 2020-01-22 21:33:47.525 | ID 267 | TERIMA 22-Jan-2020 (21:33:48.699107)
2020-01-22 21:33:46.402 | -0.051986694,-0.02835083,0.0 | 2020-01-22 21:33:47.556 | ID 269 | TERIMA 22-Jan-2020 (21:33:48.768494)
2020-01-22 21:33:46.526 | 0.028656006,0.0027923584,0.0 | 2020-01-22 21:33:47.592 | ID 271 | TERIMA 22-Jan-2020 (21:33:48.838468)
2020-01-22 21:33:46.654 | -0.12956238,-0.0027160645,0.0 | 2020-01-22 21:33:47.628 | ID 273 | TERIMA 22-Jan-2020 (21:33:48.910497)
2020-01-22 21:33:46.780 | -0.088012695,0.01928711,0.0 | 2020-01-22 21:33:47.660 | ID 275 | TERIMA 22-Jan-2020 (21:33:48.989077)
2020-01-22 21:33:46.904 | -0.011672974,-8.8500977E-4,0.0 | 2020-01-22 21:33:47.698 | ID 277 | TERIMA 22-Jan-2020 (21:33:49.068470)
2020-01-22 21:33:47.028 | 0.0036010742,0.0021820068,0.0 | 2020-01-22 21:33:47.733 | ID 279 | TERIMA 22-Jan-2020 (21:33:49.137096)
2020-01-22 21:33:47.154 | 0.0036010742,3.5095215E-4,0.0 | 2020-01-22 21:33:47.772 | ID 281 | TERIMA 22-Jan-2020 (21:33:49.237483)
2020-01-22 21:33:47.281 | 0.002380371,9.613037E-4,0.0 | 2020-01-22 21:33:47.807 | ID 283 | TERIMA 22-Jan-2020 (21:33:49.313094)
2020-01-22 21:33:47.406 | -6.1035156E-5,9.613037E-4,0.0 | 2020-01-22 21:33:47.847 | ID 285 | TERIMA 22-Jan-2020 (21:33:49.385514)
2020-01-22 21:33:47.532 | -0.0049591064,-2.593994E-4,0.0 | 2020-01-22 21:33:47.887 | ID 287 | TERIMA 22-Jan-2020 (21:33:49.463446)
2020-01-22 21:33:47.658 | 5.493164E-4,-8.8500977E-4,0.0 | 2020-01-22 21:33:48.140 | ID 289 | TERIMA 22-Jan-2020 (21:33:49.530155)
2020-01-22 21:33:47.783 | 0.0036010742,3.5095215E-4,0.0 | 2020-01-22 21:33:48.188 | ID 291 | TERIMA 22-Jan-2020 (21:33:49.601436)
2020-01-22 21:33:47.908 | -0.003112793,-8.69751E-4,0.0 | 2020-01-22 21:33:48.226 | ID 293 | TERIMA 22-Jan-2020 (21:33:49.664132)
2020-01-22 21:33:48.035 | -0.008605957,9.613037E-4,0.0 | 2020-01-22 21:33:48.625 | ID 295 | TERIMA 22-Jan-2020 (21:33:49.729485)
2020-01-22 21:33:48.160 | -0.004333496,3.5095215E-4,0.0 | 2020-01-22 21:33:48.664 | ID 297 | TERIMA 22-Jan-2020 (21:33:49.802455)
2020-01-22 21:33:48.289 | 0.001159668,-2.593994E-4,0.0 | 2020-01-22 21:33:48.694 | ID 299 | TERIMA 22-Jan-2020 (21:33:49.899088)
2020-01-22 21:33:48.427 | -0.022659302,0.0015563965,0.0 | 2020-01-22 21:33:49.104 | ID 301 | TERIMA 22-Jan-2020 (21:33:49.969495)
2020-01-22 21:33:48.551 | -0.0134887695,0.0015563965,0.0 | 2020-01-22 21:33:49.146 | ID 303 | TERIMA 22-Jan-2020 (21:33:50.040491)
2020-01-22 21:33:48.677 | 0.006652832,0.0015563965,0.0 | 2020-01-22 21:33:49.179 | ID 305 | TERIMA 22-Jan-2020 (21:33:50.111100)
2020-01-22 21:33:48.802 | 0.012161255,-8.69751E-4,0.0 | 2020-01-22 21:33:49.575 | ID 307 | TERIMA 22-Jan-2020 (21:33:50.256143)
2020-01-22 21:33:48.928 | 0.020706177,9.613037E-4,0.0 | 2020-01-22 21:33:49.609 | ID 309 | TERIMA 22-Jan-2020 (21:33:50.325471)
2020-01-22 21:33:49.052 | 0.0060424805,3.3569336E-4,0.0 | 2020-01-22 21:33:49.642 | ID 311 | TERIMA 22-Jan-2020 (21:33:50.394509)
2020-01-22 21:33:49.178 | -0.003112793,0.0015563965,0.0 | 2020-01-22 21:33:50.060 | ID 313 | TERIMA 22-Jan-2020 (21:33:50.795496)
2020-01-22 21:33:49.309 | -0.004333496,0.0015716553,0.0 | 2020-01-22 21:33:50.106 | ID 315 | TERIMA 22-Jan-2020 (21:33:51.112452)
2020-01-22 21:33:49.435 | 0.013366699,0.0021820068,0.0 | 2020-01-22 21:33:50.139 | ID 317 | TERIMA 22-Jan-2020 (21:33:51.180104)
2020-01-22 21:33:49.561 | 0.0072784424,9.613037E-4,0.0 | 2020-01-22 21:33:50.539 | ID 319 | TERIMA 22-Jan-2020 (21:33:51.245110)
2020-01-22 21:33:49.691 | 0.0072631836,-2.593994E-4,0.0 | 2020-01-22 21:33:50.583 | ID 321 | TERIMA 22-Jan-2020 (21:33:51.313084)
2020-01-22 21:33:49.816 | -0.0049438477,0.0015563965,0.0 | 2020-01-22 21:33:50.624 | ID 323 | TERIMA 22-Jan-2020 (21:33:51.385483)
2020-01-22 21:33:49.942 | 0.25527954,-0.3240204,0.0 | 2020-01-22 21:33:51.033 | ID 325 | TERIMA 22-Jan-2020 (21:33:51.492523)
2020-01-22 21:33:50.081 | 0.2778778,3.6621094E-4,0.0 | 2020-01-22 21:33:51.066 | ID 327 | TERIMA 22-Jan-2020 (21:33:51.813467)
2020-01-22 21:33:50.221 | 0.2436676,0.19949341,0.0 | 2020-01-22 21:33:51.103 | ID 329 | TERIMA 22-Jan-2020 (21:33:51.896099)
2020-01-22 21:33:50.374 | -0.39224243,0.00340271,0.0 | 2020-01-22 21:33:51.135 | ID 331 | TERIMA 22-Jan-2020 (21:33:51.965106)
2020-01-22 21:33:50.512 | -0.029388428,-0.015533447,0.0 | 2020-01-22 21:33:51.170 | ID 333 | TERIMA 22-Jan-2020 (21:33:52.035472)
2020-01-22 21:33:50.640 | -0.15765381,0.077926636,0.0 | 2020-01-22 21:33:51.202 | ID 335 | TERIMA 22-Jan-2020 (21:33:52.107143)
2020-01-22 21:33:50.764 | -0.36413574,0.31982422,0.0 | 2020-01-22 21:33:51.230 | ID 337 | TERIMA 22-Jan-2020 (21:33:52.175090)
2020-01-22 21:33:50.889 | -0.45635986,0.37174988,0.0 | 2020-01-22 21:33:51.258 | ID 339 | TERIMA 22-Jan-2020 (21:33:52.243158)
2020-01-22 21:33:51.026 | -0.40078735,0.20742798,0.0 | 2020-01-22 21:33:51.499 | ID 341 | TERIMA 22-Jan-2020 (21:33:52.310168)
2020-01-22 21:33:51.158 | -0.0079956055,0.6399231,0.0 | 2020-01-22 21:33:51.535 | ID 343 | TERIMA 22-Jan-2020 (21:33:52.377531)
2020-01-22 21:33:51.283 | -0.9010773,0.022338867,0.0 | 2020-01-22 21:33:51.572 | ID 345 | TERIMA 22-Jan-2020 (21:33:52.448103)
2020-01-22 21:33:51.414 | 0.048812866,-0.31118774,0.0 | 2020-01-22 21:33:51.994 | ID 347 | TERIMA 22-Jan-2020 (21:33:52.516589)
2020-01-22 21:33:51.538 | 5.493164E-4,0.0021820068,0.0 | 2020-01-22 21:33:52.032 | ID 349 | TERIMA 22-Jan-2020 (21:33:52.584498)
2020-01-22 21:33:51.663 | -0.015945435,-0.003326416,0.0 | 2020-01-22 21:33:52.065 | ID 351 | TERIMA 22-Jan-2020 (21:33:52.651121)
2020-01-22 21:33:51.788 | -0.0037231445,-2.593994E-4,0.0 | 2020-01-22 21:33:52.477 | ID 353 | TERIMA 22-Jan-2020 (21:33:53.207372)
2020-01-22 21:33:51.913 | 0.0017700195,-2.593994E-4,0.0 | 2020-01-22 21:33:52.516 | ID 355 | TERIMA 22-Jan-2020 (21:33:53.526803)
2020-01-22 21:33:52.037 | -0.0025177002,0.0015716553,0.0 | 2020-01-22 21:33:52.556 | ID 357 | TERIMA 22-Jan-2020 (21:33:53.651312)
2020-01-22 21:33:52.165 | -0.004333496,-8.8500977E-4,0.0 | 2020-01-22 21:33:52.935 | ID 359 | TERIMA 22-Jan-2020 (21:33:53.721365)
2020-01-22 21:33:52.296 | -0.0012817383,0.0015716553,0.0 | 2020-01-22 21:33:52.970 | ID 361 | TERIMA 22-Jan-2020 (21:33:53.790359)
2020-01-22 21:33:52.426 | 0.0054473877,9.613037E-4,0.0 | 2020-01-22 21:33:53.009 | ID 363 | TERIMA 22-Jan-2020 (21:33:53.855388)
2020-01-22 21:33:52.554 | -0.005554199,-0.0014801025,0.0 | 2020-01-22 21:33:53.425 | ID 365 | TERIMA 22-Jan-2020 (21:33:53.925772)
2020-01-22 21:33:52.679 | 0.002380371,0.0027770996,0.0 | 2020-01-22 21:33:53.471 | ID 367 | TERIMA 22-Jan-2020 (21:33:54.175713)
2020-01-22 21:33:52.804 | 0.004211426,-8.69751E-4,0.0 | 2020-01-22 21:33:53.503 | ID 369 | TERIMA 22-Jan-2020 (21:33:54.244710)
2020-01-22 21:33:52.929 | 0.002380371,-8.69751E-4,0.0 | 2020-01-22 21:33:53.898 | ID 371 | TERIMA 22-Jan-2020 (21:33:54.629360)
2020-01-22 21:33:53.062 | 0.20518494,-0.011871338,0.0 | 2020-01-22 21:33:54.376 | ID 373 | TERIMA 22-Jan-2020 (21:33:54.950364)
2020-01-22 21:33:53.186 | 0.13920593,-0.07600403,0.0 | 2020-01-22 21:33:54.411 | ID 375 | TERIMA 22-Jan-2020 (21:33:55.015803)
2020-01-22 21:33:53.308 | -0.07640076,0.016220093,0.0 | 2020-01-22 21:33:54.441 | ID 377 | TERIMA 22-Jan-2020 (21:33:55.080433)
2020-01-22 21:33:53.435 | 0.18807983,0.0052337646,0.0 | 2020-01-22 21:33:54.853 | ID 379 | TERIMA 22-Jan-2020 (21:33:55.283396)
2020-01-22 21:33:53.562 | 0.076293945,0.04676819,0.0 | 2020-01-22 21:33:54.888 | ID 381 | TERIMA 22-Jan-2020 (21:33:55.611753)
2020-01-22 21:33:53.684 | 0.021942139,0.0315094,0.0 | 2020-01-22 21:33:54.927 | ID 383 | TERIMA 22-Jan-2020 (21:33:55.678354)
2020-01-22 21:33:53.806 | -0.16072083,-0.022262573,0.0 | 2020-01-22 21:33:55.788 | ID 385 | TERIMA 22-Jan-2020 (21:33:56.526724)
2020-01-22 21:33:53.928 | -0.37390137,-0.0332489,0.0 | 2020-01-22 21:33:55.833 | ID 387 | TERIMA 22-Jan-2020 (21:33:56.852683)
2020-01-22 21:33:54.051 | -0.14849854,-0.027145386,0.0 | 2020-01-22 21:33:55.876 | ID 389 | TERIMA 22-Jan-2020 (21:33:56.921341)
2020-01-22 21:33:54.174 | 0.02619934,0.0021820068,0.0 | 2020-01-22 21:33:56.273 | ID 391 | TERIMA 22-Jan-2020 (21:33:56.988769)
2020-01-22 21:33:54.300 | 0.031097412,0.018066406,0.0 | 2020-01-22 21:33:56.325 | ID 393 | TERIMA 22-Jan-2020 (21:33:57.053361)
2020-01-22 21:33:54.434 | 0.20884705,0.0040283203,0.0 | 2020-01-22 21:33:56.351 | ID 395 | TERIMA 22-Jan-2020 (21:33:57.120806)
2020-01-22 21:33:54.560 | -0.0012817383,9.613037E-4,0.0 | 2020-01-22 21:33:56.749 | ID 397 | TERIMA 22-Jan-2020 (21:33:57.188781)
2020-01-22 21:33:54.684 | 0.011550903,0.005844116,0.0 | 2020-01-22 21:33:56.798 | ID 399 | TERIMA 22-Jan-2020 (21:33:57.544366)
2020-01-22 21:33:54.810 | -0.0018920898,-0.003921509,0.0 | 2020-01-22 21:33:56.830 | ID 401 | TERIMA 22-Jan-2020 (21:33:57.869747)
2020-01-22 21:33:54.938 | -0.010437012,-0.002105713,0.0 | 2020-01-22 21:33:57.224 | ID 403 | TERIMA 22-Jan-2020 (21:33:57.939775)
2020-01-22 21:33:55.059 | -0.020828247,-0.010650635,0.0 | 2020-01-22 21:33:57.260 | ID 405 | TERIMA 22-Jan-2020 (21:33:58.008708)
2020-01-22 21:33:55.184 | 0.017044067,-0.003921509,0.0 | 2020-01-22 21:33:57.295 | ID 407 | TERIMA 22-Jan-2020 (21:33:58.078355)
2020-01-22 21:33:55.311 | -0.005554199,0.0015563965,0.0 | 2020-01-22 21:33:57.702 | ID 409 | TERIMA 22-Jan-2020 (21:33:58.193355)
2020-01-22 21:33:55.436 | -0.0037231445,0.004623413,0.0 | 2020-01-22 21:33:57.745 | ID 411 | TERIMA 22-Jan-2020 (21:33:58.261789)
2020-01-22 21:33:55.561 | 0.0054473877,0.004623413,0.0 | 2020-01-22 21:33:57.776 | ID 413 | TERIMA 22-Jan-2020 (21:33:58.521770)
2020-01-22 21:33:55.686 | -0.009841919,-8.69751E-4,0.0 | 2020-01-22 21:33:58.185 | ID 415 | TERIMA 22-Jan-2020 (21:33:58.840365)
2020-01-22 21:33:55.813 | -0.008605957,-2.593994E-4,0.0 | 2020-01-22 21:33:58.227 | ID 417 | TERIMA 22-Jan-2020 (21:33:58.908760)
2020-01-22 21:33:55.938 | -0.0074005127,-8.8500977E-4,0.0 | 2020-01-22 21:33:58.258 | ID 419 | TERIMA 22-Jan-2020 (21:33:58.981729)
2020-01-22 21:33:56.097 | 0.031707764,0.0027923584,0.0 | 2020-01-22 21:33:58.665 | ID 421 | TERIMA 22-Jan-2020 (21:33:59.165380)
2020-01-22 21:33:56.221 | 0.027420044,0.015609741,0.0 | 2020-01-22 21:33:58.713 | ID 423 | TERIMA 22-Jan-2020 (21:33:59.493349)
2020-01-22 21:33:56.348 | 0.17524719,-0.02835083,0.0 | 2020-01-22 21:33:58.750 | ID 425 | TERIMA 22-Jan-2020 (21:33:59.580362)
2020-01-22 21:33:56.476 | 0.035980225,-0.022247314,0.0 | 2020-01-22 21:33:59.146 | ID 427 | TERIMA 22-Jan-2020 (21:33:59.827737)
2020-01-22 21:33:56.608 | -0.16438293,0.038223267,0.0 | 2020-01-22 21:33:59.186 | ID 429 | TERIMA 22-Jan-2020 (21:33:59.916429)
2020-01-22 21:33:56.738 | 0.023162842,0.010131836,0.0 | 2020-01-22 21:33:59.222 | ID 431 | TERIMA 22-Jan-2020 (21:33:59.987379)
2020-01-22 21:33:56.867 | 0.031707764,0.0345459,0.0 | 2020-01-22 21:33:59.624 | ID 433 | TERIMA 22-Jan-2020 (21:34:00.237363)
2020-01-22 21:33:56.992 | 0.06530762,-0.03630066,0.0 | 2020-01-22 21:33:59.666 | ID 435 | TERIMA 22-Jan-2020 (21:34:00.556739)
2020-01-22 21:33:57.130 | 0.029876709,-0.05218506,0.0 | 2020-01-22 21:33:59.692 | ID 437 | TERIMA 22-Jan-2020 (21:34:00.622725)
2020-01-22 21:33:57.267 | -0.05015564,-0.013702393,0.0 | 2020-01-22 21:34:00.106 | ID 439 | TERIMA 22-Jan-2020 (21:34:00.873340)
2020-01-22 21:33:57.391 | -0.27676392,0.057159424,0.0 | 2020-01-22 21:34:00.167 | ID 441 | TERIMA 22-Jan-2020 (21:34:00.941355)
2020-01-22 21:33:57.515 | -0.17353821,0.057159424,0.0 | 2020-01-22 21:34:00.202 | ID 443 | TERIMA 22-Jan-2020 (21:34:01.023375)
2020-01-22 21:33:57.640 | -0.02204895,0.011947632,0.0 | 2020-01-22 21:34:00.589 | ID 445 | TERIMA 22-Jan-2020 (21:34:01.206758)
2020-01-22 21:33:57.771 | 0.011550903,-0.0045318604,0.0 | 2020-01-22 21:34:00.632 | ID 447 | TERIMA 22-Jan-2020 (21:34:01.284353)
2020-01-22 21:33:57.900 | 0.007873535,-0.0069732666,0.0 | 2020-01-22 21:34:00.664 | ID 449 | TERIMA 22-Jan-2020 (21:34:01.355750)
2020-01-22 21:33:58.031 | -6.1035156E-5,-2.593994E-4,0.0 | 2020-01-22 21:34:01.068 | ID 451 | TERIMA 22-Jan-2020 (21:34:01.530734)
2020-01-22 21:33:58.169 | -0.021438599,0.0027923584,0.0 | 2020-01-22 21:34:01.114 | ID 453 | TERIMA 22-Jan-2020 (21:34:01.869740)
2020-01-22 21:33:58.298 | 0.0634613,-0.010040283,0.0 | 2020-01-22 21:34:01.146 | ID 455 | TERIMA 22-Jan-2020 (21:34:02.191365)
2020-01-22 21:33:58.437 | -0.11550903,0.008300781,0.0 | 2020-01-22 21:34:01.545 | ID 457 | TERIMA 22-Jan-2020 (21:34:02.263741)
2020-01-22 21:33:58.569 | -0.03793335,0.02355957,0.0 | 2020-01-22 21:34:01.590 | ID 459 | TERIMA 22-Jan-2020 (21:34:02.334360)
2020-01-22 21:33:58.694 | 0.03353882,-0.01612854,0.0 | 2020-01-22 21:34:01.621 | ID 461 | TERIMA 22-Jan-2020 (21:34:02.404686)
2020-01-22 21:33:58.817 | -0.004333496,-0.016143799,0.0 | 2020-01-22 21:34:02.028 | ID 463 | TERIMA 22-Jan-2020 (21:34:02.471345)
2020-01-22 21:33:58.943 | -0.0049438477,-0.002105713,0.0 | 2020-01-22 21:34:02.069 | ID 465 | TERIMA 22-Jan-2020 (21:34:02.540373)
2020-01-22 21:33:59.076 | -0.040985107,0.0040130615,0.0 | 2020-01-22 21:34:02.100 | ID 467 | TERIMA 22-Jan-2020 (21:34:02.609336)
2020-01-22 21:33:59.201 | -0.03364563,-0.017364502,0.0 | 2020-01-22 21:34:02.507 | ID 469 | TERIMA 22-Jan-2020 (21:34:02.862312)
2020-01-22 21:33:59.335 | -0.0043182373,0.0034179688,0.0 | 2020-01-22 21:34:02.553 | ID 471 | TERIMA 22-Jan-2020 (21:34:03.183637)
2020-01-22 21:33:59.459 | 0.061019897,0.01133728,0.0 | 2020-01-22 21:34:02.595 | ID 473 | TERIMA 22-Jan-2020 (21:34:03.254005)
2020-01-22 21:33:59.578 | -0.028762817,0.0015716553,0.0 | 2020-01-22 21:34:02.627 | ID 475 | TERIMA 22-Jan-2020 (21:34:03.328588)
2020-01-22 21:33:59.696 | -0.03791809,-8.69751E-4,0.0 | 2020-01-22 21:34:02.655 | ID 477 | TERIMA 22-Jan-2020 (21:34:03.419611)
2020-01-22 21:33:59.819 | -0.15032959,0.09625244,0.0 | 2020-01-22 21:34:02.679 | ID 479 | TERIMA 22-Jan-2020 (21:34:03.520975)
2020-01-22 21:33:59.947 | 0.119659424,0.011962891,0.0 | 2020-01-22 21:34:02.706 | ID 481 | TERIMA 22-Jan-2020 (21:34:03.591622)
2020-01-22 21:34:00.072 | -0.050750732,-0.04423523,0.0 | 2020-01-22 21:34:02.736 | ID 483 | TERIMA 22-Jan-2020 (21:34:03.662583)
2020-01-22 21:34:00.195 | 0.072021484,-0.019805908,0.0 | 2020-01-22 21:34:02.762 | ID 485 | TERIMA 22-Jan-2020 (21:34:03.735613)
2020-01-22 21:34:00.321 | -0.001876831,0.008300781,0.0 | 2020-01-22 21:34:02.794 | ID 487 | TERIMA 22-Jan-2020 (21:34:03.811049)
2020-01-22 21:34:00.446 | -0.04586792,0.07670593,0.0 | 2020-01-22 21:34:02.827 | ID 489 | TERIMA 22-Jan-2020 (21:34:03.885584)
2020-01-22 21:34:00.574 | 0.15327454,0.06692505,0.0 | 2020-01-22 21:34:02.860 | ID 491 | TERIMA 22-Jan-2020 (21:34:03.957639)
2020-01-22 21:34:00.702 | 0.027420044,-2.593994E-4,0.0 | 2020-01-22 21:34:02.890 | ID 493 | TERIMA 22-Jan-2020 (21:34:04.060995)
2020-01-22 21:34:00.827 | -0.017166138,-0.0014801025,0.0 | 2020-01-22 21:34:02.922 | ID 495 | TERIMA 22-Jan-2020 (21:34:04.132003)
2020-01-22 21:34:00.961 | -0.040985107,-0.0027008057,0.0 | 2020-01-22 21:34:02.944 | ID 497 | TERIMA 22-Jan-2020 (21:34:04.203570)
2020-01-22 21:34:01.082 | 0.0072784424,-2.593994E-4,0.0 | 2020-01-22 21:34:02.965 | ID 499 | TERIMA 22-Jan-2020 (21:34:04.282984)
2020-01-22 21:34:01.206 | -0.039764404,0.004623413,0.0 | 2020-01-22 21:34:02.987 | ID 501 | TERIMA 22-Jan-2020 (21:34:04.353616)
2020-01-22 21:34:01.330 | -0.03427124,0.013793945,0.0 | 2020-01-22 21:34:03.008 | ID 503 | TERIMA 22-Jan-2020 (21:34:04.421989)
2020-01-22 21:34:01.453 | 0.01399231,0.0027923584,0.0 | 2020-01-22 21:34:03.032 | ID 505 | TERIMA 22-Jan-2020 (21:34:04.492985)
2020-01-22 21:34:01.578 | 0.017654419,-0.010025024,0.0 | 2020-01-22 21:34:03.060 | ID 507 | TERIMA 22-Jan-2020 (21:34:04.565020)
2020-01-22 21:34:01.703 | 0.0042266846,3.5095215E-4,0.0 | 2020-01-22 21:34:03.093 | ID 509 | TERIMA 22-Jan-2020 (21:34:04.632006)
2020-01-22 21:34:01.828 | -0.01838684,0.0040130615,0.0 | 2020-01-22 21:34:03.126 | ID 511 | TERIMA 22-Jan-2020 (21:34:04.702610)
2020-01-22 21:34:01.951 | -0.0012817383,0.006454468,0.0 | 2020-01-22 21:34:03.150 | ID 513 | TERIMA 22-Jan-2020 (21:34:04.768984)
2020-01-22 21:34:02.084 | 0.051864624,-0.0014801025,0.0 | 2020-01-22 21:34:03.183 | ID 515 | TERIMA 22-Jan-2020 (21:34:04.836637)
2020-01-22 21:34:02.203 | -0.019607544,0.024169922,0.0 | 2020-01-22 21:34:03.210 | ID 517 | TERIMA 22-Jan-2020 (21:34:04.904977)
2020-01-22 21:34:02.326 | -0.020828247,-0.0082092285,0.0 | 2020-01-22 21:34:03.242 | ID 519 | TERIMA 22-Jan-2020 (21:34:04.972976)
2020-01-22 21:34:02.444 | 0.01826477,0.017456055,0.0 | 2020-01-22 21:34:03.275 | ID 521 | TERIMA 22-Jan-2020 (21:34:05.040953)
2020-01-22 21:34:02.567 | 0.024383545,0.012557983,0.0 | 2020-01-22 21:34:03.305 | ID 523 | TERIMA 22-Jan-2020 (21:34:05.107102)
2020-01-22 21:34:02.695 | -0.030593872,-8.8500977E-4,0.0 | 2020-01-22 21:34:03.333 | ID 525 | TERIMA 22-Jan-2020 (21:34:05.172999)
2020-01-22 21:34:02.822 | -0.02998352,0.0052337646,0.0 | 2020-01-22 21:34:03.364 | ID 527 | TERIMA 22-Jan-2020 (21:34:05.245100)
2020-01-22 21:34:02.945 | 0.00970459,-0.003326416,0.0 | 2020-01-22 21:34:03.390 | ID 529 | TERIMA 22-Jan-2020 (21:34:05.314626)
2020-01-22 21:34:03.071 | 0.026824951,0.022949219,0.0 | 2020-01-22 21:34:03.414 | ID 531 | TERIMA 22-Jan-2020 (21:34:05.385602)
2020-01-22 21:34:03.210 | -0.06724548,0.016235352,0.0 | 2020-01-22 21:34:03.439 | ID 533 | TERIMA 22-Jan-2020 (21:34:05.457641)
2020-01-22 21:34:03.336 | -0.040985107,3.5095215E-4,0.0 | 2020-01-22 21:34:03.462 | ID 535 | TERIMA 22-Jan-2020 (21:34:05.535066)
2020-01-22 21:34:03.455 | -0.056854248,0.009521484,0.0 | 2020-01-22 21:34:03.491 | ID 537 | TERIMA 22-Jan-2020 (21:34:05.608010)
2020-01-22 21:34:03.579 | -0.08985901,0.026611328,0.0 | 2020-01-22 21:34:03.646 | ID 539 | TERIMA 22-Jan-2020 (21:34:05.679087)
2020-01-22 21:34:03.827 | -6.713867E-4,-2.593994E-4,0.0 | 2020-01-22 21:34:03.887 | ID 543 | TERIMA 22-Jan-2020 (21:34:10.746972)
2020-01-22 21:34:03.950 | -0.0012817383,-0.006362915,0.0 | 2020-01-22 21:34:04.001 | ID 545 | TERIMA 22-Jan-2020 (21:34:10.830001)
2020-01-22 21:34:04.077 | -0.03425598,0.01133728,0.0 | 2020-01-22 21:34:04.454 | ID 547 | TERIMA 22-Jan-2020 (21:34:10.905010)
2020-01-22 21:34:04.207 | -0.040985107,0.0137786865,0.0 | 2020-01-22 21:34:04.482 | ID 549 | TERIMA 22-Jan-2020 (21:34:10.971617)
2020-01-22 21:34:04.330 | 0.051254272,-0.011871338,0.0 | 2020-01-22 21:34:04.511 | ID 551 | TERIMA 22-Jan-2020 (21:34:11.047963)
2020-01-22 21:34:04.453 | 0.043304443,-0.011871338,0.0 | 2020-01-22 21:34:04.931 | ID 553 | TERIMA 22-Jan-2020 (21:34:11.122610)
2020-01-22 21:34:04.579 | -0.031204224,0.008895874,0.0 | 2020-01-22 21:34:04.964 | ID 555 | TERIMA 22-Jan-2020 (21:34:11.221992)
2020-01-22 21:34:04.708 | -0.018997192,9.613037E-4,0.0 | 2020-01-22 21:34:04.988 | ID 557 | TERIMA 22-Jan-2020 (21:34:11.306589)
2020-01-22 21:34:04.836 | -0.042800903,0.018051147,0.0 | 2020-01-22 21:34:05.012 | ID 559 | TERIMA 22-Jan-2020 (21:34:11.388011)
2020-01-22 21:34:04.965 | -0.008605957,-0.016143799,0.0 | 2020-01-22 21:34:05.409 | ID 561 | TERIMA 22-Jan-2020 (21:34:11.494981)
2020-01-22 21:34:05.096 | -0.022659302,-0.003921509,0.0 | 2020-01-22 21:34:05.433 | ID 563 | TERIMA 22-Jan-2020 (21:34:11.569592)
2020-01-22 21:34:05.219 | -0.20776367,-0.019805908,0.0 | 2020-01-22 21:34:05.466 | ID 565 | TERIMA 22-Jan-2020 (21:34:11.643108)
2020-01-22 21:34:05.343 | -0.19003296,0.10664368,0.0 | 2020-01-22 21:34:05.497 | ID 567 | TERIMA 22-Jan-2020 (21:34:11.725635)
2020-01-22 21:34:05.474 | 0.26506042,0.18299866,0.0 | 2020-01-22 21:34:05.520 | ID 569 | TERIMA 22-Jan-2020 (21:34:11.815614)
2020-01-22 21:34:05.597 | 2.482483,-0.38693237,0.0 | 2020-01-22 21:34:05.658 | ID 571 | TERIMA 22-Jan-2020 (21:34:11.920700)
2020-01-22 21:34:05.721 | 2.086029,-0.6331177,0.0 | 2020-01-22 21:34:05.766 | ID 573 | TERIMA 22-Jan-2020 (21:34:12.001005)
2020-01-22 21:34:05.852 | 2.0280151,-0.61294556,0.0 | 2020-01-22 21:34:05.913 | ID 575 | TERIMA 22-Jan-2020 (21:34:12.144626)
2020-01-22 21:34:05.974 | -0.30975342,0.0974884,0.0 | 2020-01-22 21:34:06.025 | ID 577 | TERIMA 22-Jan-2020 (21:34:12.213574)
2020-01-22 21:34:06.093 | -0.7086487,-0.028366089,0.0 | 2020-01-22 21:34:06.152 | ID 579 | TERIMA 22-Jan-2020 (21:34:12.283985)
2020-01-22 21:34:06.218 | -0.5840454,-0.03263855,0.0 | 2020-01-22 21:34:06.257 | ID 581 | TERIMA 22-Jan-2020 (21:34:12.367695)
2020-01-22 21:34:06.340 | -0.488739,0.15672302,0.0 | 2020-01-22 21:34:06.386 | ID 583 | TERIMA 22-Jan-2020 (21:34:12.433966)
2020-01-22 21:34:06.463 | -0.13078308,-0.061950684,0.0 | 2020-01-22 21:34:06.497 | ID 585 | TERIMA 22-Jan-2020 (21:34:12.509614)
2020-01-22 21:34:06.585 | 0.48313904,-0.087005615,0.0 | 2020-01-22 21:34:06.641 | ID 587 | TERIMA 22-Jan-2020 (21:34:12.585967)
2020-01-22 21:34:06.715 | -0.18635559,0.21109009,0.0 | 2020-01-22 21:34:06.785 | ID 589 | TERIMA 22-Jan-2020 (21:34:12.663988)
2020-01-22 21:34:06.843 | -0.10145569,-0.011260986,0.0 | 2020-01-22 21:34:06.895 | ID 591 | TERIMA 22-Jan-2020 (21:34:12.742067)
2020-01-22 21:34:06.966 | 0.12211609,0.09197998,0.0 | 2020-01-22 21:34:07.335 | ID 593 | TERIMA 22-Jan-2020 (21:34:12.815012)
2020-01-22 21:34:07.091 | 0.06163025,-0.09677124,0.0 | 2020-01-22 21:34:07.367 | ID 595 | TERIMA 22-Jan-2020 (21:34:12.892997)
2020-01-22 21:34:07.215 | -0.010437012,-0.21528625,0.0 | 2020-01-22 21:34:07.388 | ID 597 | TERIMA 22-Jan-2020 (21:34:12.961997)
2020-01-22 21:34:07.341 | -0.23095703,-0.19450378,0.0 | 2020-01-22 21:34:07.816 | ID 599 | TERIMA 22-Jan-2020 (21:34:13.030208)
2020-01-22 21:34:07.463 | -0.15032959,0.055923462,0.0 | 2020-01-22 21:34:07.844 | ID 601 | TERIMA 22-Jan-2020 (21:34:13.104263)
2020-01-22 21:34:07.586 | -0.038528442,0.0015716553,0.0 | 2020-01-22 21:34:07.873 | ID 603 | TERIMA 22-Jan-2020 (21:34:13.176210)
2020-01-22 21:34:07.714 | 0.06285095,-0.1645813,0.0 | 2020-01-22 21:34:08.277 | ID 605 | TERIMA 22-Jan-2020 (21:34:13.251258)
2020-01-22 21:34:07.838 | 0.15266418,-0.17985535,0.0 | 2020-01-22 21:34:08.305 | ID 607 | TERIMA 22-Jan-2020 (21:34:13.326878)
2020-01-22 21:34:07.960 | 0.24549866,-0.13952637,0.0 | 2020-01-22 21:34:08.332 | ID 609 | TERIMA 22-Jan-2020 (21:34:13.403866)
2020-01-22 21:34:08.083 | -0.1063385,0.05595398,0.0 | 2020-01-22 21:34:08.767 | ID 611 | TERIMA 22-Jan-2020 (21:34:13.481861)
2020-01-22 21:34:08.200 | 0.022537231,-0.006378174,0.0 | 2020-01-22 21:34:08.798 | ID 613 | TERIMA 22-Jan-2020 (21:34:13.548874)
2020-01-22 21:34:08.324 | -0.031204224,0.030273438,0.0 | 2020-01-22 21:34:08.828 | ID 615 | TERIMA 22-Jan-2020 (21:34:13.625247)
2020-01-22 21:34:08.442 | 0.017654419,-0.058898926,0.0 | 2020-01-22 21:34:09.244 | ID 617 | TERIMA 22-Jan-2020 (21:34:13.709235)
2020-01-22 21:34:08.569 | 0.17341614,-0.23910522,0.0 | 2020-01-22 21:34:09.290 | ID 619 | TERIMA 22-Jan-2020 (21:34:13.842872)
2020-01-22 21:34:08.692 | 0.11843872,-0.38693237,0.0 | 2020-01-22 21:34:09.314 | ID 621 | TERIMA 22-Jan-2020 (21:34:13.921221)
2020-01-22 21:34:08.823 | 0.06896973,-0.26475525,0.0 | 2020-01-22 21:34:09.742 | ID 623 | TERIMA 22-Jan-2020 (21:34:13.993870)
2020-01-22 21:34:08.954 | -0.103897095,-0.06745911,0.0 | 2020-01-22 21:34:09.777 | ID 625 | TERIMA 22-Jan-2020 (21:34:14.069238)
2020-01-22 21:34:09.077 | -0.1869812,0.16223145,0.0 | 2020-01-22 21:34:09.800 | ID 627 | TERIMA 22-Jan-2020 (21:34:14.148864)
2020-01-22 21:34:09.202 | -0.21017456,0.1988678,0.0 | 2020-01-22 21:34:10.205 | ID 629 | TERIMA 22-Jan-2020 (21:34:14.222945)
2020-01-22 21:34:09.331 | -0.10877991,0.13961792,0.0 | 2020-01-22 21:34:10.237 | ID 631 | TERIMA 22-Jan-2020 (21:34:14.298253)
2020-01-22 21:34:09.454 | -0.01777649,0.01928711,0.0 | 2020-01-22 21:34:10.687 | ID 633 | TERIMA 22-Jan-2020 (21:34:14.373230)
2020-01-22 21:34:09.584 | -0.015945435,-0.034469604,0.0 | 2020-01-22 21:34:10.725 | ID 635 | TERIMA 22-Jan-2020 (21:34:14.449247)
2020-01-22 21:34:09.706 | -0.07029724,0.08097839,0.0 | 2020-01-22 21:34:10.746 | ID 637 | TERIMA 22-Jan-2020 (21:34:14.527854)
2020-01-22 21:34:09.825 | -0.31526184,0.013793945,0.0 | 2020-01-22 21:34:11.164 | ID 639 | TERIMA 22-Jan-2020 (21:34:14.606274)
2020-01-22 21:34:09.952 | -0.21690369,-0.12731934,0.0 | 2020-01-22 21:34:11.202 | ID 641 | TERIMA 22-Jan-2020 (21:34:14.673218)
2020-01-22 21:34:10.078 | -0.24072266,-0.16275024,0.0 | 2020-01-22 21:34:11.228 | ID 643 | TERIMA 22-Jan-2020 (21:34:14.744224)
2020-01-22 21:34:10.197 | -0.18208313,-0.09799194,0.0 | 2020-01-22 21:34:11.643 | ID 645 | TERIMA 22-Jan-2020 (21:34:14.819224)
2020-01-22 21:34:10.321 | -0.072753906,0.01928711,0.0 | 2020-01-22 21:34:11.667 | ID 647 | TERIMA 22-Jan-2020 (21:34:14.896227)
2020-01-22 21:34:10.456 | 0.052474976,0.19032288,0.0 | 2020-01-22 21:34:11.695 | ID 649 | TERIMA 22-Jan-2020 (21:34:14.973264)
2020-01-22 21:34:10.574 | 0.037216187,0.32226562,0.0 | 2020-01-22 21:34:12.127 | ID 651 | TERIMA 22-Jan-2020 (21:34:15.046226)
2020-01-22 21:34:10.696 | -0.083740234,0.36990356,0.0 | 2020-01-22 21:34:12.155 | ID 653 | TERIMA 22-Jan-2020 (21:34:15.126241)
2020-01-22 21:34:10.831 | 0.20884705,0.42489624,0.0 | 2020-01-22 21:34:12.181 | ID 655 | TERIMA 22-Jan-2020 (21:34:15.199248)
2020-01-22 21:34:10.957 | 0.23756409,0.40229797,0.0 | 2020-01-22 21:34:12.610 | ID 657 | TERIMA 22-Jan-2020 (21:34:15.280843)
2020-01-22 21:34:11.073 | -0.13871765,0.19398499,0.0 | 2020-01-22 21:34:12.639 | ID 659 | TERIMA 22-Jan-2020 (21:34:15.352230)
2020-01-22 21:34:11.202 | 0.16853333,0.97772217,0.0 | 2020-01-22 21:34:12.667 | ID 661 | TERIMA 22-Jan-2020 (21:34:15.422390)
2020-01-22 21:34:11.330 | 0.027435303,0.69184875,0.0 | 2020-01-22 21:34:12.700 | ID 663 | TERIMA 22-Jan-2020 (21:34:15.492249)
2020-01-22 21:34:11.452 | -0.20774841,-0.054016113,0.0 | 2020-01-22 21:34:12.729 | ID 665 | TERIMA 22-Jan-2020 (21:34:15.567228)
2020-01-22 21:34:11.576 | -0.25050354,-0.77848816,0.0 | 2020-01-22 21:34:12.756 | ID 667 | TERIMA 22-Jan-2020 (21:34:15.663846)
2020-01-22 21:34:11.701 | -0.13137817,-0.8218689,0.0 | 2020-01-22 21:34:12.782 | ID 669 | TERIMA 22-Jan-2020 (21:34:15.740264)
2020-01-22 21:34:11.830 | 0.20884705,-0.47184753,0.0 | 2020-01-22 21:34:12.810 | ID 671 | TERIMA 22-Jan-2020 (21:34:15.807886)
2020-01-22 21:34:12.073 | -0.015335083,-0.102874756,0.0 | 2020-01-22 21:34:12.859 | ID 675 | TERIMA 22-Jan-2020 (21:34:20.892888)
2020-01-22 21:34:12.191 | 0.0060577393,-0.15907288,0.0 | 2020-01-22 21:34:12.882 | ID 677 | TERIMA 22-Jan-2020 (21:34:20.969217)
2020-01-22 21:34:12.314 | -0.040359497,-0.21894836,0.0 | 2020-01-22 21:34:12.906 | ID 679 | TERIMA 22-Jan-2020 (21:34:21.047861)
2020-01-22 21:34:12.438 | 0.006652832,-0.15602112,0.0 | 2020-01-22 21:34:12.930 | ID 681 | TERIMA 22-Jan-2020 (21:34:21.122892)
2020-01-22 21:34:12.565 | -0.07885742,0.77919006,0.0 | 2020-01-22 21:34:12.959 | ID 683 | TERIMA 22-Jan-2020 (21:34:21.214249)
2020-01-22 21:34:12.697 | -0.015335083,0.17567444,0.0 | 2020-01-22 21:34:12.985 | ID 685 | TERIMA 22-Jan-2020 (21:34:21.290242)
2020-01-22 21:34:12.833 | 0.05491638,-0.019210815,0.0 | 2020-01-22 21:34:13.011 | ID 687 | TERIMA 22-Jan-2020 (21:34:21.364854)
2020-01-22 21:34:12.967 | 0.03353882,-0.28918457,0.0 | 2020-01-22 21:34:13.030 | ID 689 | TERIMA 22-Jan-2020 (21:34:21.439276)
2020-01-22 21:34:13.093 | 0.012145996,-0.2323761,0.0 | 2020-01-22 21:34:13.145 | ID 691 | TERIMA 22-Jan-2020 (21:34:21.528871)
2020-01-22 21:34:13.228 | 0.029876709,0.054107666,0.0 | 2020-01-22 21:34:13.284 | ID 693 | TERIMA 22-Jan-2020 (21:34:21.605890)
2020-01-22 21:34:13.354 | 0.061019897,0.28990173,0.0 | 2020-01-22 21:34:13.397 | ID 695 | TERIMA 22-Jan-2020 (21:34:21.687246)
2020-01-22 21:34:13.475 | 0.023773193,0.22268677,0.0 | 2020-01-22 21:34:13.522 | ID 697 | TERIMA 22-Jan-2020 (21:34:21.761243)
2020-01-22 21:34:13.603 | 0.080566406,0.0040130615,0.0 | 2020-01-22 21:34:13.659 | ID 699 | TERIMA 22-Jan-2020 (21:34:21.850882)
2020-01-22 21:34:13.724 | 0.0054473877,-0.21832275,0.0 | 2020-01-22 21:34:14.034 | ID 701 | TERIMA 22-Jan-2020 (21:34:21.924232)
2020-01-22 21:34:13.845 | -0.0690918,-0.16275024,0.0 | 2020-01-22 21:34:14.065 | ID 703 | TERIMA 22-Jan-2020 (21:34:22.017278)
2020-01-22 21:34:13.979 | -0.11366272,-0.16151428,0.0 | 2020-01-22 21:34:14.094 | ID 705 | TERIMA 22-Jan-2020 (21:34:22.093241)
2020-01-22 21:34:14.101 | -0.06907654,0.14511108,0.0 | 2020-01-22 21:34:14.535 | ID 707 | TERIMA 22-Jan-2020 (21:34:22.170360)
2020-01-22 21:34:14.224 | -0.031204224,0.14512634,0.0 | 2020-01-22 21:34:14.568 | ID 709 | TERIMA 22-Jan-2020 (21:34:22.250237)
2020-01-22 21:34:14.348 | -0.10084534,-0.021026611,0.0 | 2020-01-22 21:34:14.592 | ID 711 | TERIMA 22-Jan-2020 (21:34:22.327948)
2020-01-22 21:34:14.466 | -0.051376343,-0.28553772,0.0 | 2020-01-22 21:34:15.004 | ID 713 | TERIMA 22-Jan-2020 (21:34:22.414253)
2020-01-22 21:34:14.588 | -0.025726318,-0.26719666,0.0 | 2020-01-22 21:34:15.031 | ID 715 | TERIMA 22-Jan-2020 (21:34:22.494875)
2020-01-22 21:34:14.710 | -0.08251953,0.041290283,0.0 | 2020-01-22 21:34:15.058 | ID 717 | TERIMA 22-Jan-2020 (21:34:22.565270)
2020-01-22 21:34:14.838 | 0.028045654,0.25508118,0.0 | 2020-01-22 21:34:15.491 | ID 719 | TERIMA 22-Jan-2020 (21:34:22.654876)
2020-01-22 21:34:14.964 | 0.10255432,0.20376587,0.0 | 2020-01-22 21:34:15.519 | ID 721 | TERIMA 22-Jan-2020 (21:34:22.729867)
2020-01-22 21:34:15.088 | 0.024368286,-0.055236816,0.0 | 2020-01-22 21:34:15.547 | ID 723 | TERIMA 22-Jan-2020 (21:34:22.810311)
2020-01-22 21:34:15.226 | 0.0011749268,-0.2959137,0.0 | 2020-01-22 21:34:15.974 | ID 725 | TERIMA 22-Jan-2020 (21:34:22.905915)
2020-01-22 21:34:15.352 | -0.10328674,-0.23605347,0.0 | 2020-01-22 21:34:15.999 | ID 727 | TERIMA 22-Jan-2020 (21:34:22.977883)
2020-01-22 21:34:15.484 | -0.16009521,-0.063797,0.0 | 2020-01-22 21:34:16.020 | ID 729 | TERIMA 22-Jan-2020 (21:34:23.048088)
2020-01-22 21:34:15.606 | -0.020217896,0.1640625,0.0 | 2020-01-22 21:34:16.048 | ID 731 | TERIMA 22-Jan-2020 (21:34:23.141122)
2020-01-22 21:34:15.729 | -0.022659302,-0.010650635,0.0 | 2020-01-22 21:34:16.075 | ID 733 | TERIMA 22-Jan-2020 (21:34:23.212513)
2020-01-22 21:34:15.852 | -0.064193726,-0.047286987,0.0 | 2020-01-22 21:34:16.100 | ID 735 | TERIMA 22-Jan-2020 (21:34:23.298094)
2020-01-22 21:34:15.973 | -0.07885742,-0.058898926,0.0 | 2020-01-22 21:34:16.444 | ID 737 | TERIMA 22-Jan-2020 (21:34:23.371491)
2020-01-22 21:34:16.095 | -0.088012695,-0.05278015,0.0 | 2020-01-22 21:34:16.486 | ID 739 | TERIMA 22-Jan-2020 (21:34:23.450087)
2020-01-22 21:34:16.218 | -0.16621399,-0.013092041,0.0 | 2020-01-22 21:34:16.513 | ID 741 | TERIMA 22-Jan-2020 (21:34:23.523105)
2020-01-22 21:34:16.342 | -0.16070557,-0.045455933,0.0 | 2020-01-22 21:34:16.933 | ID 743 | TERIMA 22-Jan-2020 (21:34:23.620115)
2020-01-22 21:34:16.469 | -0.1869812,-0.030181885,0.0 | 2020-01-22 21:34:16.956 | ID 745 | TERIMA 22-Jan-2020 (21:34:23.684492)
2020-01-22 21:34:16.591 | -0.092285156,-0.021621704,0.0 | 2020-01-22 21:34:16.979 | ID 747 | TERIMA 22-Jan-2020 (21:34:23.757496)
2020-01-22 21:34:16.721 | -0.044036865,-0.03201294,0.0 | 2020-01-22 21:34:17.008 | ID 749 | TERIMA 22-Jan-2020 (21:34:23.830114)
2020-01-22 21:34:16.851 | 0.0060577393,0.016845703,0.0 | 2020-01-22 21:34:17.034 | ID 751 | TERIMA 22-Jan-2020 (21:34:23.919618)
2020-01-22 21:34:16.975 | 0.024978638,0.060821533,0.0 | 2020-01-22 21:34:17.057 | ID 753 | TERIMA 22-Jan-2020 (21:34:24.001135)
2020-01-22 21:34:17.100 | -0.015335083,0.044326782,0.0 | 2020-01-22 21:34:17.148 | ID 755 | TERIMA 22-Jan-2020 (21:34:24.073529)
2020-01-22 21:34:17.229 | -0.04220581,-0.19696045,0.0 | 2020-01-22 21:34:17.272 | ID 757 | TERIMA 22-Jan-2020 (21:34:24.147202)
2020-01-22 21:34:17.352 | -0.13200378,-0.1169281,0.0 | 2020-01-22 21:34:17.409 | ID 759 | TERIMA 22-Jan-2020 (21:34:24.236133)
2020-01-22 21:34:17.473 | -0.048324585,0.15367126,0.0 | 2020-01-22 21:34:17.525 | ID 761 | TERIMA 22-Jan-2020 (21:34:24.308502)
2020-01-22 21:34:17.593 | 0.05796814,0.2587433,0.0 | 2020-01-22 21:34:17.656 | ID 763 | TERIMA 22-Jan-2020 (21:34:24.391497)
2020-01-22 21:34:17.715 | 0.019485474,0.08036804,0.0 | 2020-01-22 21:34:17.769 | ID 765 | TERIMA 22-Jan-2020 (21:34:24.467109)
2020-01-22 21:34:17.838 | 0.020706177,-0.15602112,0.0 | 2020-01-22 21:34:17.889 | ID 767 | TERIMA 22-Jan-2020 (21:34:24.544537)
2020-01-22 21:34:17.960 | -0.05870056,-0.28370667,0.0 | 2020-01-22 21:34:18.011 | ID 769 | TERIMA 22-Jan-2020 (21:34:24.616126)
2020-01-22 21:34:18.081 | -0.095336914,-0.13891602,0.0 | 2020-01-22 21:34:18.150 | ID 771 | TERIMA 22-Jan-2020 (21:34:24.698139)
2020-01-22 21:34:18.207 | -0.13442993,-0.043029785,0.0 | 2020-01-22 21:34:18.257 | ID 773 | TERIMA 22-Jan-2020 (21:34:24.772515)
2020-01-22 21:34:18.346 | 0.011550903,0.13717651,0.0 | 2020-01-22 21:34:18.389 | ID 775 | TERIMA 22-Jan-2020 (21:34:24.860502)
2020-01-22 21:34:18.467 | -0.014709473,0.08647156,0.0 | 2020-01-22 21:34:18.852 | ID 777 | TERIMA 22-Jan-2020 (21:34:24.934134)
2020-01-22 21:34:18.581 | 0.001159668,-0.07173157,0.0 | 2020-01-22 21:34:18.882 | ID 779 | TERIMA 22-Jan-2020 (21:34:25.022097)
